<?xml version="1.0" encoding="utf-8"?>
<!-- Generator: Adobe Illustrator 27.3.1, SVG Export Plug-In . SVG Version: 6.00 Build 0)  -->
<svg version="1.1" id="圖層_1" xmlns="http://www.w3.org/2000/svg" xmlns:xlink="http://www.w3.org/1999/xlink" x="0px" y="0px"
	 viewBox="0 0 600 600" style="enable-background:new 0 0 600 600;" xml:space="preserve">
<style type="text/css">
	.st0{fill:#FFFFFF;}
</style>
<g>
	<path class="st0" d="M457.9,419.8l-59.7-59.7c43.4-61.6,37.6-147.5-17.5-202.6c-61.6-61.6-161.7-61.6-223.3,0s-61.6,161.7,0,223.3
		c30.8,30.8,71.2,46.2,111.7,46.2c31.9,0,63.8-9.6,90.9-28.7l59.7,59.7c5.3,5.3,12.2,7.9,19.1,7.9s13.8-2.6,19.1-7.9
		C468.5,447.4,468.5,430.3,457.9,419.8z M195.7,342.6c-40.5-40.5-40.5-106.4,0-147c20.3-20.3,46.9-30.4,73.5-30.4
		s53.2,10.1,73.5,30.4c40.5,40.5,40.5,106.4,0,147c-20.3,20.3-46.9,30.4-73.5,30.4C242.5,373,215.9,362.9,195.7,342.6z"/>
	<path class="st0" d="M300,14c38.6,0,76.1,7.6,111.3,22.5c34.1,14.4,64.6,35,90.9,61.3c26.3,26.3,46.9,56.9,61.3,90.9
		C578.4,223.9,586,261.4,586,300s-7.6,76.1-22.5,111.3c-14.4,34.1-35,64.6-61.3,90.9c-26.3,26.3-56.9,46.9-90.9,61.3
		C376.1,578.4,338.6,586,300,586s-76.1-7.6-111.3-22.5c-34.1-14.4-64.6-35-90.9-61.3c-26.3-26.3-46.9-56.9-61.3-90.9
		C21.6,376.1,14,338.6,14,300s7.6-76.1,22.5-111.3c14.4-34.1,35-64.6,61.3-90.9c26.3-26.3,56.9-46.9,90.9-61.3
		C223.9,21.6,261.4,14,300,14 M300,0C134.3,0,0,134.3,0,300s134.3,300,300,300c165.7,0,300-134.3,300-300S465.7,0,300,0L300,0z"/>
</g>
</svg>
