<?xml version="1.0" encoding="utf-8"?>
<!-- Generator: Adobe Illustrator 27.3.1, SVG Export Plug-In . SVG Version: 6.00 Build 0)  -->
<svg version="1.1" id="圖層_1" xmlns="http://www.w3.org/2000/svg" xmlns:xlink="http://www.w3.org/1999/xlink" x="0px" y="0px"
	 viewBox="0 0 600 600" style="enable-background:new 0 0 600 600;" xml:space="preserve">
<style type="text/css">
	.st0{fill:#FFFFFF;}
	.st1{fill:none;}
</style>
<g>
	<g>
		<path class="st0" d="M375.8,257.2l9.6-9.6c6.1-6.1,6.1-15.9,0-22l-11-11c-6.1-6.1-15.9-6.1-22,0l-9.6,9.6L375.8,257.2z"/>
		<polygon class="st0" points="338.7,228.3 220.3,346.7 210,390 253.3,379.7 371.7,261.3 		"/>
	</g>
	<rect class="st1" width="600" height="600"/>
</g>
</svg>
