<?xml version="1.0" encoding="utf-8"?>
<!-- Generator: Adobe Illustrator 27.5.0, SVG Export Plug-In . SVG Version: 6.00 Build 0)  -->
<svg version="1.1" id="圖層_1" xmlns="http://www.w3.org/2000/svg" xmlns:xlink="http://www.w3.org/1999/xlink" x="0px" y="0px"
	 viewBox="0 0 720 720" style="enable-background:new 0 0 720 720;" xml:space="preserve">
<style type="text/css">
	.st0{opacity:0.5;fill:#FFFFFF;}
	.st1{fill:#E60012;}
	.st2{fill:none;stroke:#FFFFFF;stroke-width:1.7647;stroke-miterlimit:10;}
	.st3{fill:none;}
</style>
<g>
	<g>
		<g>
			<path class="st0" d="M225.3,486.4c-19-20.1-22.5-49-23.5-72.2c0.1-22.2,6.3-44.1,12.3-65.2c2.6-9.1,5.2-18.5,7.4-27.9
				c0.8,11,1.7,22.1,2.5,33.2c1.3,16.6,2.5,33.3,3.8,50c0.3,14.1-0.5,28.5-1.2,42.4C225.8,459.6,225.1,473.1,225.3,486.4z"/>
			<path class="st0" d="M207.6,625.1c0-4.7,0.9-9.4,1.7-13.9c1.5-8.4,3.1-17-0.6-25.9c-11.7-29.1-11.1-42.1-5.3-71.8
				c8.7,33.9,17.4,69,6.7,103.1l1.4,0.6c6-12.1,6.7-25.7,7.5-38.9l0-0.3c0.1-9.1,0.7-18.4,1.2-27.4c1.2-21,2.5-42.6-1.2-63.9
				C245.3,523.5,239.9,590.4,207.6,625.1z"/>
			<path class="st1" d="M197.1,207.4c-12,0-20.2-8.1-20.4-20.3c0-1.4,0.3-11.7,0.6-15.4c0.5-5.3,3.3-9,8.2-10.8
				c3.8-1.4,7.6-2.7,11.4-4c1.8-0.6,3.6-1.2,5.5-1.9c1-0.3,1.9-0.5,2.8-0.5c1.8,0,3.5,0.7,4.9,2.2c1.3,1.3,2.8,2.9,3.7,4.6
				c2.4,4.9,4.8,9.8,7.2,14.8c2,4.1,3.9,8.1,5.9,12.2c1.1,2.3,1,3.7-0.4,5.1C216.5,203,207.5,207.4,197.1,207.4L197.1,207.4z"/>
			<path class="st1" d="M150,207.4c-10.3,0-19.4-4.4-29.5-14.1c-1.4-1.4-1.5-2.8-0.4-5.1c2-4.1,4-8.2,6-12.3
				c2.4-4.9,4.7-9.8,7.2-14.7c0.9-1.7,2.3-3.3,3.7-4.6c1.4-1.5,3.1-2.2,4.9-2.2c0.9,0,1.9,0.2,2.8,0.5c1.8,0.6,3.7,1.3,5.5,1.9
				c3.8,1.3,7.6,2.6,11.4,4c4.9,1.8,7.6,5.5,8.2,10.8c0.4,3.7,0.6,14,0.6,15.4C170.2,199.3,162,207.4,150,207.4L150,207.4z"/>
			<path class="st0" d="M309.1,392.6c-1,0-2.7-1-3.3-2.2c-0.8-1.4-1.7-3.1-2.7-4.8c-1.8-3.1-3.6-6.3-4.8-8.7c-0.6-1.3-1.4-2-2.2-2
				c-0.4,0-0.8,0.2-1,0.6c-0.4,0.7-0.3,1.8,0.4,3.1c0.4,0.8,0.8,1.6,1.2,2.4c0.5,1,1,2,1.5,3.1c0.2,0.4,0.4,0.8,0.6,1.2
				c0.2,0.3,0.4,0.7,0.5,1c-0.2,0.1-0.4,0.1-0.5,0.1c-0.5,0-0.8-0.3-1.3-1.1c-0.9-1.3-1.7-2.6-2.5-3.9c-0.9-1.4-1.8-2.8-2.7-4.2
				c-0.9-1.4-1.9-2.8-2.9-4.1c-1.2-1.7-2.4-3.4-3.6-5.2c-1.8-2.8-3.6-5.6-5-8.5c-1.1-2.3-1.2-5-0.2-7.5c1.6-3.9,2.2-8.3,1.7-13.2
				l-0.1-1.2c-0.8-9.2-1.5-18.7-3.7-27.9c0.3,0.4,0.6,0.8,0.8,1.1l12.5,17.8c2.3,3.3,4.9,6.6,9.6,7.7c1,0.2,2.1,1,3.3,2.2
				c2.4,2.4,4.7,4.8,7,7.2c1.9,2,3.8,4,5.8,5.9c1,1,2.3,1.8,3.4,2.5c0.5,0.3,1.1,0.6,1.7,0.8c0.4,0.2,0.8,0.3,1.2,0.5
				c0.3,0.2,0.7,0.3,1,0.4c1.1,0.4,1.3,0.5,1.2,1.1c-0.1,0.7-0.4,1.6-2.5,2.2c-0.4,0.1-0.8,0.2-1.3,0.2c-0.5,0-0.9,0-1.4-0.1
				c-2.3-0.4-4.4-0.9-6.3-1.4c-0.7-0.2-1.3-0.3-1.9-0.3c-1.2,0-2.4,0.4-3.5,1.3l-0.4,0.3l0.2,0.5c0.1,0.2,0.1,0.4,0.2,0.6
				c0.1,0.5,0.3,1.1,0.6,1.6c1.5,2.6,2.9,5.1,4.4,7.7c1.7,3,3.5,6,5.2,9.1c1.8,2.8,1.9,4.4,1.6,4.8c-0.1,0.1-0.2,0.2-0.4,0.2
				c-0.8,0-2.3-1-3.7-3.3c-1.5-2.6-3.1-5-4.7-7.5c-1.5-2.3-3-4.7-4.5-7.2c-0.6-1.2-1.3-1.8-2-1.8c-0.4,0-0.8,0.2-1,0.6
				c-0.4,0.8-0.2,2.1,0.6,3.3c1.8,3.4,3.7,6.7,5.6,10c1.9,3.4,3.9,6.7,5.7,10.2c0.9,1.5,1.1,2.8,0.7,3.5c-0.2,0.3-0.5,0.5-0.9,0.5
				c-1.1,0-2.8-1.1-4-3.6c-1.3-2.3-2.6-4.7-4-7.1c-1.8-3.1-3.6-6.3-5.2-9.2c-0.7-1.2-1.5-1.9-2.3-1.9c-0.5,0-0.9,0.3-1.2,0.7
				c-0.4,0.8-0.3,1.9,0.4,3.1c0.7,1.3,1.4,2.5,2.1,3.7c0.9,1.5,1.8,3,2.6,4.6c0.5,1,1.1,2,1.6,3c0.9,1.6,1.8,3.1,2.5,4.8
				c0.8,1.8,0.5,2.4,0.4,2.5C309.5,392.6,309.3,392.6,309.1,392.6z"/>
			<path class="st0" d="M191.2,419.8c-5.1-17.6-8.2-37.8-9.6-61.5c-0.8-5,1.2-8.6,5.6-10.1c11.3-5.8,19.3-15.2,27-24.2
				c0.9-1,1.8-2.1,2.6-3.1c-3.7,15.7-8,31.4-12.1,46.6C200,384.6,195.2,402.2,191.2,419.8z"/>
			<path class="st0" d="M240.4,673.1c-5.3,0-9.4-2.9-13.7-6c-3.3-2.3-6.7-4.7-10.7-5.9c-6.9-3-7.2-12.2-7.5-20.3
				c-0.1-2.3-0.1-4.5-0.4-6.4c0.2-5.3,3.9-9.1,7.9-13.2c3-3.1,6.1-6.3,7.7-10.3c0.7,3,1,6.3,1.3,9.5c0.5,5.6,1,11.3,3.7,16.2
				c3.8,5.6,9.1,9.7,14.1,13.8c5.9,4.7,11.5,9.1,15,15.5c0.1,0.5,0,1-0.4,1.6c-1.5,2.5-7.5,3.7-11.4,4.6c-1.2,0.3-2.3,0.5-3.1,0.7
				C242.2,673,241.3,673.1,240.4,673.1z"/>
			<path class="st1" d="M263,266.5c-13.7-18.6-21.9-40.5-25-66.6c-0.2-1.6-0.1-3.2,0-4.7c0.1-1.8,0.6-1.9,1.4-1.9c0.2,0,0.4,0,0.6,0
				c1.9,0.2,3.8,0.6,5.9,1.2c1.7,0.5,3.4,1.2,5,1.8l1.7,0.7c5.1,2,9.3,5.5,12.3,10.4c4.3,7.1,6.3,14.2,6.2,21.9
				c-0.1,5.1-1.4,9.3-3.9,12.9c-2.8,3.9-3.4,8.5-3.7,12.5c-0.1,1.9-0.2,3.9-0.2,5.8c0,1.2,0,2.4-0.1,3.5
				C263.2,264.9,263.1,265.7,263,266.5z"/>
			<path class="st1" d="M259.7,197.2c-7.1-4.7-14.7-6.8-22-8.3c-4-0.9-6.9-2.9-8.8-6.2l-1.1-2c-3.8-6.6-7.7-13.4-10.3-20.7
				c-0.9-2.5-0.5-3.8,1.6-5.8c2.5-2.4,5.3-3.5,8.6-3.5c1.1,0,2.2,0.1,3.4,0.3c7.1,1.3,14.3,3.4,19.6,9.5c5.7,6.7,8.6,13.4,8.9,20.4
				c0.2,3.9,0.1,7.8,0.1,11.9C259.8,194.2,259.7,195.7,259.7,197.2z"/>
			<path class="st0" d="M230,450.3c1.9-26,2.9-44.2,0.2-67.2c-2.2-22.5-4.3-46.6-3.6-73.4l1.5,5.2
				C242.4,366.3,250.5,395.2,230,450.3z"/>
			<path class="st1" d="M175.4,345.2c-0.1-0.6-0.1-1.1-0.1-1.6l0.1-8.1c0.2-10.8,0.3-21.7,0.6-32.5c0-2,0.4-4.1,0.7-6.1
				c0.1-0.9,0.3-1.8,0.4-2.7c0.2-1.9,1.2-3,3-3.6l3-0.8c3.6-1,7.3-2.1,10.9-3.1c0.4-0.1,0.8-0.1,1.2-0.2c0.2,0,0.4,0,0.6,0
				c1.2,0,2,0.2,2.5,0.7c0.5,0.5,0.8,1.4,0.8,2.6c0,2.7-0.1,6.3-0.6,9.8c-1.4,9.7-4.3,19-8.2,30c-2,5.7-4.9,9.9-8.6,12.9
				c-1.8,1.4-3.4,2.1-6.1,2.6L175.4,345.2z"/>
			<path class="st1" d="M222.1,262.6c-0.1-0.3-0.3-0.6-0.4-1c-1.2-3.8-3.3-7.2-6.5-10.5l-1.4-1.5c-1.2-1.2-2.4-2.5-3.6-3.7
				c-2.9-3.2-4.7-6.6-5.4-10.5c-0.8-4.4-1.7-8.7-2.6-13.1c-0.5-2.5-1.1-5-1.6-7.6c-0.5-2.7-0.3-2.9,2.3-3.9c4-1.4,7.9-2.9,11.8-4.4
				l5.3-2l4.1-1.5c0,0.2,0.1,0.3,0.1,0.5c0.2,0.8,0.4,1.4,0.5,2.1c1,10.4,2,22.5,0.7,34.6l-0.5,4.5c-0.5,4.8-1.1,9.6-1.6,14.3
				C223.1,260.5,222.9,261.6,222.1,262.6z"/>
			<path class="st1" d="M276.2,336c-8.1-16.7-16.4-33.9-22.4-51.8c-0.9-2.8-2-6.1-2.8-9.5c-1-4.3-2.1-8.6-4.2-12.5
				c-1.3-2.5-1.6-5.4-1.1-8.6c0.1-0.6,0.4-1.2,0.7-2c0.1-0.1,0.1-0.3,0.2-0.4c0.1,0.1,0.3,0.2,0.4,0.3c0.6,0.6,1.2,1,1.6,1.5
				c1.6,1.8,3.1,3.6,4.6,5.5l1.1,1.4c3.9,4.7,7,9.9,9.1,15.4c5.4,14.2,10.8,29.6,13.3,46.1c0.7,4.6,1.1,9.3,1.6,13.9l0.1,1.5
				c0.1,1.3,0.1,2.5,0.1,4c0,0,0,0,0,0L276.2,336z"/>
			<path class="st1" d="M190,338.4c0.4-0.7,0.7-1.4,1-2c3.9-8.8,7.9-17.8,9.9-27.3c1.1-5.5,1.8-11.2,2.5-16.6l0.1-0.4
				c0.3-2.7,1.1-4.1,2.6-4.9c5.6-3.1,10-7.7,13.7-14.6c1.7,5.3,2.5,10.4,2.9,14.2c0,0.2,0,0.4,0,0.6c0,0.3,0,0.5,0.1,0.8
				c1,8.5-1.3,16.7-7,25.1c-4.7,6.9-9.6,14-16.3,19.2c-2.1,1.6-4.4,3-6.7,4.3C191.8,337.3,190.9,337.9,190,338.4z"/>
			<path class="st1" d="M296.3,327.5c-0.2-0.2-0.4-0.4-0.6-0.7c-14.7-17.8-23.7-35.6-27.4-54.6c-0.8-4.3-1.4-9.1-1.6-14.9
				c-0.1-2.2,0.6-4.6,1.2-6.9l0.2-0.6c0.2-0.7,0.7-1.3,1.3-2.1c0.2-0.2,0.3-0.4,0.5-0.7c0.2,0.2,0.4,0.4,0.6,0.6
				c0.8,0.8,1.4,1.5,1.9,2.2c6.2,8.7,10.1,18.8,11.8,30.2c0.3,2.1,0.6,4.2,0.9,6.3c0.7,5.2,1.4,10.6,2.4,15.9
				C288.9,309.9,291.7,317.9,296.3,327.5C296.3,327.5,296.3,327.5,296.3,327.5z"/>
			<path class="st0" d="M215.7,549.4c-1.2-5.9-2.7-12-4.2-17.8c-5.1-20.3-10.4-41.3-3.9-61.9c12.1,20.5,10.4,45.4,8.8,69.5
				C216.1,542.6,215.8,546,215.7,549.4z"/>
			<path class="st1" d="M177.8,286.8c-1,0-1.8-0.2-1.9-3c-0.1-2.4,0-4.8,0-7.2l0-2.4l0.1-0.8c0-1.2,0-2.3,0-3.5
				c0-2.6-0.1-5.2,0.1-7.8c0.3-3.8,0.9-4.4,4.9-4.5c0.5,0,0.9,0,1.4,0c6.4,0,12,1.5,17.3,4.5c1.9,1.1,2.6,2.5,2.2,4.6
				c-0.8,4.9-2.2,9.1-4.2,12.8c-1.1,1.9-2.5,3.1-4.5,3.5c-2.5,0.6-5,1.3-7.5,1.9c-2,0.5-4.1,1.1-6.1,1.6
				C178.9,286.7,178.3,286.8,177.8,286.8z"/>
			<path class="st0" d="M200.2,496.4c-9.3-25.1-10.5-51.1-3.7-79.1c0.1,0.9,0.2,1.8,0.3,2.7c1.5,13.6,3,27.6,6.7,41.1
				c-0.2,4.7-0.9,9.7-1.7,14.5C200.9,482.4,199.8,489.3,200.2,496.4z"/>
			<path class="st1" d="M202.1,257.5c-1.1-0.4-2.2-0.8-3.3-1.1c-3.2-1.1-6.1-2.1-9.2-2.7c-3.2-0.5-6.4-0.6-9.6-0.6
				c-1.2,0-2.5,0-3.7-0.1c0-0.1-0.1-0.2-0.1-0.3c-0.1-0.5-0.3-1-0.3-1.4l0-1c-0.1-3.9-0.1-8,0-12c0.1-3.3,0.6-3.8,3.8-3.9l0.4,0
				c7.5,0,13.8,2.6,19,7.7c0.7,0.7,1.1,1.4,1.3,1.9C201.3,248.6,201.9,253.1,202.1,257.5z"/>
			<path class="st1" d="M200.1,235.8c-0.7-0.3-1.3-0.6-1.9-0.9c-5.4-2.9-11.3-4.7-18-5.4l-0.5,0c-0.3,0-0.5,0-0.8-0.1
				c-2.9-0.4-3-0.6-3.1-3.4c0-0.3,0-0.6,0-1c0-0.6,0.1-1.3,0-1.9c-0.9-5.3,1.6-9.6,4.5-13.4c0.9-1.1,1.5-1.3,1.9-1.3
				c0.4,0,0.8,0.1,1.2,0.3c1.6,0.7,3.2,1.4,4.9,2.1c1.2,0.5,2.5,1,3.7,1.6c2.1,0.9,3.5,2.4,4,4.5c1.3,5.2,2.5,10.5,3.7,15.8l0.7,3.3
				L200.1,235.8z"/>
			<path class="st0" d="M176.9,153.6c-0.4-4.6,0.1-9,1.6-13.7c0.7-2.3,1.7-4.6,2.6-6.8c0.5-1.1,0.9-2.3,1.4-3.5c0.9-2.4,2.5-4,5-5
				c1.3-0.5,2.5-1.1,3.7-1.6l1.1-0.5c0.1,0.1,0.4,0.3,0.4,0.4c1.4,5.2,2.9,10.7-0.9,15.7c-3.4,4.4-6.9,8.6-9.6,11.7
				C180.7,152.1,179.5,152.9,176.9,153.6z"/>
			<path class="st1" d="M182.4,156.1c0.2-0.4,0.4-0.7,0.6-1c0.8-0.9,1.6-1.7,2.4-2.6c1.4-1.4,2.8-2.9,4.1-4.5c1.6-1.9,3-4,4.4-6
				c0.6-0.9,1.2-1.7,1.8-2.6l1-1.3l23.2,10.5l-6.4,4.7c-2.5-1.8-5-2.7-7.7-2.7c-1.4,0-2.8,0.2-4.3,0.7c-4,1.2-8.2,2.3-12.2,3.3
				c-1.6,0.4-3.1,0.8-4.7,1.2C184,155.8,183.3,155.9,182.4,156.1L182.4,156.1z"/>
			<path class="st1" d="M200.7,284.4c4.6-4.7,6.9-11,6.8-18.6c-0.1-3.6-0.5-7.3-1-10.8c-0.2-1.5-0.4-3.1-0.6-4.6
				c-0.1-0.6-0.2-1.2-0.3-1.9c0,0,0,0,0,0c0.8,0.6,1.5,1.1,2.1,1.7l0.3,0.3c2.7,2.9,5.5,6,8.1,9.1c1.7,2.1,2.1,4.7,1.2,7.4
				c-2,5.6-4.9,9.9-8.8,13.3C206.4,282.3,203.9,283.6,200.7,284.4z"/>
			<path class="st1" d="M244.3,243.5c-8.9-13-12.3-26.3-10.2-40.4c0.7,2.4,1.2,4.8,1.7,7.2c0.4,1.8,0.7,3.5,1.2,5.3
				c0.7,2.7,1.4,5.3,2.2,7.9c0.7,2.5,1.4,4.9,2,7.4c0.3,1.1,0.6,2.3,0.9,3.4C242.9,237.3,243.8,240.4,244.3,243.5z"/>
			<path class="st0" d="M117.1,450.3c-20.5-55.1-12.4-84,2-135.4l1.5-5.2c0.7,26.8-1.4,50.9-3.6,73.4
				C114.2,406.1,115.2,424.3,117.1,450.3z"/>
			<path class="st0" d="M121.8,486.4c0.1-13.3-0.6-26.7-1.2-39.8c-0.7-13.9-1.5-28.3-1.2-42.4c1.2-16.8,2.5-33.7,3.8-50.5
				c0.8-10.9,1.7-21.8,2.5-32.6c2.2,9.4,4.8,18.8,7.4,27.9c6,21.2,12.1,43,12.3,65.2C144.4,437.3,140.9,466.3,121.8,486.4z"/>
			<path class="st0" d="M139.5,625.1c-32.3-34.7-37.7-101.6-11.4-138.4c-3.8,21.3-2.5,42.9-1.2,63.8c0.5,9,1.1,18.2,1.2,27.3l0,0.4
				c0.7,13.2,1.5,26.8,7.5,38.9l1.4-0.6c-10.7-34.1-2-69.1,6.7-103.1c5.8,29.7,6.3,42.7-5.3,71.8c-3.7,8.9-2.1,17.5-0.6,25.9
				C138.7,615.8,139.5,620.4,139.5,625.1z"/>
			<path class="st0" d="M155.9,419.8c-4-17.6-8.8-35.2-13.4-52.3c-4.2-15.2-8.5-31-12.1-46.6c0.9,1,1.8,2,2.6,3.1
				c7.7,9.1,15.8,18.4,26.9,24.2c4.5,1.5,6.5,5.1,5.7,10.1C164.1,382,161,402.2,155.9,419.8z"/>
			<path class="st0" d="M106.7,673.1c-0.9,0-1.8-0.1-2.7-0.3c-0.7-0.2-1.8-0.4-3-0.7c-3.9-0.8-9.9-2.1-11.4-4.6
				c-0.3-0.5-0.4-1.1-0.3-1.8c3.5-6.2,9-10.6,15-15.3c5.1-4,10.3-8.2,14.1-13.7c2.7-4.9,3.3-10.7,3.8-16.2c0.3-3.2,0.6-6.5,1.3-9.5
				c1.6,4.1,4.7,7.2,7.7,10.3c3.9,4,7.7,7.8,7.9,13.3c-0.2,1.8-0.3,4-0.4,6.3c-0.3,8.1-0.6,17.2-7.6,20.3c-3.9,1.1-7.3,3.5-10.6,5.9
				C116.1,670.2,111.9,673.1,106.7,673.1L106.7,673.1z"/>
			<path class="st1" d="M84.1,266.5c-0.1-0.8-0.2-1.6-0.2-2.4c0-1.2-0.1-2.4-0.1-3.6c0-1.9,0-3.9-0.2-5.8c-0.3-4-0.9-8.6-3.7-12.5
				c-2.6-3.5-3.9-7.8-3.9-12.9c-0.1-7.6,1.9-14.8,6.2-21.9c3-4.9,7.1-8.5,12.3-10.4l1.8-0.7c1.6-0.6,3.3-1.3,5-1.8
				c2.1-0.6,4.1-1,5.9-1.2c0.2,0,0.4,0,0.6,0c0.8,0,1.3,0.1,1.4,1.9c0.1,1.5,0.2,3.1,0,4.7C106,226,97.8,247.9,84.1,266.5z"/>
			<path class="st1" d="M87.3,192.8c0-4.1-0.1-8,0.1-11.9c0.3-7,3.2-13.7,8.9-20.4c5.2-6.2,12.5-8.2,19.6-9.5
				c1.2-0.2,2.3-0.3,3.4-0.3c3.3,0,6,1.1,8.6,3.5c2.2,2,2.5,3.4,1.6,5.8c-2.6,7.3-6.5,14.1-10.3,20.7l-1.1,1.9
				c-1.9,3.3-4.7,5.3-8.8,6.2c-7.2,1.6-14.8,3.7-22,8.3C87.4,195.7,87.4,194.3,87.3,192.8z"/>
			<path class="st1" d="M171.7,345.3c-2.7-0.5-4.3-1.2-6.1-2.6c-3.8-3-6.6-7.2-8.6-12.9c-3.9-11-6.8-20.3-8.2-30
				c-0.5-3.5-0.6-6.9-0.6-9.8c0-1.2,0.2-2.1,0.8-2.6c0.5-0.5,1.3-0.7,2.5-0.7c0.2,0,0.4,0,0.6,0c0.4,0,0.8,0,1.2,0.1
				c3.5,1,13.9,3.9,13.9,3.9c1.8,0.5,2.8,1.7,3,3.6c0.1,0.9,0.3,1.8,0.4,2.8c0.3,2,0.6,4,0.7,6c0.3,10.8,0.4,21.5,0.6,32.3l0.1,8.4
				c0,0.5,0,1-0.1,1.5L171.7,345.3z"/>
			<path class="st1" d="M125,262.6c-0.8-1.1-1.1-2.3-1.2-3.5c-0.6-4.8-1.1-9.7-1.7-14.5l-0.5-4.3c-1.3-12.1-0.4-24.2,0.7-34.6
				c0.1-0.7,0.3-1.3,0.5-2.1c0-0.2,0.1-0.3,0.1-0.5l4.1,1.5l5.3,2c3.9,1.5,7.9,3,11.8,4.4c2.6,0.9,2.9,1.1,2.4,3.9
				c-0.5,2.5-1,5-1.6,7.6c-0.9,4.3-1.8,8.7-2.6,13.1c-0.7,3.9-2.5,7.3-5.4,10.5c-1.1,1.2-2.3,2.4-3.5,3.7l-1.5,1.6
				c-3.2,3.3-5.3,6.7-6.5,10.5C125.3,262,125.2,262.3,125,262.6z"/>
			<path class="st1" d="M68.5,340.7c0-1.5-0.1-2.7,0.1-4l0.2-1.6c0.4-4.5,0.9-9.2,1.6-13.7c2.5-16.5,7.9-31.9,13.3-46.1
				c2.1-5.5,5.2-10.7,9.1-15.4l1-1.2c1.6-1.9,3.1-3.8,4.7-5.6c0.5-0.5,1-1,1.6-1.5c0.1-0.1,0.2-0.2,0.4-0.3c0.1,0.2,0.1,0.3,0.2,0.5
				c0.3,0.8,0.6,1.4,0.7,2c0.5,3.2,0.2,6.1-1.1,8.6c-2,4-3.1,8.2-4.2,12.5c-0.8,3.4-1.9,6.7-2.8,9.5C87.3,302.1,79,319.3,70.9,336
				l-2.4,4.9C68.5,340.9,68.5,340.8,68.5,340.7z"/>
			<path class="st1" d="M157.1,338.4c-0.9-0.6-1.8-1.1-2.7-1.6c-2.3-1.3-4.6-2.7-6.7-4.3c-6.7-5.2-11.5-12.3-16.2-19.2
				c-5.8-8.4-8.1-16.7-7.1-25.1c0-0.3,0-0.5,0.1-0.7c0-0.2,0-0.4,0-0.6c0.5-3.8,1.2-8.8,2.9-14.1c3.8,6.7,8.2,11.4,13.7,14.4
				c1.5,0.8,2.3,2.3,2.6,4.9l0.1,0.5c0.7,5.4,1.4,11.1,2.5,16.5c1.9,9.5,5.9,18.5,9.8,27.2C156.4,337.1,156.7,337.7,157.1,338.4z"/>
			<path class="st1" d="M50.8,327.5c4.6-9.6,7.4-17.6,8.8-25.2c1-5.2,1.7-10.6,2.4-15.8c0.3-2.1,0.6-4.3,0.9-6.4
				c1.6-11.4,5.6-21.6,11.8-30.2c0.5-0.7,1.2-1.4,1.9-2.2c0.2-0.2,0.4-0.4,0.6-0.7c0.2,0.2,0.3,0.4,0.5,0.7c0.6,0.8,1.1,1.5,1.3,2.1
				l0.2,0.6c0.6,2.3,1.3,4.7,1.2,6.9c-0.2,5.9-0.7,10.6-1.6,14.9c-3.7,19-12.7,36.8-27.4,54.6C51.2,327.1,51,327.3,50.8,327.5
				C50.8,327.5,50.8,327.5,50.8,327.5z"/>
			<path class="st0" d="M131.5,549.4c-0.2-3.4-0.4-6.8-0.6-10.2c-1.6-24.1-3.3-49,8.8-69.5c6.5,20.6,1.2,41.6-3.9,61.9
				C134.2,537.4,132.7,543.4,131.5,549.4z"/>
			<path class="st1" d="M169.3,286.8c-0.5,0-1-0.1-1.7-0.3c-2.1-0.5-4.1-1.1-6.1-1.6c-2.5-0.7-5-1.3-7.5-1.9c-2-0.5-3.4-1.6-4.5-3.5
				c-2-3.7-3.4-7.8-4.2-12.8c-0.4-2.1,0.3-3.5,2.2-4.6c5.3-3.1,10.9-4.5,17.3-4.5c0.5,0,0.9,0,1.4,0c4,0.1,4.6,0.7,4.9,4.5
				c0.2,2.6,0.1,5.2,0.1,7.8c0,1.2,0,2.3,0,3.5v0.8h0.1l0,2.4c0,2.4,0,4.8,0,7.1C171.1,286.6,170.2,286.8,169.3,286.8L169.3,286.8z"
				/>
			<path class="st0" d="M146.9,496.4c0.4-7.1-0.7-14-1.6-20.8c-0.7-4.8-1.4-9.8-1.6-14.7c3.7-13.3,5.2-27.3,6.7-40.9
				c0.1-0.9,0.2-1.8,0.3-2.8C157.4,445.3,156.2,471.3,146.9,496.4z"/>
			<path class="st1" d="M145,257.5c0.2-4.4,0.8-8.8,1.8-13.6c0.1-0.5,0.6-1.2,1.3-1.9c5.1-5.1,11.5-7.7,19-7.7l0.4,0
				c3.2,0,3.7,0.5,3.8,3.9c0.1,4,0,8.1,0,12l0,1.1c0,0.4-0.1,0.9-0.3,1.4c0,0.1-0.1,0.2-0.1,0.3c-1.2,0-2.5,0.1-3.7,0.1
				c-3.2,0-6.5,0.1-9.6,0.6c-3.1,0.5-6.1,1.6-9.2,2.7C147.2,256.7,146.1,257.1,145,257.5z"/>
			<path class="st1" d="M147.6,232.2c1.2-5.1,2.3-10.2,3.6-15.3c0.5-2,1.8-3.6,4-4.5c1.2-0.5,2.5-1.1,3.7-1.6
				c1.6-0.7,3.2-1.4,4.8-2.1c0.5-0.2,0.9-0.3,1.2-0.3c0.5,0,1.1,0.1,1.9,1.3c2.8,3.8,5.3,8.1,4.5,13.4c-0.1,0.6-0.1,1.3,0,1.9
				c0,0.3,0,0.6,0,1c-0.1,2.9-0.2,3-3.1,3.4c-0.3,0-0.5,0.1-0.8,0.1l-0.5,0c-6.7,0.7-12.6,2.5-18,5.4c-0.6,0.3-1.2,0.6-1.8,0.9
				l-0.2,0.1L147.6,232.2z"/>
			<path class="st0" d="M170.2,153.7c-2.3-0.7-3.7-1.4-5.2-3.2c-2.7-3.2-6.3-7.4-9.6-11.7c-3.8-5-2.3-10.5-0.9-15.8c0,0,0,0,0,0
				c0,0,0.1-0.1,0.2-0.2c0.1,0,0.1-0.1,0.2-0.1l1,0.4c1.2,0.5,2.5,1.1,3.8,1.6c2.5,1,4.1,2.7,5,5c0.4,1.2,0.9,2.3,1.4,3.5
				c0.9,2.2,1.8,4.5,2.6,6.8C170.1,144.6,170.7,149.1,170.2,153.7z"/>
			<path class="st1" d="M164.7,156.1c-0.9-0.2-1.6-0.3-2.3-0.5c-1.6-0.4-3.1-0.8-4.7-1.2c-4-1-8.2-2-12.2-3.3
				c-1.5-0.5-2.9-0.7-4.3-0.7c-2.7,0-5.3,0.9-7.7,2.7l-6.3-4.7l23.2-10.5l1,1.3c0.6,0.9,1.2,1.7,1.8,2.6c1.4,2,2.9,4.1,4.4,6
				c1.3,1.6,2.7,3.1,4.1,4.5c0.8,0.9,1.6,1.7,2.4,2.6C164.3,155.4,164.5,155.7,164.7,156.1L164.7,156.1z"/>
			<path class="st1" d="M146.4,284.4c-3.2-0.8-5.7-2.1-7.8-4c-3.9-3.4-6.8-7.8-8.8-13.3c-1-2.7-0.6-5.3,1.2-7.4
				c2.6-3.1,5.4-6.2,8.1-9.1l0.3-0.3c0.5-0.6,1.2-1.1,2.1-1.7c0,0,0,0,0,0c-0.1,0.7-0.2,1.3-0.3,1.9c-0.2,1.5-0.4,3.1-0.6,4.6
				c-0.5,3.5-1,7.2-1,10.8C139.4,273.4,141.7,279.6,146.4,284.4z"/>
			<path class="st1" d="M102.8,243.5c0.5-3.2,1.4-6.3,2.2-9.3c0.3-1.1,0.6-2.2,0.9-3.4c0.6-2.5,1.3-4.9,2-7.4
				c0.7-2.6,1.5-5.3,2.2-7.9c0.5-1.8,0.8-3.5,1.2-5.3c0.5-2.4,1-4.8,1.7-7.1C115.1,217.2,111.8,230.5,102.8,243.5z"/>
			<path class="st0" d="M173.6,124.1c-1.5-0.1-2.9-0.3-4.2-0.7c-4-1.1-7.5-2.4-10.6-3.8c-7.3-3.3-7.3-3.3-7.9-11.5
				c-0.1-1.7-0.3-3.4-0.5-5.1l-0.3-3.1l-0.7,0c-2.5-0.1-4.3-0.5-5.1-2.5c-1.2-2.7-2.3-5.5-3.5-8.2c-0.6-1.4-0.2-2.6,1.1-3.7
				c0.5-0.4,1-0.8,1.6-1.2c2.8-1.6,4-3.9,3.6-7c-0.1-1.1,0-2.2,0.1-3.4c0-0.4,0.1-0.9,0.1-1.3c0.4-6.1,2.3-11.4,5.7-15.5
				c5.5-6.7,12.1-10.1,19.9-10.1l0.7,0l0.8,0c7.7,0,14.4,3.4,19.9,10.1c3.4,4.1,5.3,9.4,5.7,15.5c0,0.4,0.1,0.9,0.1,1.3
				c0.1,1.2,0.2,2.3,0.1,3.4c-0.3,3,0.8,5.3,3.6,7c0.5,0.3,1.1,0.7,1.5,1.2c1.3,1.2,1.7,2.4,1.1,3.7c-1.2,2.7-2.3,5.5-3.5,8.2
				c-0.8,1.9-2.6,2.4-5.1,2.5l-0.7,0l-0.3,3.1c-0.2,1.7-0.4,3.4-0.5,5.1c-0.6,8.2-0.6,8.2-7.9,11.5c-3.1,1.4-6.6,2.6-10.6,3.8
				C176.5,123.8,175,124,173.6,124.1z"/>
			<path class="st0" d="M173.6,146.2c-0.6-4.7-2.2-13.4-5.2-18.2c1.3-0.2,2.9-0.2,4.5-0.2h1.4c1.7,0,3.2,0.1,4.5,0.2
				C175.7,132.8,174.2,141.5,173.6,146.2z"/>
			<path class="st1" d="M169.6,159.9h7.8c-0.7,1.2-3.3,6-3.9,7.1C172.9,165.9,170.3,161.2,169.6,159.9z"/>
			<path class="st1" d="M173.6,210.5c-1.9-2.1-3.8-4.3-4.9-6.8c-0.1-0.2,0-0.7,0.1-0.9l0.7-1.2c1.1-1.9,2.3-3.8,4.1-5.4
				c1.7,1.5,2.9,3.5,4.1,5.4l0.7,1.2c0.1,0.2,0.2,0.7,0.1,0.9C177.3,206.2,175.5,208.4,173.6,210.5z"/>
			<path class="st0" d="M38.1,392.6c-0.2,0-0.4-0.1-0.5-0.2c-0.1-0.1-0.3-0.7,0.4-2.5c0.7-1.7,1.6-3.2,2.5-4.8c0.6-1,1.1-2,1.6-3
				c0.8-1.6,1.7-3.1,2.5-4.5c0.7-1.3,1.5-2.5,2.2-3.8c0.7-1.2,0.9-2.3,0.4-3.1c-0.3-0.4-0.7-0.7-1.2-0.7c-0.8,0-1.6,0.7-2.3,1.9
				c-1.6,3-3.4,6.2-5.2,9.3c-1.4,2.4-2.7,4.8-4,7c-1.2,2.6-2.9,3.7-4,3.7c-0.4,0-0.7-0.2-0.9-0.5c-0.4-0.7-0.2-2,0.7-3.5
				c1.9-3.5,3.8-6.8,5.8-10.2c1.9-3.3,3.8-6.6,5.7-10.1c0.8-1.1,1-2.4,0.6-3.2c-0.2-0.4-0.6-0.6-1-0.6c-0.7,0-1.4,0.6-2,1.9
				c-1.5,2.4-3,4.8-4.5,7.1c-1.6,2.4-3.1,4.9-4.7,7.4c-1.4,2.3-2.9,3.3-3.7,3.3c-0.3,0-0.4-0.1-0.4-0.2c-0.3-0.5-0.2-2,1.6-4.8
				c1.8-3.1,3.5-6.2,5.3-9.2c1.5-2.5,2.9-5,4.3-7.6c0.3-0.5,0.5-1.1,0.6-1.6c0.1-0.2,0.1-0.4,0.2-0.6l0.2-0.5l-0.4-0.3
				c-1.1-0.9-2.3-1.3-3.5-1.3c-0.6,0-1.2,0.1-1.9,0.3c-1.9,0.5-4,1-6.3,1.4c-0.4,0.1-0.9,0.1-1.4,0.1c-0.5,0-0.9-0.1-1.3-0.2
				c-2.2-0.6-2.5-1.6-2.5-2.2c0-0.6,0.1-0.7,1.2-1.1c0.4-0.1,0.7-0.2,1-0.4c0.4-0.2,0.8-0.4,1.2-0.5c0.6-0.2,1.2-0.5,1.7-0.8
				c1.1-0.7,2.4-1.5,3.4-2.5c2-2,3.9-4,5.8-6c2.3-2.4,4.6-4.8,7-7.1c1.2-1.2,2.4-2,3.3-2.2c4.6-1.1,7.2-4.4,9.6-7.7l12.5-17.8
				c0.3-0.4,0.6-0.8,0.8-1.1c-2.2,9.2-2.9,18.7-3.7,27.9l-0.1,1.1c-0.4,4.9,0.2,9.3,1.7,13.2c1,2.5,0.9,5.1-0.2,7.5
				c-1.4,2.9-3.2,5.7-5,8.5c-1.1,1.7-2.3,3.4-3.5,5.1c-1,1.4-2,2.8-2.9,4.2c-0.9,1.4-1.8,2.9-2.8,4.3c-0.8,1.3-1.6,2.6-2.4,3.8
				c-0.5,0.8-0.9,1.1-1.3,1.1l0,0c-0.2,0-0.3,0-0.5-0.1c0.2-0.4,0.4-0.7,0.5-1.1c0.2-0.4,0.4-0.8,0.6-1.2c0.5-1,1-2.1,1.5-3.1
				c0.4-0.8,0.8-1.6,1.2-2.4c0.7-1.3,0.8-2.4,0.4-3.1c-0.2-0.4-0.6-0.6-1-0.6c-0.8,0-1.5,0.7-2.2,2c-1.2,2.4-3,5.6-4.8,8.7
				c-1,1.8-2,3.4-2.7,4.8C40.7,391.6,39,392.6,38.1,392.6z"/>
			<path class="st2" d="M326.3,351.4c-0.4-0.2-0.8-0.4-1.3-0.5c-2.3-0.7-3.8-2.3-5.4-4c-4-4.3-8.1-8.5-12.5-12.4
				c-2-1.8-3.8-3.4-5.1-5.9c-5.6-10.8-9.6-22.2-11.5-34.2c-1.1-6.7-1.5-13.5-2.8-20.1c-2.3-11.6-7.1-22.1-15.1-31.2
				c0.8-2.1,1.6-4.2,2.2-6.3c0.5-2.2,1-4.5,1-6.8c0-10.3-3-19.7-9.3-28c-1.1-1.4-1.7-2.8-1.7-4.7c0-5.2,0-10.4-0.5-15.5
				c-0.4-4-0.9-8.2-2.6-11.7c-5.7-12-14.7-20.2-28.1-22.7c-5.1-0.9-10.1-1.9-14.7-4.4c-1.2-0.7-2.5-1.1-3.8-1.7
				c-5.4-2.5-10.8-5-16-7.4c-0.6-4.7-1.2-9.1-1.8-13.8c2.8-3.5,3.3-4.8,3.5-9.8c0.1-1.4,0.1-2.8,0.3-4.1c0.2-0.8,0.7-1.8,1.4-2.1
				c2.6-1.4,4-3.8,5.2-6.3c1-1.9,1.8-4,2.6-6c1.9-4.7,1-7.8-3.3-10.6c-1.9-1.2-2.6-2.5-2.5-4.8c0.3-7-1.2-13.6-4.9-19.8
				c-5.4-9.1-15.7-14.3-26-14.3c-10.3,0.1-20.6,5.3-26,14.3c-3.7,6.2-5.2,12.8-4.9,19.8c0.1,2.3-0.6,3.6-2.5,4.8
				c-4.4,2.7-5.3,5.8-3.3,10.6c0.8,2,1.6,4.1,2.6,6c1.2,2.5,2.6,4.9,5.2,6.3c0.7,0.3,1.2,1.3,1.4,2.1c0.3,1.3,0.3,2.7,0.3,4.1
				c0.3,5,0.7,6.3,3.5,9.8c-0.6,4.6-1.2,9-1.8,13.8c-5.2,2.4-10.6,4.9-16,7.4c-1.3,0.6-2.6,1-3.8,1.7c-4.6,2.5-9.6,3.5-14.7,4.4
				C100,149.8,91,158,85.3,170c-1.7,3.5-2.2,7.7-2.6,11.7c-0.5,5.1-0.5,10.3-0.5,15.5c0,1.8-0.6,3.2-1.7,4.7
				c-6.3,8.2-9.3,17.6-9.3,28c0,2.3,0.5,4.6,1,6.8c0.5,2.1,1.4,4.1,2.2,6.3c-8,9.1-12.8,19.6-15.1,31.2c-1.3,6.6-1.7,13.5-2.8,20.1
				c-1.9,12-5.9,23.4-11.5,34.2c-1.3,2.6-3.1,4.1-5.1,5.9c-4.4,3.9-8.5,8.1-12.5,12.4c-1.6,1.7-3.1,3.3-5.4,4
				c-0.4,0.1-0.8,0.4-1.3,0.5c-2.5,0.9-4.6,2.2-4.6,5.3c0,3.1,1.9,5.1,4.5,6.4c1.9,1,3.9,1.4,6,0.8c1.3-0.3,2.7-0.5,4.7-0.9
				c-2.5,4.4-4.8,8.3-7,12.2c-0.8,1.4-1.8,2.7-2.2,4.3c-0.9,2.6-0.8,5.3,1.4,7.4c1,1,1.2,2,1.2,3.4c0,4.8,3.4,7.5,8.2,6.7
				c0.7-0.1,1.5-0.2,2.2,0c4.8,1.4,7.6,0.3,10.1-3.9c0.2-0.4,0.5-0.8,0.8-1.4c4.7,0.6,7-2.7,9.2-6.2c0.6-1,1.3-1.9,1.8-2.9
				c2.6-5.3,6.2-10,9.8-14.6c3.9-5,5.6-10.5,3.7-16.8c-0.5-1.6-0.2-3.1,0.5-4.7c3.1-6.4,5.9-13,9.2-19.3
				c7.5-14.6,13.1-29.9,18.7-45.3c0.8-2.2,1.1-4.5,1.8-6.7c1.1-3.5,2.1-7,3.5-10.4c1.8-4.4,2.6-8.8,1.4-13.5
				c-0.2-0.9-0.3-2.2,0.1-2.9c4.1-6.1,7.2-12.8,10.4-19.6c0,0.7,0.1,1.5,0.1,2.2c0.8,9.3,1.7,18.5,2.6,27.8c0.3,3,1.3,5.9,3.3,8.2
				c1.1,1.3,1.2,2.4,0.6,4c-2.3,7.3-3.6,14.7-3.5,22.4c0,1.1,0,2.3,0.3,3.4c0.9,3.2,0.2,6-1.4,8.9c-1.2,2.2-2.1,4.6-2.8,7
				c-3.9,13.1-8,26.2-10.3,39.7c-1,6-1.6,12.1-2.4,18.1c-0.5,4.3-1.1,8.7-1.5,13c-1.1,10.8,0.3,21.4,2.8,31.8
				c2.9,12.2,6.4,24.2,10,36.2c2,6.5,2.9,13,3,19.7c0.1,7.4,0.1,14.7,0.1,22.1c0,1.3-0.4,2.7-0.9,4c-5.6,12.2-8.1,25.1-8.8,38.4
				c-1,20.6,2.3,40.6,8.4,60.2c0.9,2.8,2.2,5.6,3.4,8.3c0.6,1.4,0.9,2.5,0.2,4.2c-0.9,2.2-1,4.7-1.4,7c-0.8,5-1.4,10-2.3,15
				c-0.3,1.7-1.5,3.3-2.5,4.8c-0.7,1-1.7,1.8-2.5,2.8c-3.7,4.9-8.3,8.8-13.5,12.2c-4.6,3.1-8.7,6.8-11.4,11.8
				c-0.5,0.9-1,1.8-1.3,2.8c-1,3.1-0.1,5.9,2.8,7.3c5,2.4,10.1,4.5,15.6,5.2c6.6,0.8,12.6-0.8,17.8-4.9c4-3.2,8.1-6,13-7.6
				c3.6-1.2,5.6-3.9,6.7-7.7c1.9-6.7,3.1-13.4,3.2-20.3c0-2.8,0.7-5.7,1.1-8.5c0.1-0.9,0.4-1.9,0.2-2.7c-0.8-4.8-1.4-9.6-2.6-14.2
				c-1.8-7.1-2.3-14.1-0.4-21.1c1.6-6,3.6-11.9,5.6-17.7c3.7-10.5,6.2-21.2,5.1-32.5c-0.5-4.7-1.5-9.3-2.3-13.9
				c-1-5.4-1.6-10.9-1.9-16.4c-0.2-3.4,0.5-6.2,1.8-9.1c5.9-14.1,8.8-28.8,9.3-44c0.3-8.6,0.1-17.3-1.2-25.8c-0.3-1.8-0.5-3.6,1-5.2
				c0.4-0.4,0.6-1.2,0.8-1.9c3.6-15.5,7.1-30.9,8.5-46.8c0.5-5.7,1-11.5,1.3-17.2c0.1-3.1-0.4-6.2-0.6-9.5c1.4,0,2.9,0,4.3,0
				s2.9,0,4.3,0c-0.2,3.3-0.8,6.4-0.6,9.5c0.2,5.7,0.7,11.5,1.3,17.2c1.4,15.9,4.9,31.3,8.5,46.8c0.2,0.7,0.3,1.5,0.8,1.9
				c1.6,1.5,1.3,3.4,1,5.2c-1.2,8.6-1.5,17.2-1.2,25.8c0.6,15.2,3.5,29.9,9.3,44c1.2,3,2,5.8,1.8,9.1c-0.4,5.5-0.9,11-1.9,16.4
				c-0.9,4.6-1.9,9.3-2.3,13.9c-1.2,11.2,1.4,21.9,5.1,32.5c2,5.9,4,11.8,5.6,17.7c1.9,7,1.4,14.1-0.4,21.1
				c-1.2,4.7-1.8,9.5-2.6,14.2c-0.1,0.9,0.1,1.8,0.2,2.7c0.4,2.8,1.1,5.7,1.1,8.5c0.1,7,1.3,13.7,3.2,20.3c1.1,3.8,3.1,6.5,6.7,7.7
				c4.9,1.6,9,4.5,13,7.6c5.2,4.1,11.2,5.7,17.8,4.9c5.6-0.7,10.7-2.8,15.6-5.2c2.9-1.4,3.9-4.2,2.8-7.3c-0.3-1-0.8-1.9-1.3-2.8
				c-2.7-5-6.7-8.8-11.4-11.8c-5.1-3.4-9.7-7.3-13.5-12.2c-0.8-1-1.8-1.8-2.5-2.8c-1-1.5-2.1-3.1-2.5-4.8c-1-5-1.6-10-2.3-15
				c-0.4-2.4-0.5-4.9-1.4-7c-0.7-1.6-0.5-2.7,0.2-4.2c1.2-2.7,2.6-5.4,3.4-8.3c6-19.6,9.4-39.6,8.4-60.2
				c-0.7-13.4-3.2-26.2-8.8-38.4c-0.6-1.2-0.9-2.6-0.9-4c0-7.4,0-14.7,0.1-22.1c0.1-6.7,1-13.2,3-19.7c3.7-12,7.1-24,10-36.2
				c2.5-10.4,3.9-21,2.8-31.8c-0.5-4.3-1-8.7-1.5-13c-0.7-6-1.3-12.1-2.4-18.1c-2.3-13.5-6.4-26.6-10.3-39.7c-0.7-2.4-1.6-4.9-2.8-7
				c-1.6-2.9-2.3-5.7-1.4-8.9c0.3-1.1,0.2-2.3,0.3-3.4c0.1-7.7-1.2-15.1-3.5-22.4c-0.5-1.7-0.5-2.8,0.6-4c2-2.3,3-5.1,3.3-8.2
				c0.9-9.3,1.7-18.5,2.6-27.8c0.1-0.7,0.1-1.5,0.1-2.2c3.2,6.8,6.3,13.4,10.4,19.6c0.5,0.7,0.4,2,0.1,2.9
				c-1.2,4.7-0.4,9.1,1.4,13.5c1.4,3.4,2.4,6.9,3.5,10.4c0.7,2.2,1,4.5,1.8,6.7c5.5,15.4,11.1,30.7,18.7,45.3
				c3.3,6.3,6.1,12.9,9.2,19.3c0.7,1.5,1,3,0.5,4.7c-1.9,6.3-0.2,11.8,3.7,16.8c3.6,4.6,7.2,9.3,9.8,14.6c0.5,1,1.2,2,1.8,2.9
				c2.2,3.5,4.5,6.8,9.2,6.2c0.4,0.7,0.6,1.1,0.8,1.4c2.5,4.2,5.3,5.3,10.1,3.9c0.7-0.2,1.5-0.2,2.2,0c4.8,0.8,8.2-1.9,8.2-6.7
				c0-1.4,0.2-2.4,1.2-3.4c2.2-2.1,2.3-4.7,1.4-7.4c-0.5-1.5-1.5-2.9-2.2-4.3c-2.2-3.9-4.4-7.7-7-12.2c2,0.4,3.4,0.5,4.7,0.9
				c2.1,0.5,4.1,0.2,6-0.8c2.6-1.3,4.5-3.3,4.5-6.4C331,353.6,328.8,352.3,326.3,351.4z"/>
		</g>
		<g>
			<path class="st0" d="M587.8,492.2c-0.4-0.8-0.9-1.6-1.2-2.4c-1-2-1.9-4.1-2.8-6.2c-1.3-2.9-2.6-5.7-4-8.5
				c-4.3-9.2-6.8-18.8-7.2-28.6c-0.2-3.2-0.3-6.4-0.4-9.6c-0.3-6.2-0.5-12.5-0.9-18.7c-0.2-3.3-0.5-6.5-0.8-9.7
				c-0.3-3.5-0.6-7-0.8-10.5c-0.2-4.5-0.3-9.1-0.3-13.6l0-4c0-0.8,0.1-1.6,0.2-2.4l0.1-1c0.2-1.2,0.7-1.2,1-1.2c0.2,0,0.4,0,0.7,0.1
				c0.7,0.2,1.3,0.4,2,0.6c0.8,0.3,1.5,0.5,2.3,0.7l0.8,0.2c1.3,0.4,2.6,0.8,4,0.9c0.3,0,0.6,0,0.8,0c1.4,0,2.4-0.4,3-1.1
				c0.7-0.9,0.9-2.1,0.5-4l-0.7-3.4c-0.6-2.9-1.2-5.9-1.6-8.8c-0.8-5.9-0.5-11,1-15.7c0.7-2.1,1.8-4.3,3.3-6.5
				c0.8-1.2,2.1-2.3,3.6-3c1.2-0.6,2.3-0.9,3.1-0.9c1,0,2.5,0.4,3,4c1.8,13.1,2.5,25.2,2.1,37c-0.1,1.8-0.1,3.6-0.1,5.4
				c-0.1,5-0.2,10.2-0.7,15.3c-1,10.6-2.3,21.4-3.9,32.1c-0.6,4.5-1.5,9-2.3,13.4c-1,5.4-2,11-2.7,16.6c-0.5,3.7-0.3,7.5-0.1,11.1
				c0.1,1.7,0.2,3.4,0.2,5.1l0,3.2c0.1,3.1,0.1,6.3,0,9.5c-0.1,2.3-0.3,3-1.3,4.6L587.8,492.2z"/>
			<path class="st0" d="M558.7,508.6c-0.3-0.4-0.5-0.8-0.7-1.1c-0.6-1.8-1.3-3.5-2-5.3c-1.7-4.4-3.4-8.9-4.6-13.5
				c-3.6-13.9-6.1-25.3-8-35.9c-1.1-6.1-1.3-12.4-1.5-18.5l-0.2-4c-0.5-10.5-0.9-21.7-1-32.7c0-5,0.3-10.1,0.6-15
				c0.2-2.3,0.3-4.7,0.4-7l0.2-4.5c0.1-2.1,0.2-4.1,0.3-6.2c0-0.7,0.1-1.4,0.3-2.2l0.1-0.5l1.8,1c0.8,0.4,1.6,0.9,2.4,1.4
				c1.8,1.1,3.6,2.2,5.6,2.9c6.3,2.3,9.7,6.6,10.3,13.1c0.4,4.4,0.9,8.9,1.3,13.3c1,9.7,2,19.7,2.7,29.6c0.3,4,0.5,7.9,0.7,11.9
				c0.4,9.1,0.9,18.5,2.4,27.7c1.3,7.7-0.8,14.3-6.9,21.5c-2.9,3.4-4.1,6.7-3.9,10.5c0.2,3,0.1,6.1-0.1,9.1c0,1.2-0.1,2.4-0.1,3.6
				C558.9,508,558.8,508.3,558.7,508.6z"/>
			<path class="st1" d="M578.2,373.1c-0.7,0-1.6-0.2-2.7-0.5c-8.1-2.3-15.2-5.2-21.8-8.9c-5.8-3.3-10.5-7.1-14.3-11.8
				c-4.1-5-4.2-8.2-0.5-13.3c6.2-8.4,11.5-17.6,15.8-27.2c0.7-1.6,1.2-3.3,1.7-5c0.3-0.9,0.5-1.7,0.8-2.6c0.8-2.2,1.1-2.6,3.6-2.6
				l0.7,0c4.8,0.5,9.6,2.4,14,5.6c6.8,5,12,11.9,15.6,21.3c0.7,1.8,0.6,2-1.1,3c-0.3,0.2-0.6,0.3-0.9,0.5l-0.5,0.3
				c-3.8,2-6.3,5.1-7.6,9.2c-2.2,6.7-3,13.7-2.2,20.7c0.2,2.1,0.5,4.1,0.8,6.2l0.1,1c0.3,2,0.2,3.2-0.2,3.6
				C579.3,372.9,579,373.1,578.2,373.1z"/>
			<path class="st1" d="M568.9,246.9c-3.5,0-7-1.2-10.1-3.6c-4.7-3.5-9.5-7.5-13.1-12.8c-2-3-2.1-4.3-0.3-7l4.1-6.3
				c4.9-7.5,9.9-15.3,15-22.9c4.2-6.1,6.7-12.1,7.9-18.2l0.1-0.6c0.1-0.5,0.2-0.9,0.3-1.3c0.5-1.5,0.9-1.5,1.2-1.5
				c0.3,0,0.8,0.2,1.4,0.5c0.5,0.3,1,0.6,1.5,1c7.8,5.8,12,12.3,13.8,21.2c5.3,20.1-1.8,40.1-11.8,47.9
				C575.8,245.7,572.4,246.9,568.9,246.9z"/>
			<path class="st1" d="M536.5,217.3c0.1-12.1,0.1-24.7,0.4-37c0.2-7.2,1.6-30.9,13.8-32.9c2.9-0.5,6.1-0.7,9.6-0.7
				c3.9,0,8,0.3,11.9,0.9c3.1,0.5,7.1,1.6,9.7,2.6c0,0,0,0,0,0c-5.2,2.3-8.6,6.4-10.2,12.7c-1,3.8-2.2,8.2-3.1,12.8
				c-1.2,6-3.8,11.8-7.6,17.3c-2.6,3.6-5.1,7.2-7.7,10.8c-1.8,2.6-7.1,9.9-7.1,9.9c-1.8,2.5-3.7,5.1-5.3,7.8
				c-1.4,2.3-2.5,4.8-3.7,7.3c-0.2,0.4-0.4,0.8-0.5,1.1L536.5,217.3z"/>
			<path class="st1" d="M537.7,327.4c-0.8,0-1-1-1-1.5c-0.1-1.4,0-2.9,0-4.3c0-0.7,0-1.5,0-2.2l0-16.6c0-17,0.1-34,0-51.1
				c0-7.7,1.1-13.6,3.2-17.1c0.2-0.3,0.7-1,1.6-1c0.5,0,1,0.2,1.5,0.7c2.7,2.2,10,10.8,14.8,17c5.1,6.7,7.9,15.1,8.6,25.7
				c0.1,1.3-0.3,1.9-1.6,2.2c-2.8,0.8-5.2,2.7-6.7,5.5c-1.1,2-2,5.3-3,9.1c-0.9,3.4-1.8,7.2-3.2,10.5l-0.8,2
				c-1.9,4.8-4.5,11.4-8.4,17c-1.5,2.2-3,3-4.1,3.6C538.3,327.3,537.9,327.4,537.7,327.4z"/>
			<path class="st0" d="M574.6,672.9c-1.5,0-2.9-0.1-4.3-0.4c-1.6-0.4-2.4-1-3-2.4c-1.4-3.5-2-7.1-2.1-11.7c1.2-4.7,0.5-9.7-0.2-15
				c-0.4-2.8-0.8-5.7-0.8-8.6c-0.1-3,0.2-6.2,0.9-9.3c0.7-3.1,2.8-4.9,5.8-5.1c0.2,0,0.4,0,0.6,0c3.3,0,6.6,2.1,7.9,4.9
				c1.5,3.3,3.1,6.5,4.7,9.7l0.6,1.1c1,2,2.5,3,4.7,3c0.2,0,0.5,0,0.8,0c2.4-0.2,5.1-0.3,8.3-0.3c1,0,2,0,3,0c3.6,0,6.8,1.8,9.3,5.2
				c3.1,4.1,2.7,8.6-1.1,11.9c-1.5,1.3-3.4,2.2-5.1,2.9c-1.5,0.7-3.2,1.1-4.9,1.5l-0.9,0.2c-4.1,1.1-7.2,3.3-9.2,6.6
				c-1.7,2.8-4.2,4.4-7.9,5.1C579.6,672.5,577.1,672.9,574.6,672.9z"/>
			<path class="st0" d="M678.4,396.1c-0.7,0-1.6-0.5-2.4-1.8c-0.6-1.1-1.4-2.4-2.1-3.8c-2-3.5-4.2-7.5-5.6-10.5
				c-0.4-1-1.2-1.6-2-1.6c-0.4,0-0.8,0.2-1,0.6c-0.2,0.4-0.4,1.1,0.2,2.4c0.4,0.9,1.5,2.9,2.5,4.9c0.8,1.4,1.5,2.8,1.9,3.6
				c-0.2,0.2-0.5,0.2-0.8,0.2c-0.5,0-0.9-0.2-1-0.4c-0.7-0.6-1.3-1.4-1.8-2.3c-0.8-1.3-1.6-2.7-2.3-4c-3.6-6.1-7.3-12.3-9.9-19
				c-1.1-2.7-1.5-5-1.4-7.4c0.1-3.2,0-6.3-0.1-10.1c-0.1-1.6,0.5-2.4,1.9-3c0.9-0.3,1.7-0.7,2.5-1.1c0.5-0.3,1.1-0.5,1.6-0.8
				c2.8-1.2,5.5-1.9,8.3-1.9c4.9,0,9.5,2,13.3,5.9c1.6,1.6,3.6,3.8,5.4,6.1c2.7,3.6,8.6,7.7,13.5,9.5c-1.1,2.4-3.8,3.5-5.5,3.6h0
				c-3.7,0-11.4-3.9-12.1-4.4l-0.5-0.4l-0.5,0.5c-0.8,0.8-1.3,1.6-0.4,3.3c0.6,1.2,1.3,2.5,1.9,3.7l1.6,3c0.7,1.4,1.5,2.9,2.4,4.5
				c1.5,2.8,3,5.7,4.2,8.1c0.8,1.3,0.7,2.5,0.4,3.1c-0.2,0.3-0.4,0.3-0.4,0.3c-0.4,0-1.2-0.5-2.1-2.1c-1.4-2.3-3-5.2-4.6-8
				c-1.1-1.9-2.1-3.8-3.1-5.4c-0.8-1.3-1.5-2-2.3-2c-0.4,0-0.7,0.2-0.9,0.5c-0.4,0.6-0.2,1.8,0.5,3.1c1.3,2.6,2.7,5.3,4,7.9
				c1.7,3.4,3.5,6.8,5.2,10.2c0.9,2,0.7,3.4,0.4,3.9c-0.1,0.2-0.3,0.3-0.6,0.3c-0.6,0-1.8-0.7-2.9-2.6c-1.3-2.5-2.9-5.5-4.6-8.5
				c-1.6-3-3.3-6.1-4.6-8.6c-0.6-1.2-1.3-1.8-2-1.8c-0.4,0-0.7,0.2-0.9,0.5c-0.4,0.6-0.3,1.6,0.2,2.7c1.1,2.4,2.2,4.7,3.3,7.1
				l2.5,5.2c0.7,1.4,1.3,2.8,1.8,4.2c0.4,0.9,0.4,1.6,0.1,2.1C679,396,678.7,396.1,678.4,396.1z"/>
			<path class="st0" d="M566,569.5c-1.1,0-2.1-0.7-3.5-2.4c-4-4.8-6.1-10.5-6.3-17.7c-0.3-6.8,0.8-13.5,3.2-20
				c3.5-9.4,4.7-18.7,4-28.4c-0.2-2.1-0.2-4.3-0.2-6.4v-1.1c0-0.4,0.1-0.9,0.2-1.4c0-0.1,0-0.2,0.1-0.2c0.1,0,0.2,0,0.3,0
				c1.8,0,3.1,1,4.5,2.2c3.6,3.2,5,7.6,6,12c2.4,11.3,3.7,23.1,3.8,36.1c0,4.7-0.2,10.8-2.3,16.7c-1.5,4.2-3.5,7-6.4,9
				C568,569.1,566.9,569.5,566,569.5z"/>
			<path class="st0" d="M584.1,624.6c-3.4-6.8-8.1-8.5-11.8-8.5c-1.9,0-3.9,0.4-5.9,1.3c0.2-0.9,0.5-1.7,0.7-2.5
				c2-5.9,2.4-11.9,1-18.4c-1.3-6.3-2.6-12.7-3.9-19.1l-1.1-5.6c0-0.2-0.1-0.4-0.1-0.6c0,0,0,0,0.1,0c1.5,1,3,1.5,4.5,1.5
				c0,0,0,0,0,0c2.1,0,4-0.9,5.8-2.7c1.6-1.6,2.8-3.4,4.1-5.2l0.6-0.8c0.5-0.7,0.8-1.5,1.1-2.3c0.1-0.2,0.1-0.3,0.2-0.4l9.9-1.3
				c-0.7,3.6-1.6,7.2-2.4,10.8c-2,8.7-4.1,17.8-4.9,26.9l1.5,0.3l1.5-6.1l7.8-30.4c0.8-3,2.4-5.5,4.9-7.4c-0.1,0.2-0.1,0.5-0.1,0.7
				c-0.4,1.8-0.8,3.6-1.3,5.3c-4,11.7-7,23.8-9.9,35.6l-1.5,6.1C583,608.9,582.8,616.4,584.1,624.6z"/>
			<path class="st1" d="M615.4,193.6c-8.1,0-14.6-2.4-19.8-7.3c-2.2-2.1-4.5-4.4-7.3-7.3c-3.1-3.2-6.8-6.8-11.3-9.8
				c-2.2-1.4-2.3-1.7-1.6-4.4c1.2-4.9,4.2-8.8,8.9-11.5c1.4-0.8,2.7-1.2,4.1-1.2c0.9,0,1.9,0.2,2.9,0.6c5.8,2.1,10.7,4.7,15,7.9
				c7.1,5.2,11.5,12.4,13.1,21.2c0.6,3.2,0.9,6.6,1.2,9.5c0.2,1.5,0.2,1.5-1.6,1.8c-1,0.1-2,0.2-2.7,0.3L615.4,193.6L615.4,193.6z"
				/>
			<path class="st0" d="M586.7,554.3c-2.1-0.1-3.4-1.3-3.7-3.4c-0.3-1.8-0.5-3.6-0.5-5.4c-0.2-11.4-1.7-22.9-3.2-34l-0.8-5.8
				c-0.6-4.9-0.9-10-1-14.3c-0.1-2.1,0.7-3.8,2.2-5.1c0.1,0.1,0.1,0.1,0.2,0.2c0.3,0.4,0.6,0.6,0.8,1c7.5,11.9,12.6,23.1,15.6,34.4
				c1.7,6.5,3.3,14.2,2.4,22.5c-0.6,5.4-5.8,10-11.3,10C587.2,554.3,587,554.3,586.7,554.3z"/>
			<path class="st1" d="M618.3,255.7c-3.4-0.1-6-1.4-8.2-4.3c-1.7-2.2-3.2-4.7-4.4-6.8l-0.6-1c-1.7-2.9-2.9-5-4.3-8.1
				c0.4,0.3,0.9,0.6,1.4,1c1.7,1.4,3.5,2.1,5.4,2.1c2.7,0,4.9-1.4,5.9-3.8c1.3-3.2,2.2-9.1,1.6-13.8c0.4,0.2,0.7,0.4,1,0.7
				c0.7,0.4,1.3,0.8,1.8,1.1l1.1,0.6c2.7,1.5,5.5,3,8.8,3.2c0.9,0.1,1.5,0.6,2.1,1.8c2.6,5.3,3.3,11.3,2.3,18.8
				c-0.4,2.5-1.9,4.6-4.7,6c-3.2,1.7-6,2.5-8.8,2.5L618.3,255.7z"/>
			<path class="st1" d="M592.6,319.3c-0.5-0.3-1.8-1.6-3.7-5.2c-3.5-5.8-16.3-16.4-26.7-16.4c-0.5,0-0.9,0-1.4,0.1
				c1.1-6,2.6-10.8,7.5-13.7c0.6-0.4,1.5-0.6,2.6-0.6c0.6,0,1.2,0.1,1.8,0.2c5.8,1.1,10.2,4.5,13.3,10.1c1.2,2.3,2.1,4.6,2.7,6.8
				c1.1,4.4,2.1,9,3,13.3l0.5,2.4C592.7,318.1,592.7,319,592.6,319.3z"/>
			<path class="st1" d="M607.7,234.8c-0.9,0-2.8-1.3-4-2.2c-0.4-0.3-0.7-0.5-1-0.7c-5.7-4.5-6.5-8.8-6.3-16.9
				c0.2-6.1-1.1-16.3-2.3-21c-0.3-1.2-0.1-1.6,0-1.7c0.1-0.1,0.3-0.2,0.6-0.2c0.7,0,1.7,0.5,2.2,1.1c1.3,1.6,8.8,12,11.1,19.1
				c1.6,4.9,3.2,11.9,2.3,17.5c-0.3,2.1-1.5,4.5-2.4,4.9L607.7,234.8z"/>
			<path class="st1" d="M571.7,277.8c-0.2-11.1-2.9-20.3-8.2-27.4c2.2,0.7,4.4,1.1,6.5,1.1c6.8,0,12.7-3.8,17.6-11.4
				c-0.9,7.1-2.4,15-5.6,22.6c-1.8,4.2-3.8,8.6-7.1,12.2c-0.8,0.8-1.6,1.6-2.7,2.5C572,277.5,571.8,277.7,571.7,277.8z"/>
			<path class="st1" d="M626.8,222.8c-0.5,0-1.1-0.1-1.9-0.3c-5.1-1.5-11-7.3-13.7-13.5c-1-2.3-2.2-4.6-3.4-6.9
				c-0.6-1.2-1.2-2.4-1.9-3.6c-0.4-0.7-0.7-1.5-1.1-2.4l-0.1-0.2c0.5,0.1,1,0.2,1.4,0.3c1.9,0.4,3.5,0.8,5.1,0.9
				c1.8,0.2,3.8,0.2,5.8,0.2c1.2,0,2.4,0,3.5-0.1l0.6,0c1.1,0,1.5,0.2,1.8,0.9c0.4,0.9,0.8,1.8,1.2,2.6c2.6,5.8,5.1,11.2,4.8,17.6
				C628.7,222.8,627.6,222.8,626.8,222.8z"/>
			<path class="st1" d="M648.2,275.5c-2.6-4.6-5.9-8.1-8.9-11.3c-1.3-1.4-2.6-2.8-3.6-4c-1.2-1.5-1.8-2.7-1.1-4.6
				c0.6-1.7,0.9-3.5,1.2-5.4c0.1-0.4,0.1-0.8,0.2-1.3C642,253.7,648.3,267.6,648.2,275.5z"/>
			<path class="st0" d="M572.2,491c-1.3-1.8-3.3-3.3-5.4-4.1c3.1-3.7,5.5-8.5,6.5-12.7l0.3,0.5c1.1,2,2.1,4,3,5.9
				c0.2,0.4,0.1,1.3-0.2,2c-0.4,1.1-1,1.9-1.6,2.8C573.8,486.9,572.8,488.5,572.2,491z"/>
			<path class="st1" d="M586.8,286.6c-2.9-3.6-5.7-5.6-9-6.4l5.9-7.2l0.1,0c0.2,0.9,0.4,1.8,0.7,2.7
				C585.4,279.2,586.3,282.7,586.8,286.6z"/>
			<path class="st1" d="M649,340.4c-0.5-0.8-0.9-1.5-1.3-2.2L646,335c-2.1-3.9-4.2-7.8-6.1-11.8l-3-6c-3.8-7.6-7.8-15.5-11.3-23.4
				c-1.5-3.3-2.8-6.8-4.1-10.2c-2.1-5.6-4.4-11.4-7.5-16.8c-0.3-0.5-0.5-1-0.7-1.7c-0.5-2-0.6-3.9-0.4-6c0.2,0.3,1.1,1.3,1.4,1.5
				c0.9,1.1,1.8,2.3,2.8,3.4c1.5,1.8,2.9,3.6,4.4,5.3c3.5,4,5.9,8.6,8,15c0.5,1.5,0.9,2.9,1.4,4.4c1.3,4.1,2.6,8.3,4.2,12.3
				c0.8,1.8,1.3,2.5,2,2.5h0.4l0.4-0.4c0.3-0.5,0.3-1.2,0.2-1.6c-1.8-5.7-3.7-12.6-5-17.6l-0.6-2.3c-1.7-6.2-4.7-11.7-9.1-16.2
				c-0.6-0.6-0.8-1.1-0.8-1.7c0-0.6,0.4-1.2,1.2-1.8c1.4-1.1,2.5-1.6,3.6-1.6c0.7,0,1.5,0.2,2.4,0.7c2.3,1.2,11.2,9.7,14.5,13.7
				c3.2,3.9,5.1,8.3,5.8,13c0.4,3.2,0.5,6.5,0.6,9.8l0,0.5c0.1,1.9,0.1,3.8,0.1,5.6c0,2.8,0,5.7,0.2,8.5l0.1,1.1
				c0.2,3.2,0.4,6.6,1.9,9.8l0.9,2l0.5-2.1c0.3-1.3,0.3-2.6,0.3-3.8l0-4.9c0-4.6,0-9.2,0.1-13.8v-0.4c0-0.9,0-1.7,0.6-2.3l0.1,0.2
				c0.3,0.8,0.6,1.6,0.8,2.3c0.4,1.3,0.8,2.7,1.2,4c0.7,2.4,1.4,4.9,2.2,7.2c1.5,4.4,2.8,7.9,4.1,11.5c0.9,2.5,1.9,5.1,2.9,8.1
				l0.2,0.4c0.3,0.9,1,2.7,0.7,3.9c-0.4,0-0.8-0.1-1.3-0.1c-4.1,0-8.8,2-13.2,4c-1.2,0.5-2.4,1-3.5,1.5L649,340.4z"/>
			<path class="st0" d="M480.8,492.4c-1-1.6-1.3-2.3-1.3-4.6c-0.1-3.2-0.1-6.4,0-9.5l0-3.2c0-1.7,0.1-3.4,0.2-5.1
				c0.2-3.7,0.3-7.4-0.1-11.1c-0.7-5.6-1.7-11.2-2.7-16.6c-0.8-4.4-1.6-8.9-2.3-13.4c-1.6-10.8-2.9-21.6-3.9-32.1
				c-0.5-5.1-0.6-10.2-0.7-15.3c0-1.8-0.1-3.6-0.1-5.4c-0.4-11.8,0.3-23.9,2.1-37c0.5-3.6,1.9-4,3-4c0.8,0,1.9,0.3,3.1,0.9
				c1.5,0.7,2.8,1.9,3.6,3c1.5,2.2,2.6,4.4,3.3,6.5c1.5,4.7,1.8,9.9,1,15.7c-0.4,2.9-1,5.9-1.6,8.8l-0.7,3.4c-0.4,1.8-0.2,3.1,0.5,4
				c0.6,0.8,1.6,1.1,3,1.1c0.3,0,0.5,0,0.8,0c1.4-0.1,2.7-0.5,4-0.9l0.8-0.2c0.8-0.2,1.6-0.5,2.3-0.7c0.6-0.2,1.3-0.4,2-0.6
				c0.3-0.1,0.5-0.1,0.7-0.1c0.3,0,0.9,0,1,1.2l0.1,1c0.1,0.8,0.2,1.6,0.2,2.4l0,4c0,4.5,0,9.1-0.3,13.6c-0.2,3.5-0.5,7-0.8,10.5
				c-0.3,3.2-0.6,6.5-0.8,9.7c-0.4,6.2-0.6,12.5-0.9,18.7c-0.1,3.2-0.3,6.4-0.4,9.6c-0.5,9.8-2.9,19.4-7.2,28.6
				c-1.3,2.8-2.7,5.7-4,8.5c-0.9,2.1-1.9,4.1-2.8,6.2c-0.4,0.8-0.8,1.5-1.2,2.4L480.8,492.4z"/>
			<path class="st0" d="M510,508.6c-0.1-0.3-0.1-0.6-0.1-0.9c0-1.2-0.1-2.4-0.1-3.6c-0.1-3-0.2-6.1-0.1-9.1c0.2-3.8-1-7.1-3.9-10.5
				c-6.1-7.1-8.2-13.8-6.9-21.5c1.5-9.2,2-18.6,2.4-27.7c0.2-4,0.4-7.9,0.7-11.9c0.7-9.9,1.7-19.9,2.7-29.6
				c0.4-4.4,0.9-8.9,1.3-13.3c0.6-6.5,4-10.8,10.3-13.1c2-0.7,3.8-1.8,5.6-2.9c0.8-0.5,1.6-1,2.4-1.4l1.8-1l0.1,0.5
				c0.1,0.8,0.2,1.5,0.3,2.2c0.1,2.1,0.2,4.1,0.3,6.2l0.2,4.5c0.1,2.3,0.3,4.6,0.4,7c0.3,4.9,0.6,10,0.6,15c0,11.1-0.5,22.2-1,32.7
				l-0.2,4c-0.2,6.1-0.5,12.5-1.5,18.5c-1.9,10.6-4.4,22-8,35.9c-1.2,4.6-2.9,9.1-4.6,13.5c-0.7,1.8-1.4,3.5-2,5.3
				C510.5,507.9,510.3,508.2,510,508.6z"/>
			<path class="st1" d="M490.5,373.1c-0.8,0-1-0.2-1.2-0.4c-0.4-0.5-0.5-1.7-0.2-3.6l0.1-1c0.3-2,0.5-4.1,0.8-6.1
				c0.8-7,0-14-2.2-20.7c-1.4-4.2-3.9-7.2-7.6-9.2l-0.5-0.3c-0.3-0.2-0.6-0.3-0.9-0.5c-1.7-1.1-1.8-1.3-1.1-3
				c3.7-9.4,8.8-16.3,15.6-21.3c4.4-3.1,9.2-5.1,14-5.6l0.7,0c2.5,0,2.8,0.4,3.6,2.6c0.3,0.9,0.6,1.7,0.8,2.6c0.5,1.7,1,3.4,1.7,5
				c4.3,9.6,9.6,18.7,15.8,27.2c3.7,5.1,3.6,8.3-0.5,13.3c-3.8,4.7-8.5,8.5-14.3,11.8c-6.6,3.7-13.7,6.6-21.8,8.9
				C492,373,491.1,373.1,490.5,373.1z"/>
			<path class="st1" d="M499.8,246.9c-3.5,0-6.9-1.2-9.9-3.5c-10-7.8-17.1-27.8-11.8-47.8c1.8-8.9,6-15.5,13.6-21.2
				c0.6-0.5,1.1-0.8,1.6-1.1c0.6-0.3,1.1-0.5,1.4-0.5c0.2,0,0.7,0,1.2,1.5c0.1,0.4,0.2,0.9,0.3,1.3l0.1,0.6c1.2,6.1,3.7,12,7.9,18.2
				c5.1,7.5,10.2,15.3,15,22.9l4.1,6.3c1.8,2.8,1.7,4-0.3,7c-3.5,5.3-8.4,9.3-13.1,12.8C506.8,245.7,503.3,246.9,499.8,246.9
				C499.8,246.9,499.8,246.9,499.8,246.9z"/>
			<path class="st1" d="M531.7,228.7c-1.2-2.6-2.3-5-3.7-7.3c-1.6-2.7-3.5-5.3-5.3-7.8c0,0-5.2-7.3-7.1-9.9
				c-2.6-3.6-5.2-7.2-7.7-10.8c-3.8-5.4-6.4-11.2-7.6-17.3c-0.9-4.5-2.1-9-3.1-12.8c-1.7-6.2-5-10.4-10.2-12.7c0,0,0,0,0,0
				c2.6-1.1,6.6-2.1,9.7-2.6c3.9-0.6,8-0.9,11.9-0.9c3.5,0,6.7,0.2,9.6,0.7c12.2,2,13.6,25.7,13.8,32.9c0.3,12.3,0.3,24.9,0.4,37
				l0.1,12.6C532,229.5,531.8,229.1,531.7,228.7z"/>
			<path class="st1" d="M531,327.4c-0.3,0-0.6-0.1-0.9-0.3c-1.2-0.6-2.7-1.5-4.2-3.7c-3.8-5.7-6.5-12.2-8.4-17l-0.8-2
				c-1.3-3.3-2.3-7.1-3.2-10.5c-1-3.8-1.8-7.1-3-9.1c-1.6-2.8-3.9-4.7-6.7-5.5c-1.2-0.3-1.6-0.9-1.6-2.2c0.7-10.6,3.5-19.1,8.6-25.7
				c4.8-6.2,12.1-14.8,14.8-17c0.5-0.5,1.1-0.7,1.5-0.7c0.8,0,1.4,0.7,1.6,1c2.1,3.5,3.2,9.4,3.2,17.1c0,17,0,34,0,51.1l0,16.6
				c0,0.7,0,1.5,0,2.2c0,1.4,0.1,2.9,0,4.3C532,326.3,531.8,327.4,531,327.4L531,327.4z"/>
			<path class="st0" d="M494.1,672.9c-2.5,0-5-0.4-7.1-0.8c-3.7-0.7-6.2-2.3-7.9-5.1c-2-3.2-5.1-5.4-9.2-6.6l-0.9-0.2
				c-1.6-0.4-3.3-0.9-4.9-1.5c-1.7-0.7-3.7-1.6-5.1-2.9c-3.8-3.3-4.2-7.9-1.1-11.9c2.6-3.4,5.7-5.1,9.3-5.2c1,0,2,0,3,0
				c3.3,0,5.9,0.1,8.3,0.3c0.3,0,0.5,0,0.8,0c2.2,0,3.7-0.9,4.7-3l0.6-1.1c1.6-3.2,3.2-6.5,4.7-9.7c1.3-2.8,4.7-4.9,7.9-4.9
				c0.2,0,0.4,0,0.6,0c3.1,0.3,5.2,2.1,5.8,5.1c0.7,3.1,1,6.3,0.9,9.3c-0.1,2.9-0.5,5.8-0.8,8.6c-0.7,5.3-1.4,10.3-0.2,15.2
				c-0.1,4.3-0.8,7.9-2.1,11.5c-0.5,1.4-1.4,2-3,2.4C497,672.8,495.6,672.9,494.1,672.9C494.1,672.9,494.1,672.9,494.1,672.9z"/>
			<path class="st0" d="M390.2,396.1c-0.2,0-0.6-0.1-0.8-0.4c-0.3-0.4-0.2-1.2,0.1-2c0.5-1.5,1.2-2.9,1.8-4.2l2.5-5.2
				c1.1-2.4,2.2-4.7,3.3-7.1c0.5-1.2,0.6-2.2,0.2-2.8c-0.2-0.3-0.5-0.5-0.9-0.5c-0.7,0-1.4,0.6-2,1.8c-1.3,2.6-3,5.6-4.7,8.7
				c-1.6,3-3.2,6-4.5,8.5c-1.1,1.9-2.3,2.5-2.9,2.5c-0.2,0-0.4-0.1-0.6-0.3c-0.4-0.5-0.5-1.9,0.4-3.9c1.7-3.4,3.4-6.8,5.1-10.2
				c1.3-2.6,2.7-5.3,4-7.9c0.7-1.3,0.9-2.4,0.5-3c-0.2-0.3-0.5-0.5-0.9-0.5c-0.7,0-1.5,0.7-2.3,2c-0.9,1.6-2,3.4-3.1,5.4
				c-1.6,2.8-3.2,5.7-4.6,8c-0.9,1.6-1.7,2.1-2.1,2.1c-0.1,0-0.3,0-0.4-0.3c-0.3-0.6-0.3-1.8,0.4-3c1.2-2.4,2.7-5.3,4.2-8.1
				c0.9-1.6,1.7-3.2,2.4-4.6l1.6-3c0.6-1.2,1.3-2.5,1.9-3.7c0.9-1.7,0.4-2.5-0.3-3.2l-0.4-0.5l-0.6,0.3c-0.7,0.5-8.4,4.4-12,4.4l0,0
				c-1.8,0-4.5-1.2-5.6-3.6c4.9-1.7,10.8-5.9,13.5-9.5c1.8-2.4,3.8-4.5,5.4-6.1c3.8-3.9,8.4-5.9,13.3-5.9c2.7,0,5.5,0.6,8.3,1.9
				c0.5,0.2,1.1,0.5,1.6,0.8c0.8,0.4,1.6,0.8,2.5,1.1c1.4,0.5,1.9,1.4,1.9,3c-0.1,3.7-0.2,6.9-0.1,10.1c0.1,2.4-0.4,4.8-1.4,7.4
				c-2.6,6.7-6.3,12.9-9.9,19c-0.8,1.3-1.6,2.6-2.3,4c-0.5,0.8-1.1,1.6-1.8,2.3c-0.2,0.2-0.6,0.4-1,0.4c-0.3,0-0.6-0.1-0.8-0.2
				c0.4-0.8,1.1-2.2,1.9-3.6c1-1.9,2.1-4,2.5-4.9c0.6-1.3,0.4-2,0.2-2.4c-0.2-0.4-0.6-0.6-1-0.6c-0.8,0-1.5,0.6-2,1.6
				c-1.4,3-3.6,7-5.6,10.5c-0.8,1.4-1.5,2.7-2.1,3.8C391.9,395.6,390.9,396.1,390.2,396.1z"/>
			<path class="st0" d="M502.7,569.5c-0.9,0-2-0.5-3.4-1.5c-2.9-2-4.9-4.9-6.4-9c-2.1-6-2.3-12.1-2.3-16.7c0.1-13,1.4-24.8,3.8-36.1
				c0.9-4.4,2.3-8.9,6-12c1.4-1.2,2.7-2.2,4.5-2.2c0.1,0,0.2,0,0.3,0c0,0.1,0,0.2,0.1,0.2c0.1,0.5,0.2,1,0.2,1.4v1.1
				c0,2.1,0,4.3-0.2,6.4c-0.8,9.7,0.5,19,4,28.4c2.4,6.5,3.5,13.2,3.2,20c-0.3,7.1-2.3,12.9-6.3,17.7
				C504.8,568.8,503.7,569.5,502.7,569.5L502.7,569.5z"/>
			<path class="st0" d="M484.6,624.6c1.3-8.2,1-15.7-0.7-22.8l-1.5-6.1c-2.9-11.7-5.9-23.9-9.9-35.6c-0.6-1.7-1-3.5-1.3-5.3
				c-0.1-0.2-0.1-0.5-0.1-0.7c2.5,1.9,4.2,4.3,4.9,7.4l9.3,36.4l1.5-0.3c-0.8-9.2-2.9-18.2-4.9-26.9c-0.8-3.6-1.6-7.2-2.4-10.8
				l9.9,1.3c0.1,0.1,0.1,0.3,0.2,0.4c0.3,0.7,0.6,1.5,1.1,2.3l0.6,0.9c1.2,1.8,2.5,3.7,4.1,5.2c1.8,1.8,3.8,2.7,5.9,2.7
				c1.5,0,3-0.5,4.5-1.5c0,0,0,0,0.1,0c0,0.2,0,0.4-0.1,0.6l-1.1,5.6c-1.3,6.4-2.5,12.7-3.9,19.1c-1.4,6.5-1,12.6,1,18.4
				c0.3,0.8,0.5,1.6,0.7,2.5c-2-0.9-4-1.3-5.9-1.3C492.7,616.2,488,617.8,484.6,624.6z"/>
			<path class="st1" d="M452.6,193.6c-0.8-0.1-1.7-0.1-2.7-0.3c-1.7-0.2-1.7-0.3-1.6-1.8c0.3-3,0.7-6.3,1.2-9.5
				c1.5-8.9,5.9-16,13.1-21.2c4.3-3.2,9.2-5.7,15-7.9c1-0.4,2-0.6,2.9-0.6c1.4,0,2.7,0.4,4.1,1.2c4.6,2.7,7.6,6.5,8.9,11.5
				c0.7,2.7,0.6,2.9-1.6,4.4c-4.5,2.9-8.3,6.6-11.3,9.8c-2.8,2.9-5.1,5.2-7.3,7.3c-5.2,4.9-11.7,7.3-19.8,7.3
				C453.3,193.6,452.6,193.6,452.6,193.6z"/>
			<path class="st0" d="M481.3,554.3c-5.5,0-10.7-4.6-11.3-10c-0.9-8.3,0.7-16,2.4-22.5c3-11.3,8.1-22.6,15.6-34.4
				c0.2-0.3,0.5-0.6,0.8-1c0.1-0.1,0.1-0.1,0.2-0.2c1.6,1.4,2.3,3.1,2.2,5.1c-0.2,4.3-0.4,9.4-1,14.3l-0.8,5.8
				c-1.5,11.1-3,22.6-3.2,34c0,1.8-0.2,3.6-0.5,5.4c-0.3,2.1-1.6,3.2-3.7,3.4C481.7,554.3,481.5,554.3,481.3,554.3L481.3,554.3z"/>
			<path class="st1" d="M450.1,255.7c-2.8,0-5.5-0.8-8.8-2.5c-2.7-1.5-4.3-3.5-4.7-6c-1.1-7.5-0.3-13.4,2.3-18.8
				c0.6-1.3,1.2-1.8,2.1-1.8c3.3-0.2,6.1-1.7,8.8-3.2l1.1-0.6c0.5-0.3,1.1-0.6,1.8-1.1c0.3-0.2,0.7-0.4,1-0.7
				c-0.5,4.7,0.3,10.6,1.6,13.8c1,2.3,3.2,3.8,5.9,3.8c1.9,0,3.8-0.7,5.4-2.1c0.5-0.4,1-0.7,1.3-1c-1.4,3.1-2.6,5.2-4.3,8.1l-0.6,1
				c-1.2,2.1-2.7,4.6-4.4,6.8c-2.2,2.8-4.8,4.2-8.2,4.3L450.1,255.7z"/>
			<path class="st1" d="M476.1,319.3c-0.1-0.3-0.1-1.1,0.3-3l0.5-2.4c0.9-4.4,1.9-8.9,3-13.3c0.6-2.3,1.5-4.6,2.7-6.8
				c3-5.6,7.5-8.9,13.3-10.1c0.6-0.1,1.2-0.2,1.8-0.2c1.1,0,2,0.2,2.6,0.6c4.9,2.9,6.4,7.7,7.5,13.7c-0.4,0-0.9-0.1-1.4-0.1
				c-10.4,0-23.2,10.6-26.7,16.4C477.9,317.7,476.6,319,476.1,319.3z"/>
			<path class="st1" d="M461,234.8c-0.1,0-0.1,0-0.2,0c-0.9-0.3-2.1-2.8-2.4-4.8c-0.9-5.6,0.7-12.6,2.3-17.5
				c2.3-7.2,9.8-17.5,11.1-19.1c0.5-0.6,1.5-1.1,2.2-1.1c0.3,0,0.5,0.1,0.6,0.2c0.1,0.1,0.3,0.6,0,1.7c-1.2,4.7-2.5,14.9-2.3,21
				c0.3,8-0.6,12.4-6.3,16.9c-0.3,0.2-0.6,0.4-1,0.7C463.8,233.5,461.9,234.8,461,234.8L461,234.8z"/>
			<path class="st1" d="M496.5,277.4c-1-0.9-1.9-1.6-2.7-2.5c-3.3-3.7-5.4-8-7.1-12.2c-3.2-7.7-4.7-15.6-5.6-22.6
				c4.9,7.6,10.8,11.4,17.6,11.4c2.1,0,4.3-0.4,6.5-1.1c-5.3,7.1-8,16.3-8.2,27.4C496.8,277.7,496.7,277.5,496.5,277.4z"/>
			<path class="st1" d="M441.9,222.8c-0.7,0-1.9,0-2.2-4.4c-0.3-6.3,2.2-11.8,4.8-17.6c0.4-0.9,0.8-1.8,1.2-2.6
				c0.3-0.7,0.8-0.9,1.8-0.9l0.6,0c1.2,0.1,2.4,0.1,3.6,0.1c2,0,3.9-0.1,5.8-0.2c1.6-0.1,3.2-0.5,5.1-0.9c0.5-0.1,0.9-0.2,1.4-0.3
				l-0.1,0.2c-0.4,0.9-0.7,1.6-1.1,2.4c-0.6,1.2-1.2,2.4-1.8,3.6c-1.2,2.2-2.3,4.5-3.4,6.9c-2.8,6.2-8.7,12-13.8,13.5
				C443,222.7,442.4,222.8,441.9,222.8L441.9,222.8z"/>
			<path class="st1" d="M420.5,275.5c-0.1-7.9,6.2-21.8,12.3-26.6c0.1,0.4,0.1,0.9,0.2,1.3c0.3,1.9,0.6,3.7,1.2,5.4
				c0.7,1.9,0.1,3.1-1.1,4.6c-1,1.3-2.3,2.6-3.6,4C426.4,267.4,423.1,271,420.5,275.5z"/>
			<path class="st0" d="M496.5,491c-0.6-2.5-1.6-4.1-2.5-5.5c-0.6-0.9-1.1-1.8-1.6-2.8c-0.3-0.7-0.4-1.6-0.2-2c0.9-2,1.9-3.9,3-5.9
				l0.3-0.5c1,4.2,3.4,8.9,6.5,12.7C499.8,487.7,497.8,489.2,496.5,491z"/>
			<path class="st1" d="M481.9,286.6c0.5-3.9,1.4-7.4,2.2-10.9c0.2-0.9,0.5-1.8,0.7-2.7l0.1,0l5.9,7.2
				C487.6,281,484.8,283,481.9,286.6z"/>
			<path class="st1" d="M419.3,341c-1.2-0.5-2.3-1-3.5-1.5c-4.5-2-9.1-4-13.2-4c-0.4,0-0.9,0-1.3,0.1c-0.3-1.1,0.4-2.9,0.7-3.9
				l0.2-0.4c1.1-3,2-5.6,2.9-8.1c1.3-3.6,2.6-7.1,4.1-11.5c0.8-2.4,1.5-4.8,2.2-7.2c0.4-1.3,0.8-2.7,1.2-4c0.2-0.8,0.5-1.5,0.8-2.3
				l0.1-0.2c0.6,0.6,0.6,1.4,0.6,2.3v0.4c0,4.6,0.1,9.2,0.1,13.8l0,4.8c0,1.3,0,2.6,0.3,3.9l0.5,2.1l0.9-2c1.5-3.2,1.7-6.5,1.9-9.8
				l0.1-1.1c0.2-2.8,0.2-5.7,0.2-8.5c0-1.9,0-3.8,0.1-5.6l0-0.5c0.1-3.2,0.2-6.5,0.6-9.8c0.7-4.8,2.6-9.1,5.8-13
				c3.3-4,12.2-12.4,14.5-13.7c0.9-0.5,1.7-0.7,2.4-0.7c1.1,0,2.2,0.5,3.6,1.6c0.8,0.6,1.2,1.2,1.2,1.8c0,0.5-0.2,1.1-0.8,1.7
				c-4.4,4.5-7.4,10-9.1,16.2l-0.6,2.3c-1.3,5-3.2,11.9-5,17.6c-0.1,0.4-0.1,1.1,0.2,1.6l0.2,0.3l0.5,0.1c0.7,0,1.2-0.7,2-2.5
				c1.7-4,3-8.3,4.2-12.3c0.4-1.5,0.9-2.9,1.4-4.4c2.1-6.4,4.5-11.1,8-15c1.5-1.7,3-3.5,4.4-5.3c0.9-1.2,1.9-2.3,2.8-3.4
				c0.2-0.3,1.1-1.3,1.4-1.5c0.3,2.1,0.1,4-0.4,6c-0.2,0.7-0.4,1.3-0.7,1.7c-3.1,5.3-5.3,11.1-7.5,16.8c-1.3,3.4-2.6,6.9-4.1,10.2
				c-3.6,7.9-7.5,15.7-11.3,23.4l-3,6c-2,4-4,7.9-6.1,11.8l-1.7,3.2c-0.4,0.7-0.8,1.4-1.3,2.2L419.3,341z"/>
			<path class="st0" d="M554.5,116.1c-0.4-1.9-0.7-3.7-1.1-5.5c-0.4-2-0.9-4.1-1.6-6.1c-2.8-8.4-8-12-17.4-12
				c-9.5,0-14.7,3.6-17.4,12c-0.7,2-1.1,4.1-1.6,6.1c-0.4,1.8-0.8,3.6-1.1,5.5l-0.3,1.7c-1-0.5-1.5-1.3-1.7-2.3
				c-0.1-0.9-0.3-1.9-0.4-2.8c-0.1-0.8-0.2-1.5-0.3-2.3l-1.3-9.1l-0.5-0.1c-3.9-0.8-3.9-0.8-5.4-4l-0.8-1.6c-0.7-1.5-1.5-3-2.2-4.6
				c-1.3-2.8-0.7-4.3,2.1-5.6c0.8-0.4,1.7-0.7,2.4-1.1l1.2-0.5l0-0.5c0.1-1.6,0.2-3.1,0.3-4.7c0.2-3.2,0.4-6.3,0.9-9.3
				c2.1-12.9,12.9-21.9,26.1-21.9c13.3,0,24,9,26.1,21.9c0.5,3,0.7,6.1,0.9,9.3c0.1,1.5,0.2,3.1,0.3,4.7l0,0.5l1.2,0.5
				c0.7,0.3,1.6,0.7,2.4,1.1c2.8,1.3,3.4,2.8,2.1,5.6c-0.7,1.5-1.4,3.1-2.2,4.6l-0.8,1.6c-1.5,3.2-1.5,3.2-5.4,4l-0.5,0.1l-1.3,9.1
				c-0.1,0.8-0.2,1.5-0.3,2.3c-0.1,0.9-0.2,1.9-0.4,2.8c-0.2,1.1-0.7,1.8-1.7,2.3L554.5,116.1z"/>
			<path class="st0" d="M534.3,161.3c-0.6-2.2-1.2-4.4-2.1-6.5c-2.5-6.1-7-9.9-13.2-11.1c-2.6-0.5-5.1-0.6-7.3-0.6l-4.3,0
				c-0.9,0-1.7,0-2.6-0.1c-0.3,0-0.6,0-0.9,0c2.3-1.7,4.5-3,6.2-4c4.2-2.4,6.5-6.2,6.8-11.4l0.3-4.8c0.2-2.3,0.3-4.6,0.4-6.9
				c0.2-4.5,2.5-10.9,3.5-12.5c0.1-0.2,0.2-0.4,0.3-0.6l-1.1,15.1c-0.1,1.3,0.2,1.8,0.4,2l0.2,0.2l0.4,0.1c0.7,0,1.1-0.7,1.3-2
				c0.2-1,0.5-4,0.9-7.5c0.3-3.1,0.7-6.5,1-9.1c0.3-2.2,1.2-3.4,3.2-4.3c2.6-1.1,5.5-1.2,6.4-1.2s3.8,0.1,6.4,1.2
				c2,0.8,3,2.1,3.2,4.3c0.3,2.6,0.7,6.1,1.1,9.2c0.4,3.4,0.7,6.4,0.9,7.4c0.2,1.3,0.7,2,1.3,2h0.3l0.3-0.3c0.2-0.2,0.5-0.7,0.4-2
				l-1.1-15.1c0.1,0.1,0.2,0.3,0.3,0.5c1.1,1.6,3.3,8.1,3.6,12.5c0.1,2.3,0.3,4.7,0.4,7l0.3,4.7c0.3,5.1,2.6,8.9,6.8,11.4
				c1.7,1,3.9,2.3,6.2,4c-0.3,0-0.6,0-0.9,0c-0.9,0-1.7,0.1-2.6,0.1l-4.3,0c-2.2,0-4.7,0.1-7.3,0.6c-6.2,1.3-10.7,5-13.2,11.1
				C535.6,156.9,534.9,159.2,534.3,161.3z"/>
			<path class="st2" d="M698.9,356.5c-4.1-1.6-7.4-4-10-7.6c-3.9-5.3-8.4-10.1-14.9-12.4c-0.6-0.2-1.2-1-1.5-1.7
				c-3.6-9.8-7.1-19.7-10.7-29.5c-1.3-3.5-2.5-7.2-4.4-10.4c-2.4-4.1-3.6-8.4-3.7-13.1c0-1.4-0.1-2.8-0.3-4.1
				c-0.7-3.8-1.2-7.7-2.2-11.5c-1.4-5.5-4.9-10.1-7.6-15c-1.3-2.4-2.8-4.8-4.7-6.8c-1.6-1.7-2.2-3.4-2.1-5.5
				c0.1-3.7-0.8-7.3-2.1-10.8c-0.9-2.4-2.2-4.8-0.8-7.6c0.3-0.5,0-1.4,0-2c-0.5-8.9-3.5-17-8.1-24.6c-0.4-0.7-0.6-1.7-0.7-2.6
				c-0.3-2.4-0.4-4.8-0.8-7.2c-1.3-8.7-4.1-16.7-10.7-23c-7.1-6.9-15.6-11.2-25.1-13.9c-4.8-1.3-9.7-2.3-14.1-4.3
				c-5-2.3-9.5-5.5-14.3-8.4c-2-1.2-3.2-3-3.5-5.3c-0.3-2.2-0.3-4.3-0.5-6.6c4-2,5.2-5.5,5.4-9.5c0.1-1.8,0.5-3.6,0.6-5.5
				c0.1-1.5,0.7-2.4,2.1-3.2c1.3-0.7,2.5-2,3.3-3.3c1.7-3,2.9-6.2,4.5-9.3c1.4-2.8,0.9-5.4-1-7.7c-1.3-1.5-3-2.7-4.6-4
				c-0.5-4.3-0.8-8.8-1.7-13.2c-2.6-12.5-11.4-24.6-30.6-24.6c-19.1,0-27.9,12.1-30.6,24.6c-0.9,4.4-1.2,8.9-1.7,13.2
				c-1.6,1.3-3.3,2.5-4.6,4c-1.9,2.2-2.4,4.8-1,7.7c1.6,3.1,2.8,6.3,4.5,9.3c0.7,1.3,2,2.6,3.3,3.3c1.4,0.8,2,1.7,2.1,3.2
				c0.1,1.8,0.5,3.6,0.6,5.5c0.2,4,1.4,7.5,5.4,9.5c-0.2,2.3-0.2,4.4-0.5,6.6c-0.3,2.3-1.5,4.1-3.5,5.3c-4.7,2.9-9.3,6.1-14.3,8.4
				c-4.4,2-9.4,3-14.1,4.3c-9.5,2.7-17.9,7-25.1,13.9c-6.6,6.3-9.4,14.3-10.7,23c-0.3,2.4-0.5,4.8-0.8,7.2c-0.1,0.9-0.3,1.8-0.7,2.6
				c-4.6,7.6-7.7,15.6-8.1,24.6c0,0.7-0.3,1.5,0,2c1.4,2.7,0.1,5.1-0.8,7.6c-1.3,3.5-2.1,7-2.1,10.8c0,2.2-0.6,3.9-2.1,5.5
				c-1.8,2-3.3,4.4-4.7,6.8c-2.7,4.9-6.2,9.5-7.6,15c-1,3.8-1.5,7.6-2.2,11.5c-0.2,1.4-0.2,2.7-0.3,4.1c-0.2,4.7-1.3,9-3.7,13.1
				c-1.9,3.2-3.1,6.9-4.4,10.4c-3.6,9.8-7.1,19.7-10.7,29.5c-0.2,0.7-0.8,1.5-1.5,1.7c-6.5,2.3-11,7-14.9,12.4
				c-2.6,3.5-5.9,6-10,7.6c-2.3,0.9-4.7,1.9-5,5.1c-0.2,3.2,1.9,4.8,4.1,6.3c2,1.3,4.2,1.7,6.6,1.2c1.8-0.4,3.5-0.6,6-1
				c-2.1,4-3.8,7.5-5.6,10.9c-1.3,2.4-2.5,4.7-2,7.5c0.1,0.7,0.1,1.6,0.5,2c2,1.8,2,4.2,2.3,6.5c0.6,3.9,3.5,5.8,7.6,5.1
				c1.1-0.2,2.3-0.4,3.2-0.1c3.7,1.1,6.6,0.1,8.9-2.8c1.1-1.4,2.2-2.4,4.1-2.5c1.8-0.1,3.3-1.1,4.3-2.6c6-9.2,11.6-18.5,15.2-28.9
				c0.6-1.7,0.7-3.6,0.8-5.4c0.1-2.6,0.2-5.3,0.1-7.9c-0.1-2.4,0-4.5,2.5-5.8c0.5-0.3,0.9-1,1.2-1.7c7.9-15.2,16.4-30.1,23.1-45.9
				c4.1-9.6,7.9-19.3,11.8-29c1.4-3.5,2.5-7.2,2.1-11.1c-0.1-0.7,0.4-1.5,0.8-2.1c2.5-4.1,5.1-8.2,7.6-12.3c1.6-2.7,3.1-5.6,5-8.4
				c1.8,11.7,3.5,23.3,8.8,34.3c-3,1.4-3.9,4.1-4.4,7c-0.6,3-1.3,6.1-2,9.1c-0.6,2.4-1.1,4.7,0.4,7c0.3,0.5,0,1.5-0.3,2.2
				c-3.3,7.7-4.5,15.9-6.1,24c-0.3,1.4,0.3,2.9,0.4,4.4c0.2,2.9,0.3,5.7,0.5,8.9c-4.1,1.8-4.6,5.7-5.2,9.7
				c-3,20.3-2.4,40.6-0.8,60.9c1.6,19.7,5.3,39.2,8.6,58.7c0.6,3.2,0.2,6.6,0.1,9.9c-0.1,5.9-0.4,11.7-0.3,17.6
				c0.1,2.6,0.8,5.2,1.6,7.7c0.5,1.6,0.5,2.8-0.4,4.2c-3.3,5.3-5.1,11.3-6.8,17.3c-1.3,4.6-2.9,9.2-3.7,14c-1,5.6-0.9,11.2,0.1,16.8
				c0.1,0.8,0.3,1.6,0.3,2.4c0,5.1,1.3,10,2.9,14.8c4.9,14.9,8.7,30,11.6,45.4c0.5,2.7,0.4,5.5,0.2,8.2c-0.5,5.2-1.3,10.4-2,15.7
				c-3.3,0-6.8,0-10.3,0c-5.4,0-9.8,2.1-13.4,6.1c-6,6.6-5,16,2.5,20.9c2.5,1.6,5.4,2.7,8.2,3.4c4.6,1.1,8.2,3.1,10.9,7.2
				c1.1,1.6,2.9,3.1,4.7,3.8c6.2,2.6,12.7,3.2,19.3,1.6c2.4-0.6,3.9-1.9,4.9-4.3c2.3-5.6,3.1-11.3,2.4-17.2c-0.5-3.8,0-7.5,0.5-11.3
				c0.4-3.1,0.9-6.2,1-9.3c0.3-7.1-0.9-14-3-20.7c-1.7-5.5-2.2-11-1-16.6c1.9-8.9,3.6-17.8,5.5-26.7c0.2-1.1,0.6-2.3,1.2-3.2
				c5.5-8.7,6.2-18.2,4.6-27.9c-0.9-5.3-2.7-10.4-4.1-15.6c-0.3-1-0.7-2-1-2.9c-1.1-3.4-1.7-6.4,1.6-9.3c1.9-1.6,3-4.4,3.8-6.9
				c2.3-6.7,4.6-13.5,6.4-20.4c2.4-9.6,4.7-18,6.4-28.9c0.9-6.9,1.6-14.1,1.8-19.3c0.6-14.3,1.7-31.9,0.2-55.8
				c-0.3-5.3-0.5-10.6-0.8-15.8c-0.1-2-0.5-4-0.9-6.9c0.8-0.8,2.5-2.1,4.3-3.8c1.8,1.7,3.5,3.1,4.3,3.8c-0.4,2.9-0.8,4.9-0.9,6.9
				c-0.3,5.3-0.5,10.6-0.8,15.8c-1.5,23.9-0.4,41.5,0.2,55.8c0.2,5.2,0.9,12.4,1.8,19.3c1.7,10.9,4,19.4,6.4,28.9
				c1.7,6.9,4,13.7,6.4,20.4c0.8,2.5,1.9,5.2,3.8,6.9c3.3,2.9,2.8,5.9,1.6,9.3c-0.3,1-0.7,1.9-1,2.9c-1.4,5.2-3.2,10.3-4.1,15.6
				c-1.6,9.7-0.9,19.3,4.6,27.9c0.6,0.9,0.9,2.1,1.2,3.2c1.9,8.9,3.6,17.8,5.5,26.7c1.2,5.7,0.7,11.1-1,16.6
				c-2.1,6.7-3.3,13.6-3,20.7c0.1,3.1,0.6,6.2,1,9.3c0.5,3.8,1,7.5,0.5,11.3c-0.7,5.9,0.1,11.7,2.4,17.2c1,2.4,2.5,3.7,4.9,4.3
				c6.6,1.5,13.1,1,19.3-1.6c1.8-0.8,3.6-2.2,4.7-3.8c2.7-4,6.3-6,10.9-7.2c2.9-0.7,5.8-1.8,8.2-3.4c7.5-4.9,8.6-14.2,2.5-20.9
				c-3.6-3.9-8-6.1-13.4-6.1c-3.5,0-7.1,0-10.3,0c-0.7-5.2-1.5-10.4-2-15.7c-0.3-2.7-0.3-5.6,0.2-8.2c2.9-15.4,6.7-30.5,11.6-45.4
				c1.6-4.8,3-9.7,2.9-14.8c0-0.8,0.2-1.6,0.3-2.4c1-5.6,1.1-11.3,0.1-16.8c-0.8-4.7-2.4-9.3-3.7-14c-1.7-6-3.4-11.9-6.8-17.3
				c-0.9-1.4-0.8-2.7-0.4-4.2c0.8-2.5,1.5-5.1,1.6-7.7c0.1-5.9-0.2-11.7-0.3-17.6c0-3.3-0.4-6.7,0.1-9.9c3.4-19.5,7-38.9,8.6-58.7
				c1.7-20.3,2.2-40.7-0.8-60.9c-0.6-4-1.1-7.8-5.2-9.7c0.2-3.2,0.3-6.1,0.5-8.9c0.1-1.5,0.7-3,0.4-4.4c-1.6-8.1-2.8-16.3-6.1-24
				c-0.3-0.7-0.6-1.7-0.3-2.2c1.5-2.3,0.9-4.6,0.4-7c-0.7-3-1.4-6-2-9.1c-0.5-2.9-1.4-5.5-4.4-7c5.3-10.9,7-22.6,8.8-34.3
				c1.9,2.8,3.4,5.6,5,8.4c2.5,4.1,5.1,8.2,7.6,12.3c0.4,0.6,0.9,1.4,0.8,2.1c-0.4,3.9,0.7,7.5,2.1,11.1c3.9,9.7,7.7,19.4,11.8,29
				c6.7,15.8,15.2,30.7,23.1,45.9c0.3,0.6,0.7,1.4,1.2,1.7c2.5,1.3,2.6,3.4,2.5,5.8c-0.1,2.6-0.1,5.3,0.1,7.9
				c0.1,1.8,0.2,3.7,0.8,5.4c3.6,10.4,9.3,19.7,15.2,28.9c1,1.5,2.5,2.5,4.3,2.6c2,0.1,3,1.1,4.1,2.5c2.3,2.9,5.2,3.9,8.9,2.8
				c1-0.3,2.2-0.1,3.2,0.1c4,0.7,7-1.1,7.6-5.1c0.4-2.4,0.3-4.7,2.3-6.5c0.4-0.4,0.4-1.3,0.5-2c0.5-2.8-0.7-5.1-2-7.5
				c-1.8-3.4-3.5-6.9-5.6-10.9c2.4,0.4,4.2,0.6,6,1c2.4,0.5,4.6,0.1,6.6-1.2c2.2-1.5,4.3-3.1,4.1-6.3
				C703.6,358.4,701.2,357.3,698.9,356.5z"/>
		</g>
	</g>
	<rect x="0" class="st3" width="720" height="720"/>
</g>
</svg>
