{
    "apps": [
        {
            "name": "training_platform",
            "script": "./server.js",
            "instances": "max",
            "exec_mode": "cluster",
            "max_memory_restart": "1G",
            "port": 3000
        }
    ]
}