<?xml version="1.0" encoding="utf-8"?>
<!-- Generator: Adobe Illustrator 25.4.1, SVG Export Plug-In . SVG Version: 6.00 Build 0)  -->
<svg version="1.1" id="圖層_1" xmlns="http://www.w3.org/2000/svg" xmlns:xlink="http://www.w3.org/1999/xlink" x="0px" y="0px"
	 viewBox="0 0 800 800" style="enable-background:new 0 0 800 800;" xml:space="preserve">
<style type="text/css">
	.st0{fill:none;}
	.st1{opacity:0.75;fill:#FFFFFF;}
	.st2{fill:#E60012;}
	.st3{fill:#FFFFFF;}
</style>
<g>
	<rect class="st0" width="800" height="800"/>
	<g>
		<g>
			<path class="st1" d="M250.3,540.43c-21.14-22.32-25.05-54.49-26.06-80.2c0.15-24.65,7-48.96,13.62-72.47
				c2.86-10.15,5.8-20.6,8.19-31.03c0.92,12.26,1.85,24.56,2.79,36.87c1.4,18.48,2.82,37.01,4.17,55.53
				c0.29,15.7-0.54,31.67-1.33,47.11C250.93,510.71,250.16,525.64,250.3,540.43z"/>
			<path class="st1" d="M230.63,694.57c0.04-5.23,0.98-10.39,1.9-15.41c1.7-9.31,3.47-18.93-0.68-28.81
				c-12.99-32.33-12.36-46.79-5.93-79.75c9.67,37.7,19.34,76.64,7.48,114.54l1.56,0.62c6.62-13.42,7.47-28.6,8.3-43.28l0.02-0.38
				c0.16-10.15,0.78-20.45,1.37-30.4c1.39-23.29,2.82-47.33-1.38-70.96C272.51,581.71,266.57,655.97,230.63,694.57z"/>
			<path class="st2" d="M218.99,230.44c-13.36,0-22.45-9.05-22.62-22.51c-0.02-1.54,0.29-12.98,0.7-17.13
				c0.58-5.92,3.64-9.95,9.08-12c4.2-1.58,8.46-3.03,12.71-4.47c2.03-0.69,4.05-1.38,6.07-2.08c1.1-0.38,2.16-0.58,3.16-0.58
				c2.05,0,3.9,0.82,5.5,2.43c1.47,1.48,3.11,3.22,4.06,5.13c2.72,5.45,5.36,10.94,8,16.43c2.18,4.52,4.35,9.03,6.57,13.53
				c1.25,2.52,1.12,4.09-0.45,5.62c-11.16,10.8-21.26,15.62-32.74,15.63H218.99z"/>
			<path class="st2" d="M166.65,230.44c-11.48-0.01-21.58-4.84-32.74-15.63c-1.57-1.52-1.7-3.1-0.46-5.61
				c2.24-4.53,4.43-9.09,6.62-13.64c2.62-5.45,5.25-10.9,7.95-16.32c0.96-1.92,2.6-3.65,4.07-5.13c1.6-1.62,3.45-2.43,5.5-2.43
				c1,0,2.06,0.19,3.16,0.58c2.03,0.71,4.06,1.4,6.09,2.09c4.24,1.44,8.49,2.89,12.68,4.46c5.44,2.05,8.5,6.08,9.08,12
				c0.4,4.09,0.72,15.58,0.7,17.13c-0.17,13.46-9.27,22.51-22.63,22.51H166.65z"/>
			<path class="st1" d="M343.4,436.25c-1.09,0-2.96-1.08-3.64-2.42c-0.86-1.57-1.93-3.43-3.05-5.37c-1.99-3.46-4.05-7.03-5.37-9.7
				c-0.71-1.48-1.54-2.26-2.41-2.26c-0.46,0-0.87,0.24-1.12,0.64c-0.47,0.77-0.31,2.04,0.45,3.48c0.43,0.9,0.89,1.79,1.35,2.69
				c0.58,1.12,1.15,2.24,1.69,3.4c0.22,0.46,0.46,0.92,0.71,1.38c0.21,0.38,0.42,0.77,0.6,1.16c-0.2,0.07-0.39,0.11-0.56,0.11
				c-0.52,0-0.94-0.33-1.5-1.17c-0.95-1.42-1.85-2.88-2.76-4.32c-0.99-1.58-1.98-3.15-3.02-4.7c-1.04-1.55-2.12-3.08-3.2-4.6
				c-1.35-1.9-2.69-3.79-3.96-5.74c-2.04-3.13-4-6.22-5.55-9.43c-1.24-2.57-1.31-5.51-0.19-8.28c1.76-4.38,2.4-9.17,1.94-14.67
				l-0.11-1.33c-0.84-10.21-1.72-20.77-4.11-30.98c0.32,0.41,0.64,0.83,0.94,1.26l13.87,19.77c2.56,3.64,5.49,7.31,10.62,8.54
				c1.07,0.26,2.32,1.09,3.71,2.47c2.63,2.62,5.21,5.28,7.78,7.95c2.13,2.2,4.25,4.39,6.4,6.56c1.14,1.15,2.55,2.05,3.78,2.8
				c0.58,0.35,1.22,0.61,1.86,0.87c0.45,0.18,0.9,0.35,1.32,0.58c0.34,0.18,0.74,0.32,1.14,0.45c1.22,0.4,1.42,0.58,1.37,1.21
				c-0.06,0.74-0.42,1.8-2.81,2.47c-0.43,0.12-0.93,0.18-1.48,0.18c-0.52,0-1.04-0.05-1.53-0.14c-2.59-0.45-4.88-0.97-7.01-1.57
				c-0.77-0.22-1.47-0.33-2.14-0.33c-1.38,0-2.65,0.47-3.89,1.42l-0.48,0.37l0.2,0.57c0.07,0.21,0.14,0.43,0.21,0.66
				c0.16,0.56,0.35,1.19,0.69,1.77c1.62,2.85,3.26,5.69,4.9,8.53c1.93,3.35,3.87,6.71,5.78,10.07c2.04,3.12,2.09,4.84,1.8,5.37
				c-0.07,0.12-0.17,0.24-0.47,0.24c-0.93,0-2.61-1.14-4.12-3.65c-1.71-2.85-3.46-5.58-5.21-8.3c-1.67-2.61-3.34-5.22-4.99-7.95
				c-0.68-1.33-1.43-2.02-2.22-2.02c-0.47,0-0.9,0.26-1.13,0.71c-0.46,0.87-0.17,2.34,0.72,3.65c2,3.72,4.13,7.41,6.26,11.1
				c2.16,3.74,4.32,7.48,6.38,11.33c0.95,1.67,1.23,3.13,0.77,3.92c-0.2,0.34-0.54,0.52-1,0.52c-1.23,0-3.07-1.25-4.39-4.05
				c-1.41-2.57-2.91-5.21-4.43-7.87c-1.97-3.47-3.97-6.97-5.74-10.28c-0.79-1.36-1.72-2.1-2.61-2.1c-0.55,0-1.03,0.28-1.31,0.77
				c-0.48,0.84-0.29,2.13,0.5,3.47c0.75,1.39,1.55,2.77,2.36,4.15c0.98,1.67,1.95,3.34,2.84,5.09c0.58,1.14,1.2,2.25,1.83,3.35
				c1,1.78,1.95,3.46,2.75,5.3c0.86,2,0.56,2.63,0.49,2.74C343.84,436.18,343.66,436.25,343.4,436.25z"/>
			<path class="st1" d="M212.46,466.46c-5.61-19.6-9.12-42.01-10.71-68.36c-0.89-5.59,1.32-9.55,6.2-11.22
				c12.51-6.45,21.41-16.85,30.02-26.92c0.98-1.14,1.95-2.28,2.93-3.41c-4.08,17.42-8.86,34.89-13.49,51.81
				C222.21,427.31,216.86,446.87,212.46,466.46z"/>
			<path class="st1" d="M267.15,747.92c-5.84,0-10.42-3.26-15.27-6.7c-3.64-2.59-7.41-5.28-11.85-6.57
				c-7.69-3.36-8.03-13.53-8.33-22.51c-0.09-2.55-0.16-4.96-0.41-7.09c0.22-5.93,4.36-10.16,8.74-14.63
				c3.35-3.42,6.81-6.95,8.55-11.46c0.79,3.38,1.13,7.03,1.45,10.58c0.56,6.18,1.14,12.58,4.16,17.97
				c4.24,6.18,10.07,10.81,15.71,15.29c6.57,5.21,12.77,10.14,16.7,17.23c0.09,0.51-0.01,1.15-0.39,1.76
				c-1.72,2.73-8.34,4.15-12.72,5.08c-1.37,0.29-2.56,0.55-3.4,0.79C269.16,747.83,268.15,747.92,267.15,747.92z"/>
			<path class="st1" d="M292.26,296.11c-15.27-20.72-24.37-44.95-27.8-74c-0.21-1.73-0.14-3.52-0.03-5.2
				c0.12-1.98,0.65-2.07,1.56-2.07c0.2,0,0.41,0.01,0.64,0.04c2.06,0.21,4.27,0.68,6.57,1.38c1.87,0.57,3.75,1.31,5.55,2.03
				l1.93,0.76c5.71,2.19,10.29,6.09,13.64,11.59c4.78,7.86,7.05,15.81,6.93,24.29c-0.08,5.67-1.52,10.34-4.39,14.28
				c-3.16,4.34-3.78,9.43-4.12,13.86c-0.16,2.14-0.19,4.3-0.21,6.45c-0.02,1.31-0.03,2.63-0.08,3.94
				C292.44,294.31,292.36,295.17,292.26,296.11z"/>
			<path class="st2" d="M288.59,219.08c-7.91-5.2-16.38-7.53-24.39-9.26c-4.45-0.97-7.64-3.22-9.73-6.89l-1.24-2.18
				c-4.19-7.32-8.52-14.88-11.43-22.97c-0.99-2.77-0.59-4.23,1.82-6.5c2.81-2.64,5.84-3.87,9.51-3.87c1.18,0,2.42,0.12,3.79,0.38
				c7.84,1.45,15.9,3.74,21.73,10.6c6.33,7.44,9.56,14.84,9.89,22.62c0.18,4.34,0.14,8.66,0.09,13.24
				C288.62,215.83,288.6,217.44,288.59,219.08z"/>
			<path class="st1" d="M255.61,500.34c2.06-28.93,3.23-49.15,0.17-74.67c-2.48-24.98-4.83-51.83-4.04-81.57l1.62,5.82
				C269.33,407,278.33,439.16,255.61,500.34z"/>
			<path class="st1" d="M194.85,383.55c-0.07-0.62-0.13-1.18-0.12-1.73l0.13-9.03c0.17-12.04,0.34-24.08,0.62-36.12
				c0.05-2.23,0.41-4.52,0.76-6.73c0.16-1.01,0.32-2.03,0.45-3.05c0.27-2.1,1.36-3.39,3.33-3.95l3.32-0.94
				c4.04-1.14,8.07-2.28,12.11-3.41c0.4-0.11,0.85-0.14,1.33-0.17c0.23-0.01,0.44-0.02,0.64-0.02c1.29,0,2.19,0.27,2.74,0.83
				c0.58,0.58,0.86,1.54,0.85,2.92c-0.02,3.05-0.11,7.05-0.68,10.94c-1.56,10.82-4.78,21.15-9.12,33.33
				c-2.26,6.32-5.39,11.02-9.6,14.37c-1.99,1.58-3.77,2.35-6.76,2.88L194.85,383.55z"/>
			<path class="st2" d="M246.77,291.79c-0.16-0.37-0.31-0.71-0.42-1.07c-1.34-4.18-3.7-7.98-7.22-11.62l-1.61-1.65
				c-1.34-1.37-2.67-2.73-3.96-4.14c-3.26-3.57-5.22-7.39-6-11.68c-0.88-4.85-1.9-9.69-2.91-14.52c-0.59-2.8-1.18-5.6-1.74-8.4
				c-0.61-3.04-0.31-3.26,2.61-4.29c4.4-1.56,8.76-3.21,13.12-4.85l5.92-2.23l4.54-1.66c0.05,0.18,0.1,0.36,0.15,0.54
				c0.24,0.85,0.46,1.59,0.53,2.3c1.14,11.57,2.23,25.05,0.73,38.47l-0.55,5.01c-0.58,5.31-1.17,10.62-1.83,15.93
				C247.94,289.44,247.61,290.71,246.77,291.79z"/>
			<path class="st1" d="M306.9,373.36c-8.97-18.51-18.25-37.65-24.87-57.54c-1.03-3.11-2.21-6.79-3.12-10.56
				c-1.16-4.83-2.38-9.52-4.64-13.94c-1.4-2.75-1.81-5.97-1.2-9.57c0.11-0.66,0.4-1.34,0.76-2.2c0.07-0.16,0.14-0.32,0.21-0.5
				c0.14,0.13,0.29,0.25,0.42,0.37c0.72,0.63,1.3,1.14,1.81,1.71c1.74,2,3.44,4.04,5.14,6.08l1.27,1.52
				c4.39,5.26,7.8,11.03,10.13,17.15c6.02,15.79,11.97,32.91,14.78,51.21c0.78,5.09,1.27,10.33,1.74,15.4l0.15,1.67
				c0.13,1.4,0.1,2.79,0.07,4.42c0,0.01,0,0.03,0,0.04L306.9,373.36z"/>
			<path class="st1" d="M211.14,376.03c0.4-0.82,0.74-1.52,1.06-2.23c4.37-9.78,8.82-19.74,10.98-30.35
				c1.24-6.12,2.04-12.41,2.81-18.49l0.06-0.48c0.37-2.96,1.22-4.55,2.92-5.48c6.25-3.43,11.08-8.58,15.18-16.19
				c1.91,5.91,2.73,11.51,3.24,15.8c0.03,0.23,0.04,0.46,0.05,0.69c0.01,0.28,0.02,0.56,0.06,0.85c1.13,9.44-1.42,18.56-7.82,27.89
				c-5.26,7.67-10.65,15.54-18.06,21.35c-2.3,1.8-4.9,3.34-7.43,4.83C213.16,374.81,212.14,375.41,211.14,376.03z"/>
			<path class="st1" d="M329.26,363.93c-0.25-0.24-0.49-0.49-0.71-0.75c-16.37-19.74-26.33-39.58-30.45-60.64
				c-0.94-4.79-1.5-10.07-1.76-16.61c-0.1-2.5,0.63-5.13,1.33-7.69l0.18-0.66c0.2-0.74,0.73-1.45,1.4-2.36
				c0.17-0.24,0.35-0.48,0.54-0.74c0.24,0.25,0.47,0.49,0.7,0.72c0.84,0.86,1.57,1.61,2.14,2.42c6.87,9.63,11.27,20.93,13.09,33.58
				c0.33,2.34,0.65,4.69,0.96,7.04c0.77,5.79,1.58,11.78,2.7,17.61c1.63,8.46,4.75,17.35,9.83,27.97
				C329.23,363.87,329.24,363.9,329.26,363.93z"/>
			<path class="st1" d="M239.62,610.42c-1.36-6.6-3.05-13.29-4.69-19.78c-5.71-22.57-11.61-45.88-4.33-68.76
				c13.42,22.75,11.55,50.41,9.74,77.19C240.08,602.9,239.82,606.69,239.62,610.42z"/>
			<path class="st1" d="M197.61,318.65c-1.08,0-2.05-0.26-2.13-3.38c-0.07-2.66-0.05-5.32-0.04-7.97l0.01-2.64l0.07-0.84
				c0-1.29-0.02-2.59-0.05-3.88c-0.05-2.85-0.1-5.8,0.11-8.67c0.31-4.26,0.97-4.87,5.42-5.03c0.52-0.02,1.04-0.03,1.56-0.03
				c7.08,0,13.37,1.65,19.24,5.04c2.16,1.25,2.89,2.73,2.5,5.1c-0.9,5.48-2.42,10.11-4.66,14.17c-1.19,2.15-2.76,3.4-4.95,3.93
				c-2.79,0.68-5.57,1.41-8.34,2.14c-2.27,0.6-4.55,1.2-6.83,1.77C198.75,318.56,198.12,318.65,197.61,318.65z"/>
			<path class="st1" d="M222.45,551.54c-10.34-27.92-11.71-56.76-4.14-87.91c0.11,1.02,0.22,2.03,0.33,3.05
				c1.62,15.08,3.31,30.68,7.47,45.67c-0.24,5.18-1.05,10.73-1.83,16.09C223.18,535.96,222.05,543.7,222.45,551.54z"/>
			<path class="st1" d="M224.57,286.07c-1.26-0.41-2.48-0.83-3.68-1.25c-3.5-1.21-6.81-2.36-10.25-2.96
				c-3.5-0.61-7.15-0.66-10.68-0.71c-1.38-0.02-2.75-0.04-4.14-0.09c-0.04-0.13-0.07-0.26-0.11-0.39c-0.15-0.58-0.29-1.08-0.3-1.54
				l-0.02-1.17c-0.06-4.38-0.11-8.91-0.02-13.36c0.08-3.68,0.63-4.24,4.19-4.29l0.5,0c8.3,0,15.38,2.87,21.06,8.51
				c0.79,0.79,1.28,1.52,1.41,2.12C223.67,276.25,224.34,281.21,224.57,286.07z"/>
			<path class="st1" d="M222.31,262.05c-0.74-0.35-1.42-0.67-2.08-1.02c-6.01-3.22-12.56-5.17-19.99-5.98l-0.61-0.05
				c-0.3-0.02-0.59-0.05-0.89-0.09c-3.22-0.49-3.35-0.63-3.42-3.82c-0.01-0.35,0.01-0.71,0.02-1.07c0.03-0.69,0.06-1.39-0.05-2.11
				c-0.95-5.9,1.82-10.62,4.96-14.85c0.95-1.28,1.65-1.44,2.16-1.44c0.4,0,0.86,0.11,1.39,0.35c1.79,0.79,3.59,1.56,5.39,2.32
				c1.38,0.58,2.75,1.16,4.12,1.76c2.37,1.03,3.86,2.71,4.41,4.98c1.41,5.83,2.74,11.68,4.07,17.53l0.82,3.64L222.31,262.05z"/>
			<path class="st1" d="M196.56,170.72c-0.49-5.06,0.07-10.03,1.72-15.18c0.82-2.54,1.85-5.08,2.85-7.53
				c0.52-1.28,1.04-2.56,1.54-3.84c1.01-2.61,2.83-4.43,5.57-5.57c1.4-0.58,2.78-1.18,4.12-1.77l1.17-0.51
				c0.07,0.06,0.46,0.38,0.5,0.42c1.56,5.8,3.22,11.92-1.02,17.43c-3.75,4.87-7.66,9.5-10.66,12.99
				C200.78,169,199.39,169.87,196.56,170.72z"/>
			<path class="st2" d="M202.66,173.47c0.26-0.49,0.46-0.82,0.69-1.09c0.89-0.98,1.8-1.93,2.71-2.89c1.54-1.61,3.12-3.26,4.55-5.03
				c1.75-2.16,3.37-4.48,4.93-6.71c0.67-0.97,1.35-1.93,2.04-2.89l1.07-1.49l25.81,11.7l-7.06,5.19c-2.73-2.03-5.55-3.02-8.6-3.02
				c-1.53,0-3.13,0.26-4.78,0.76c-4.46,1.38-9.1,2.52-13.58,3.63c-1.74,0.43-3.48,0.86-5.21,1.3c-0.77,0.2-1.55,0.34-2.56,0.53
				L202.66,173.47z"/>
			<path class="st1" d="M223.03,315.99c5.16-5.28,7.72-12.23,7.61-20.64c-0.06-4.03-0.6-8.1-1.13-12.03
				c-0.23-1.71-0.46-3.42-0.65-5.12c-0.07-0.64-0.17-1.28-0.3-2.09c0,0,0.01,0.01,0.01,0.01c0.94,0.71,1.69,1.26,2.29,1.91
				l0.35,0.38c3.03,3.26,6.16,6.63,9.01,10.13c1.93,2.38,2.38,5.22,1.28,8.22c-2.27,6.18-5.48,11.02-9.81,14.81
				C229.34,313.63,226.55,315.06,223.03,315.99z"/>
			<path class="st1" d="M271.42,270.61c-9.94-14.49-13.67-29.25-11.35-44.94c0.81,2.62,1.36,5.32,1.9,7.96
				c0.4,1.97,0.81,3.94,1.31,5.88c0.76,2.94,1.59,5.88,2.42,8.8c0.77,2.72,1.54,5.45,2.25,8.19c0.33,1.25,0.68,2.5,1.03,3.76
				C269.92,263.63,270.88,267.09,271.42,270.61z"/>
			<path class="st1" d="M130.07,500.33c-22.73-61.17-13.73-93.33,2.24-150.42l1.63-5.83c0.79,29.74-1.56,56.6-4.05,81.59
				C126.84,451.19,128,471.42,130.07,500.33z"/>
			<path class="st1" d="M135.38,540.43c0.14-14.79-0.63-29.72-1.38-44.18c-0.79-15.44-1.62-31.41-1.33-47.16
				c1.37-18.68,2.79-37.41,4.22-56.1c0.92-12.11,1.84-24.2,2.74-36.26c2.39,10.44,5.33,20.88,8.19,31.04
				c6.62,23.5,13.46,47.81,13.61,72.5C160.43,485.94,156.52,518.11,135.38,540.43z"/>
			<path class="st1" d="M155.05,694.57c-35.93-38.6-41.88-112.86-12.65-153.83c-4.2,23.62-2.77,47.66-1.38,70.94
				c0.59,9.96,1.2,20.26,1.37,30.39l0.03,0.46c0.83,14.66,1.69,29.82,8.3,43.23l1.56-0.62c-11.86-37.9-2.18-76.83,7.48-114.54
				c6.43,32.96,7.05,47.43-5.94,79.77c-4.14,9.86-2.37,19.49-0.67,28.79C154.06,684.18,155.01,689.34,155.05,694.57z"/>
			<path class="st1" d="M173.22,466.45c-4.4-19.58-9.76-39.14-14.94-58.09c-4.63-16.92-9.41-34.39-13.49-51.81
				c0.98,1.13,1.96,2.27,2.94,3.42c8.61,10.06,17.51,20.46,29.9,26.86c4.99,1.72,7.2,5.67,6.32,11.18
				C182.34,424.44,178.83,446.85,173.22,466.45z"/>
			<path class="st1" d="M118.52,747.92c-0.99,0-2.01-0.1-3.02-0.29c-0.76-0.22-1.95-0.48-3.32-0.77c-4.38-0.94-11-2.35-12.72-5.08
				c-0.38-0.61-0.48-1.25-0.31-1.97c3.84-6.89,10.05-11.81,16.62-17.03c5.64-4.48,11.47-9.11,15.67-15.22
				c3.05-5.45,3.63-11.85,4.19-18.03c0.32-3.54,0.65-7.2,1.45-10.58c1.74,4.51,5.2,8.04,8.56,11.46c4.39,4.47,8.53,8.7,8.74,14.76
				c-0.24,2.01-0.32,4.42-0.41,6.97c-0.3,8.97-0.64,19.14-8.43,22.53c-4.33,1.26-8.1,3.94-11.75,6.53
				C128.95,744.67,124.37,747.92,118.52,747.92L118.52,747.92z"/>
			<path class="st1" d="M93.42,296.11c-0.1-0.93-0.18-1.8-0.21-2.66c-0.05-1.32-0.06-2.65-0.08-3.97c-0.03-2.14-0.05-4.28-0.21-6.41
				c-0.33-4.43-0.96-9.53-4.12-13.86c-2.87-3.94-4.31-8.61-4.39-14.28c-0.12-8.48,2.14-16.43,6.93-24.29
				c3.35-5.5,7.94-9.4,13.64-11.59l1.96-0.77c1.8-0.72,3.66-1.45,5.52-2.02c2.3-0.7,4.51-1.17,6.57-1.38
				c0.23-0.03,0.45-0.04,0.64-0.04c0.91,0,1.44,0.1,1.56,2.07c0.11,1.68,0.18,3.47-0.03,5.2
				C117.78,251.16,108.68,275.39,93.42,296.11z"/>
			<path class="st2" d="M97.05,214.27c-0.05-4.59-0.09-8.92,0.1-13.27c0.32-7.78,3.56-15.18,9.88-22.62
				c5.83-6.86,13.89-9.15,21.74-10.6c1.37-0.25,2.6-0.38,3.78-0.38c3.67,0,6.7,1.23,9.51,3.87c2.41,2.26,2.82,3.72,1.82,6.5
				c-2.91,8.1-7.25,15.67-11.44,23l-1.23,2.15c-2.09,3.67-5.28,5.93-9.73,6.89c-8.01,1.73-16.49,4.06-24.39,9.26
				C97.08,217.45,97.06,215.85,97.05,214.27z"/>
			<path class="st1" d="M190.81,383.7c-2.99-0.53-4.77-1.3-6.75-2.88c-4.2-3.35-7.35-8.05-9.6-14.37
				c-4.34-12.18-7.55-22.51-9.12-33.33c-0.55-3.83-0.65-7.68-0.68-10.94c-0.01-1.38,0.27-2.34,0.85-2.92
				c0.55-0.56,1.45-0.83,2.74-0.83c0.2,0,0.41,0.01,0.63,0.02c0.49,0.03,0.94,0.05,1.34,0.16c3.88,1.09,15.44,4.35,15.44,4.35
				c1.97,0.56,3.06,1.85,3.33,3.95c0.13,1.02,0.29,2.05,0.45,3.07c0.34,2.2,0.7,4.48,0.75,6.7c0.28,11.95,0.45,23.9,0.62,35.85
				l0.13,9.3c0.01,0.55-0.05,1.1-0.12,1.71L190.81,383.7z"/>
			<path class="st2" d="M138.91,291.78c-0.91-1.17-1.19-2.52-1.36-3.84c-0.67-5.38-1.26-10.77-1.85-16.15l-0.53-4.78
				c-1.49-13.43-0.41-26.9,0.73-38.47c0.07-0.73,0.29-1.46,0.53-2.32c0.05-0.17,0.1-0.35,0.15-0.53l4.54,1.66l5.91,2.22
				c4.36,1.65,8.73,3.3,13.12,4.85c2.92,1.03,3.22,1.25,2.61,4.29c-0.56,2.8-1.15,5.6-1.74,8.4c-1.02,4.83-2.04,9.66-2.91,14.52
				c-0.78,4.29-2.74,8.11-6,11.68c-1.26,1.38-2.57,2.72-3.88,4.06l-1.68,1.73c-3.52,3.64-5.88,7.44-7.22,11.62
				C139.22,291.07,139.08,291.41,138.91,291.78z"/>
			<path class="st1" d="M76.13,378.57c-0.04-1.62-0.07-3.02,0.07-4.42l0.17-1.8c0.47-5.02,0.96-10.22,1.73-15.26
				c2.81-18.33,8.77-35.45,14.78-51.21c2.34-6.13,5.74-11.9,10.13-17.15l1.13-1.36c1.74-2.09,3.48-4.19,5.28-6.24
				c0.5-0.58,1.08-1.08,1.81-1.72c0.13-0.12,0.27-0.24,0.41-0.36c0.07,0.18,0.14,0.34,0.21,0.51c0.36,0.86,0.65,1.54,0.76,2.2
				c0.6,3.6,0.2,6.82-1.2,9.57c-2.25,4.42-3.48,9.12-4.64,13.94c-0.91,3.77-2.08,7.46-3.12,10.56c-6.61,19.88-15.88,39-24.85,57.5
				l-2.65,5.48C76.14,378.73,76.14,378.65,76.13,378.57z"/>
			<path class="st1" d="M174.54,376.03c-1-0.62-2.02-1.22-3.03-1.82c-2.52-1.49-5.14-3.03-7.44-4.83
				c-7.41-5.81-12.8-13.68-18.02-21.29c-6.43-9.38-8.98-18.5-7.85-27.94c0.03-0.28,0.05-0.55,0.06-0.83
				c0.01-0.24,0.02-0.47,0.05-0.7c0.5-4.26,1.32-9.81,3.19-15.66c4.19,7.47,9.12,12.7,15.22,16.05c1.7,0.93,2.54,2.52,2.92,5.48
				l0.08,0.59c0.76,6.05,1.55,12.3,2.79,18.38c2.16,10.59,6.6,20.55,10.9,30.17C173.8,374.51,174.14,375.21,174.54,376.03z"/>
			<path class="st1" d="M56.46,363.84c5.08-10.63,8.2-19.52,9.83-27.98c1.12-5.81,1.92-11.78,2.69-17.55
				c0.32-2.37,0.63-4.74,0.97-7.1c1.81-12.65,6.21-23.95,13.09-33.58c0.57-0.8,1.29-1.55,2.13-2.41c0.23-0.23,0.46-0.48,0.71-0.73
				c0.18,0.26,0.36,0.5,0.53,0.73c0.67,0.91,1.2,1.62,1.4,2.37l0.17,0.63c0.71,2.56,1.44,5.21,1.34,7.71
				c-0.26,6.54-0.82,11.82-1.76,16.61c-4.12,21.06-14.08,40.9-30.45,60.64c-0.22,0.27-0.46,0.51-0.71,0.76
				C56.43,363.9,56.45,363.87,56.46,363.84z"/>
			<path class="st1" d="M146.06,610.42c-0.21-3.74-0.46-7.52-0.72-11.35c-1.81-26.77-3.68-54.44,9.75-77.19
				c7.27,22.87,1.37,46.19-4.34,68.76C149.11,597.13,147.42,603.82,146.06,610.42z"/>
			<path class="st1" d="M188.07,318.65c-0.52,0-1.14-0.09-1.91-0.28c-2.28-0.57-4.56-1.17-6.83-1.77c-2.78-0.73-5.55-1.46-8.34-2.14
				c-2.19-0.53-3.76-1.78-4.95-3.93c-2.24-4.07-3.76-8.71-4.65-14.17c-0.39-2.37,0.33-3.85,2.49-5.1
				c5.87-3.39,12.16-5.04,19.24-5.04c0.52,0,1.04,0.01,1.56,0.03c4.45,0.15,5.11,0.76,5.42,5.03c0.2,2.87,0.15,5.81,0.11,8.67
				c-0.02,1.3-0.05,2.59-0.05,3.88v0.84h0.07l0.01,2.69c0.02,2.64,0.03,5.28-0.04,7.91C190.13,318.39,189.15,318.65,188.07,318.65
				L188.07,318.65z"/>
			<path class="st1" d="M163.23,551.54c0.4-7.84-0.73-15.58-1.83-23.1c-0.78-5.37-1.59-10.92-1.81-16.35
				c4.13-14.73,5.81-30.31,7.44-45.39c0.11-1.02,0.22-2.05,0.33-3.07C174.93,494.78,173.57,523.62,163.23,551.54z"/>
			<path class="st1" d="M161.11,286.07c0.23-4.85,0.9-9.81,2.04-15.12c0.13-0.6,0.62-1.34,1.41-2.12
				c5.68-5.65,12.76-8.51,21.06-8.51l0.5,0c3.56,0.05,4.11,0.61,4.19,4.29c0.1,4.45,0.04,8.98-0.02,13.36l-0.02,1.17
				c-0.01,0.46-0.14,0.97-0.3,1.56c-0.03,0.12-0.06,0.24-0.1,0.37c-1.39,0.05-2.77,0.07-4.14,0.09c-3.53,0.05-7.18,0.1-10.68,0.71
				c-3.45,0.6-6.75,1.75-10.25,2.96C163.59,285.24,162.37,285.66,161.11,286.07z"/>
			<path class="st1" d="M164.01,258.02c1.29-5.67,2.58-11.33,3.95-16.99c0.55-2.27,2.03-3.95,4.41-4.98
				c1.38-0.6,2.77-1.19,4.16-1.78c1.79-0.75,3.58-1.51,5.35-2.3c0.53-0.24,0.98-0.35,1.39-0.35c0.51,0,1.22,0.16,2.16,1.44
				c3.14,4.23,5.91,8.95,4.96,14.85c-0.11,0.69-0.08,1.4-0.05,2.11c0.02,0.36,0.03,0.72,0.02,1.07c-0.07,3.19-0.2,3.34-3.42,3.82
				c-0.29,0.04-0.59,0.07-0.89,0.09l-0.6,0.05c-7.44,0.81-13.98,2.76-20,5.98c-0.65,0.35-1.32,0.66-2.05,1.01l-0.22,0.11
				L164.01,258.02z"/>
			<path class="st1" d="M189.12,170.72c-2.53-0.75-4.08-1.56-5.79-3.56c-3.02-3.52-6.96-8.18-10.66-12.99
				c-4.24-5.52-2.58-11.63-0.97-17.54c0,0.01,0,0.02,0.01,0.02c0.03,0,0.15-0.09,0.25-0.17c0.06-0.05,0.13-0.11,0.2-0.16l1.11,0.49
				c1.36,0.6,2.76,1.21,4.18,1.8c2.74,1.13,4.56,2.95,5.57,5.57c0.5,1.29,1.02,2.57,1.54,3.84c1,2.45,2.04,4.99,2.85,7.53
				C189.05,160.68,189.61,165.65,189.12,170.72z"/>
			<path class="st2" d="M183.01,173.46c-1.01-0.19-1.8-0.33-2.57-0.53c-1.73-0.44-3.47-0.87-5.21-1.3
				c-4.48-1.11-9.11-2.25-13.58-3.63c-1.65-0.51-3.26-0.76-4.78-0.76c-3.05,0-5.87,0.99-8.6,3.02l-7.05-5.19l25.81-11.7l1.07,1.49
				c0.69,0.96,1.36,1.92,2.04,2.89c1.56,2.24,3.18,4.55,4.93,6.71c1.43,1.77,3.03,3.43,4.57,5.04c0.91,0.95,1.82,1.9,2.7,2.88
				c0.23,0.26,0.43,0.6,0.69,1.08L183.01,173.46z"/>
			<path class="st1" d="M162.64,315.98c-3.52-0.93-6.3-2.35-8.68-4.43c-4.33-3.79-7.54-8.63-9.8-14.81c-1.1-3-0.65-5.84,1.28-8.22
				c2.85-3.5,5.98-6.87,9.01-10.13l0.35-0.38c0.6-0.65,1.35-1.21,2.29-1.91c0,0,0.01-0.01,0.01-0.01c-0.13,0.81-0.23,1.45-0.3,2.09
				c-0.19,1.71-0.42,3.41-0.65,5.11c-0.53,3.94-1.07,8.01-1.12,12.05C154.93,303.74,157.48,310.69,162.64,315.98z"/>
			<path class="st1" d="M114.26,270.6c0.54-3.52,1.5-6.98,2.45-10.35c0.35-1.25,0.7-2.49,1.02-3.75c0.72-2.74,1.48-5.46,2.25-8.19
				c0.83-2.93,1.65-5.86,2.42-8.8c0.51-1.95,0.91-3.93,1.32-5.91c0.54-2.63,1.09-5.33,1.9-7.94
				C127.93,241.36,124.21,256.12,114.26,270.6z"/>
			<path class="st1" d="M192.84,137.84c-1.63-0.09-3.22-0.34-4.72-0.77c-4.46-1.27-8.3-2.64-11.74-4.21
				c-8.09-3.68-8.09-3.68-8.81-12.75c-0.14-1.89-0.34-3.78-0.54-5.7l-0.35-3.41l-0.74-0.03c-2.8-0.09-4.72-0.58-5.65-2.73
				c-1.31-3.04-2.61-6.09-3.9-9.14c-0.66-1.56-0.28-2.88,1.19-4.17c0.54-0.47,1.11-0.92,1.72-1.28c3.08-1.83,4.39-4.37,4.01-7.76
				c-0.13-1.2-0.02-2.44,0.11-3.74c0.05-0.49,0.09-0.97,0.12-1.46c0.46-6.82,2.59-12.62,6.33-17.23
				c6.06-7.48,13.49-11.27,22.09-11.27l0.83,0.01l0.87-0.01c8.59,0,16.02,3.79,22.08,11.27c3.74,4.61,5.87,10.41,6.33,17.23
				c0.03,0.49,0.08,0.98,0.12,1.47c0.12,1.31,0.24,2.54,0.11,3.74c-0.38,3.39,0.93,5.93,4.01,7.76c0.61,0.36,1.18,0.81,1.72,1.28
				c1.48,1.29,1.86,2.61,1.2,4.17c-1.29,3.05-2.59,6.1-3.9,9.14c-0.92,2.15-2.84,2.64-5.65,2.73l-0.74,0.03l-0.34,3.4
				c-0.2,1.92-0.4,3.81-0.54,5.71c-0.71,9.07-0.71,9.07-8.8,12.75c-3.44,1.57-7.29,2.94-11.75,4.21
				C196.06,137.5,194.47,137.76,192.84,137.84z"/>
			<path class="st1" d="M192.84,162.44c-0.72-5.26-2.43-14.85-5.79-20.24c1.43-0.17,3.19-0.27,5.04-0.27h1.51
				c1.84,0,3.6,0.1,5.03,0.27C195.27,147.59,193.56,157.18,192.84,162.44z"/>
			<path class="st1" d="M188.48,177.69h8.72c-0.75,1.38-3.66,6.65-4.36,7.93C192.15,184.36,189.24,179.09,188.48,177.69z"/>
			<path class="st1" d="M192.84,233.91c-2.11-2.35-4.2-4.79-5.46-7.53c-0.09-0.19-0.04-0.75,0.13-1.02l0.81-1.33
				c1.27-2.1,2.58-4.27,4.52-5.98c1.94,1.71,3.25,3.88,4.52,5.99l0.81,1.32c0.16,0.27,0.21,0.83,0.12,1.02
				C197.04,229.11,194.95,231.56,192.84,233.91z"/>
			<path class="st1" d="M42.28,436.25c-0.27,0-0.44-0.06-0.52-0.18c-0.07-0.11-0.38-0.74,0.49-2.74c0.79-1.84,1.74-3.52,2.75-5.3
				c0.62-1.1,1.24-2.21,1.83-3.34c0.88-1.73,1.85-3.39,2.82-5.05c0.81-1.39,1.62-2.79,2.39-4.22c0.77-1.31,0.96-2.6,0.48-3.44
				c-0.28-0.49-0.76-0.77-1.31-0.77c-0.89,0-1.81,0.74-2.59,2.07c-1.8,3.34-3.79,6.85-5.78,10.33c-1.51,2.65-3.01,5.28-4.39,7.8
				c-1.35,2.84-3.18,4.09-4.41,4.09c-0.47,0-0.8-0.18-1.01-0.52c-0.46-0.79-0.17-2.25,0.76-3.9c2.08-3.87,4.23-7.61,6.39-11.34
				c2.13-3.69,4.26-7.38,6.31-11.18c0.85-1.23,1.14-2.7,0.68-3.57c-0.23-0.44-0.66-0.71-1.13-0.71c-0.79,0-1.54,0.7-2.25,2.07
				c-1.62,2.69-3.3,5.31-4.98,7.92c-1.74,2.72-3.48,5.43-5.19,8.28c-1.51,2.51-3.19,3.65-4.12,3.65c-0.3,0-0.4-0.12-0.47-0.24
				c-0.29-0.53-0.24-2.25,1.78-5.33c1.96-3.46,3.92-6.85,5.88-10.25c1.62-2.8,3.23-5.6,4.83-8.4c0.33-0.58,0.52-1.21,0.69-1.77
				c0.07-0.23,0.13-0.45,0.21-0.66l0.2-0.57l-0.48-0.37c-1.23-0.96-2.5-1.42-3.88-1.42c-0.67,0-1.37,0.11-2.14,0.33
				c-2.12,0.6-4.42,1.12-7.01,1.57c-0.49,0.09-1.01,0.14-1.52,0.14c-0.55,0-1.05-0.06-1.48-0.18c-2.39-0.67-2.75-1.73-2.81-2.47
				c-0.05-0.62,0.15-0.8,1.37-1.2c0.4-0.13,0.8-0.27,1.14-0.45c0.42-0.22,0.87-0.4,1.32-0.57c0.64-0.26,1.28-0.51,1.86-0.87
				c1.23-0.75,2.64-1.65,3.78-2.8c2.17-2.19,4.31-4.4,6.46-6.62c2.56-2.65,5.12-5.29,7.73-7.89c1.39-1.38,2.63-2.21,3.71-2.47
				c5.13-1.23,8.06-4.9,10.62-8.54l13.86-19.77c0.3-0.43,0.62-0.85,0.94-1.26c-2.4,10.24-3.27,20.81-4.11,31.04l-0.11,1.28
				c-0.46,5.5,0.18,10.29,1.94,14.67c1.12,2.77,1.05,5.71-0.2,8.28c-1.55,3.2-3.51,6.29-5.55,9.44c-1.26,1.94-2.6,3.83-3.94,5.72
				c-1.08,1.53-2.17,3.06-3.21,4.62c-1.05,1.57-2.05,3.17-3.06,4.77c-0.9,1.43-1.79,2.85-2.72,4.26c-0.56,0.84-0.98,1.17-1.5,1.17
				l0,0c-0.17,0-0.36-0.04-0.56-0.11c0.19-0.39,0.4-0.78,0.61-1.17c0.25-0.46,0.49-0.91,0.71-1.37c0.54-1.16,1.12-2.28,1.7-3.41
				c0.46-0.89,0.92-1.79,1.36-2.7c0.74-1.42,0.9-2.69,0.43-3.46c-0.25-0.41-0.66-0.64-1.12-0.64c-0.87,0-1.7,0.78-2.41,2.27
				c-1.31,2.66-3.36,6.22-5.34,9.66c-1.13,1.95-2.2,3.82-3.05,5.38C45.24,435.17,43.37,436.25,42.28,436.25z"/>
			<path class="st3" d="M267.44,753.92c-6.15,0-11.73-1.96-16.65-5.85c-4.78-3.78-9.02-6.63-14.13-8.3
				c-4.08-1.33-6.73-4.34-8.09-9.2c-2.27-8.13-3.43-15.61-3.54-22.86c-0.03-2.04-0.37-4.06-0.74-6.19c-0.18-1.05-0.36-2.11-0.5-3.17
				l-0.1-0.67c-0.14-0.86-0.28-1.74-0.13-2.65c0.2-1.23,0.4-2.47,0.59-3.71c0.63-4.02,1.29-8.17,2.33-12.17
				c2.19-8.39,2.33-15.91,0.45-22.99c-1.83-6.87-4.07-13.5-6.22-19.65c-3.39-9.72-7.11-22.65-5.68-36.49
				c0.46-4.45,1.33-8.91,2.17-13.23l0.45-2.35c1.01-5.28,1.67-10.87,2.13-18.12c0.2-3.16-0.35-5.98-1.91-9.72
				c-6.29-15.13-9.81-31.68-10.45-49.2c-0.38-10.61,0.05-20.06,1.33-28.88c0.28-1.94,0.52-3.57-0.85-4.9
				c-0.67-0.65-0.9-1.64-1.09-2.43c-4.12-17.56-7.91-34.65-9.5-52.28c-0.58-6.36-1.16-12.8-1.4-19.15
				c-0.09-2.41,0.15-4.77,0.41-7.27c0.08-0.77,0.16-1.55,0.23-2.34h-7.43c0.07,0.8,0.15,1.58,0.23,2.36c0.26,2.49,0.5,4.84,0.4,7.25
				c-0.24,6.3-0.81,12.68-1.37,18.85l-0.03,0.3c-1.59,17.67-5.38,34.74-9.47,52.13c-0.21,0.92-0.45,1.92-1.13,2.58
				c-1.36,1.33-1.13,2.95-0.86,4.83c1.29,8.89,1.72,18.33,1.34,28.94c-0.64,17.51-4.16,34.06-10.45,49.2
				c-1.56,3.74-2.11,6.56-1.91,9.72c0.47,7.28,1.13,12.87,2.13,18.12l0.47,2.45c0.83,4.28,1.69,8.71,2.15,13.12
				c1.43,13.83-2.28,26.77-5.68,36.49c-2.03,5.83-4.37,12.73-6.21,19.65c-1.89,7.08-1.75,14.61,0.44,22.99
				c1.04,4,1.7,8.15,2.33,12.17c0.19,1.24,0.39,2.47,0.59,3.71c0.15,0.91,0.01,1.8-0.13,2.66l-0.1,0.67
				c-0.14,1.05-0.32,2.1-0.5,3.15c-0.37,2.14-0.71,4.16-0.74,6.21c-0.11,7.25-1.27,14.73-3.54,22.86c-1.36,4.86-4,7.88-8.09,9.2
				c-5.12,1.67-9.35,4.53-14.13,8.3c-5.94,4.69-12.84,6.58-20.53,5.6c-6.6-0.84-12.64-3.43-17.68-5.87
				c-3.56-1.72-4.97-5.29-3.66-9.32c0.34-1.06,0.86-2.03,1.36-2.97l0.16-0.3c2.7-5.09,6.94-9.51,12.96-13.5
				c6.2-4.11,11.02-8.48,14.72-13.36c0.4-0.53,0.87-1.01,1.33-1.48c0.53-0.54,1.03-1.05,1.4-1.62l0.51-0.77
				c0.9-1.36,1.84-2.78,2.12-4.18c0.71-3.6,1.24-7.32,1.76-10.91c0.27-1.9,0.54-3.8,0.84-5.69c0.1-0.62,0.18-1.26,0.27-1.89
				c0.27-2.07,0.55-4.21,1.37-6.16c0.64-1.53,0.45-2.46-0.18-3.84l-0.63-1.38c-1.18-2.55-2.39-5.18-3.23-7.92
				c-7.33-23.83-10.39-45.8-9.34-67.17c0.79-16.19,4.01-30.28,9.85-43.07c0.58-1.28,0.92-2.73,0.92-3.99
				c0.05-7.47-0.01-15.06-0.07-22.4l-0.02-2.13c-0.06-7.54-1.12-14.6-3.26-21.58c-4.68-15.29-8.22-28.1-11.15-40.3
				c-3.28-13.63-4.28-24.98-3.15-35.69c0.51-4.83,1.1-9.65,1.7-14.47c0.24-1.91,0.46-3.82,0.68-5.73c0.55-4.75,1.11-9.66,1.94-14.45
				c2.44-14.06,6.61-27.9,10.64-41.28l0.88-2.93c0.75-2.5,1.72-5.41,3.2-8.01c1.86-3.25,2.31-6.06,1.46-9.12
				c-0.32-1.12-0.32-2.28-0.32-3.4l0-0.67c-0.1-8.23,1.19-16.48,3.93-25.2c0.52-1.65,0.39-2.48-0.52-3.55
				c-2.24-2.61-3.55-5.86-3.91-9.65c-0.86-9.02-1.68-18.04-2.5-27.07l-0.23-2.58c-3.07,6.48-6.11,12.63-10.03,18.48
				c-0.26,0.38-0.27,1.43-0.03,2.38c1.25,4.91,0.74,9.86-1.6,15.58c-1.26,3.09-2.26,6.38-3.23,9.56l-0.6,1.95
				c-0.33,1.05-0.58,2.12-0.83,3.19c-0.33,1.4-0.67,2.85-1.17,4.25c-5.67,15.76-12.1,33.62-20.78,50.4
				c-2.28,4.39-4.4,8.97-6.46,13.39c-1.24,2.68-2.49,5.36-3.78,8.02c-0.78,1.62-0.94,3.03-0.51,4.46
				c2.05,6.75,0.65,13.15-4.28,19.55l-0.35,0.46c-3.77,4.88-7.66,9.93-10.38,15.59c-0.42,0.86-0.94,1.63-1.45,2.38
				c-0.22,0.32-0.43,0.64-0.64,0.97c-2.09,3.3-4.92,7.8-10.57,7.38l-0.62,1.08c-3.02,5.07-6.62,6.46-12.39,4.8
				c-0.5-0.15-1.2-0.16-2.07-0.02c-2.95,0.48-5.62-0.12-7.48-1.71c-1.82-1.55-2.77-3.88-2.75-6.73c0.01-1.33-0.15-2.17-1.04-3.03
				c-2.41-2.3-3.03-5.48-1.82-9.2c0.44-1.35,1.18-2.58,1.9-3.76c0.23-0.38,0.46-0.76,0.68-1.14c1.77-3.12,3.56-6.22,5.48-9.56
				l1.22-2.13c0,0,0,0-0.01,0c-1.16,0.2-2.11,0.36-3.04,0.59c-2.42,0.62-4.9,0.29-7.37-0.98c-3.73-1.92-5.55-4.52-5.56-7.97
				c-0.02-4.13,3.09-5.81,5.79-6.8c0.18-0.07,0.36-0.15,0.53-0.24c0.3-0.15,0.61-0.29,0.93-0.38c2.37-0.73,4.01-2.49,5.6-4.19
				c4.98-5.36,9.54-9.89,13.93-13.84c2.18-1.96,4.04-3.64,5.43-6.32c6.35-12.24,10.6-24.92,12.65-37.69
				c0.5-3.13,0.89-6.36,1.26-9.47c0.51-4.26,1.03-8.66,1.87-12.94c2.64-13.49,8.07-24.84,16.59-34.7c-0.2-0.54-0.4-1.07-0.6-1.6
				c-0.6-1.59-1.22-3.23-1.63-4.91c-0.57-2.33-1.18-5.05-1.19-7.78c-0.02-11.83,3.53-22.48,10.56-31.65
				c1.19-1.55,1.68-2.89,1.69-4.61l0.01-1.71C90.44,212.3,90.48,207,91,201.8c0.51-4.98,1.07-9.42,2.92-13.33
				c6.86-14.48,17.6-23.14,31.94-25.72c5.13-0.92,10.95-1.97,16.09-4.77c0.85-0.46,1.74-0.83,2.64-1.19
				c0.55-0.22,1.09-0.44,1.62-0.69c4.66-2.15,9.31-4.31,13.85-6.42l3.46-1.61l1.92-14.36c-3.01-3.82-3.6-5.59-3.89-11.12l-0.04-1.03
				c-0.04-1.19-0.08-2.32-0.32-3.39c-0.15-0.69-0.62-1.47-1.02-1.68c-3.12-1.66-4.72-4.43-6.2-7.37c-0.99-1.97-1.84-4.04-2.66-6.04
				l-0.28-0.7c-2.38-5.79-1.15-9.67,4.1-12.96c1.81-1.13,2.39-2.25,2.32-4.42c-0.3-8.37,1.53-15.73,5.6-22.5
				c6.04-10.05,17.44-16.34,29.77-16.42c12.34,0.07,23.74,6.36,29.78,16.42c4.07,6.78,5.9,14.14,5.59,22.5
				c-0.08,2.17,0.51,3.28,2.32,4.42c5.25,3.29,6.48,7.17,4.1,12.96l-0.25,0.62c-0.83,2.03-1.68,4.12-2.7,6.12
				c-1.48,2.94-3.07,5.71-6.2,7.37c-0.39,0.21-0.87,1-1.02,1.68c-0.23,1.07-0.27,2.2-0.32,3.39l-0.04,1.03
				c-0.28,5.54-0.88,7.31-3.89,11.12l1.93,14.36l3.15,1.46c4.64,2.16,9.4,4.37,14.17,6.57c0.53,0.25,1.07,0.47,1.61,0.69
				c0.9,0.37,1.8,0.73,2.65,1.2c5.13,2.79,10.95,3.84,16.09,4.77c14.34,2.58,25.09,11.24,31.95,25.72
				c1.85,3.91,2.42,8.35,2.92,13.33c0.53,5.18,0.56,10.46,0.59,15.58l0.01,1.76c0.01,1.72,0.5,3.05,1.7,4.61
				c7.02,9.17,10.58,19.82,10.56,31.66c0,2.73-0.62,5.45-1.19,7.78c-0.41,1.67-1.02,3.3-1.62,4.88c-0.2,0.54-0.41,1.08-0.6,1.62
				c8.52,9.86,13.94,21.22,16.59,34.7c0.84,4.29,1.36,8.69,1.87,12.96c0.37,3.11,0.75,6.33,1.26,9.46
				c2.05,12.77,6.3,25.45,12.65,37.69c1.38,2.67,3.25,4.35,5.41,6.29c4.43,4,8.99,8.52,13.96,13.87c1.89,2.03,3.39,3.52,5.6,4.19
				c0.32,0.1,0.62,0.24,0.93,0.38c0.18,0.08,0.35,0.17,0.53,0.24l0,0c2.71,0.99,5.81,2.67,5.8,6.8c-0.01,3.45-1.83,6.06-5.56,7.97
				c-2.47,1.27-4.95,1.59-7.37,0.98c-0.93-0.23-1.88-0.4-3.03-0.59c0,0-0.01,0-0.01,0l1.53,2.67c1.81,3.13,3.5,6.07,5.18,9.02
				c0.22,0.38,0.45,0.76,0.68,1.14c0.72,1.18,1.45,2.41,1.9,3.76c1.22,3.73,0.59,6.91-1.81,9.21c-0.9,0.86-1.06,1.69-1.05,3.02
				c0.02,2.85-0.93,5.18-2.75,6.73c-1.87,1.59-4.54,2.19-7.49,1.71c-0.85-0.14-1.55-0.14-2.06,0.01c-5.77,1.66-9.37,0.28-12.39-4.8
				l-0.62-1.07c-5.6,0.42-8.48-4.08-10.57-7.38c-0.21-0.32-0.42-0.64-0.64-0.96c-0.51-0.75-1.03-1.53-1.45-2.39
				c-2.72-5.64-6.6-10.69-10.36-15.57l-0.37-0.48c-4.93-6.4-6.33-12.8-4.27-19.55c0.43-1.43,0.27-2.85-0.51-4.46
				c-1.3-2.68-2.55-5.39-3.81-8.09c-2.04-4.4-4.16-8.95-6.42-13.32c-8.06-15.56-13.93-31.36-20.78-50.4
				c-0.51-1.4-0.85-2.85-1.18-4.26c-0.25-1.07-0.5-2.13-0.82-3.18l-0.6-1.95c-0.97-3.18-1.97-6.47-3.23-9.56
				c-2.34-5.72-2.85-10.67-1.6-15.58c0.24-0.95,0.23-1.99-0.02-2.38c-3.92-5.85-6.96-12-10.03-18.48l-0.48,5.21
				c-0.74,8.14-1.49,16.29-2.26,24.43c-0.36,3.79-1.68,7.03-3.91,9.65c-0.92,1.07-1.04,1.9-0.52,3.55
				c2.74,8.73,4.03,16.98,3.93,25.2l0,0.65c0,1.12,0,2.28-0.32,3.41c-0.85,3.06-0.4,5.87,1.45,9.12c1.5,2.62,2.46,5.52,3.21,8.01
				l0.88,2.93c4.03,13.38,8.2,27.23,10.64,41.28c0.84,4.83,1.41,9.77,1.96,14.55c0.22,1.88,0.43,3.76,0.66,5.63
				c0.6,4.82,1.19,9.64,1.7,14.47c1.13,10.71,0.13,22.05-3.14,35.69c-2.94,12.22-6.48,25.02-11.15,40.3
				c-2.13,6.98-3.2,14.03-3.26,21.58l-0.02,3.01c-0.06,7.17-0.11,14.35-0.07,21.53c0.01,1.26,0.35,2.72,0.93,3.99
				c5.84,12.8,9.06,26.88,9.85,43.07c1.05,21.36-2.01,43.33-9.34,67.17c-0.84,2.73-2.06,5.37-3.23,7.91l-0.64,1.39
				c-0.62,1.38-0.81,2.31-0.17,3.84c0.81,1.95,1.1,4.1,1.37,6.17c0.08,0.63,0.17,1.26,0.27,1.88c0.3,1.9,0.57,3.81,0.85,5.72
				c0.51,3.58,1.04,7.29,1.75,10.88c0.28,1.41,1.21,2.82,2.12,4.18l0.51,0.77c0.36,0.57,0.87,1.08,1.4,1.62
				c0.47,0.48,0.93,0.96,1.33,1.48c3.7,4.88,8.52,9.24,14.72,13.36c6.02,3.99,10.26,8.41,12.96,13.5l0.17,0.33
				c0.5,0.93,1.01,1.89,1.35,2.94c1.31,4.03-0.09,7.6-3.66,9.32c-5.04,2.43-11.08,5.03-17.68,5.87
				C270,753.84,268.71,753.92,267.44,753.92z M187.01,388.19h11.67l-0.08,1.06c-0.09,1.17-0.21,2.32-0.32,3.45
				c-0.25,2.43-0.48,4.72-0.4,6.99c0.24,6.31,0.82,12.72,1.38,18.93c1.58,17.63,5.37,34.65,9.43,51.99
				c0.16,0.66,0.32,1.37,0.58,1.62c2.09,2.03,1.74,4.43,1.43,6.54c-1.27,8.75-1.7,18.08-1.31,28.58c0.63,17.28,4.1,33.61,10.3,48.52
				c1.17,2.81,2.33,6.27,2.05,10.59c-0.46,7.23-1.15,13.07-2.16,18.36l-0.45,2.35c-0.83,4.27-1.69,8.69-2.14,13.05
				c-1.39,13.45,2.25,26.12,5.57,35.64c2.16,6.18,4.41,12.86,6.26,19.79c1.98,7.42,1.83,15.27-0.44,23.99
				c-1.02,3.91-1.67,8.01-2.29,11.98c-0.2,1.24-0.39,2.49-0.6,3.73c-0.1,0.59,0.02,1.28,0.13,2.01l0.11,0.73
				c0.14,1.03,0.31,2.07,0.49,3.1c0.36,2.11,0.73,4.3,0.77,6.49c0.1,7.08,1.24,14.4,3.47,22.36c1.19,4.24,3.35,6.75,6.81,7.87
				c5.71,1.86,10.46,5.25,14.74,8.63c5.51,4.35,11.92,6.08,19.07,5.19c6.31-0.8,12.17-3.32,17.07-5.69c2.69-1.3,3.65-3.83,2.64-6.94
				c-0.29-0.88-0.74-1.73-1.22-2.62l-0.18-0.33c-2.54-4.79-6.57-8.98-12.31-12.79c-6.39-4.24-11.36-8.76-15.2-13.81
				c-0.35-0.46-0.76-0.88-1.17-1.3c-0.58-0.59-1.17-1.19-1.64-1.93l-0.49-0.75c-1.01-1.52-2.05-3.1-2.41-4.88
				c-0.72-3.65-1.25-7.38-1.77-10.99c-0.27-1.9-0.54-3.79-0.84-5.69c-0.1-0.64-0.18-1.28-0.27-1.93c-0.27-2.03-0.52-3.96-1.24-5.67
				c-0.9-2.16-0.59-3.67,0.2-5.41l0.64-1.4c1.15-2.49,2.33-5.06,3.13-7.67c7.26-23.62,10.29-45.38,9.26-66.51
				c-0.77-15.93-3.94-29.78-9.68-42.35c-0.71-1.54-1.1-3.24-1.11-4.79c-0.05-7.19,0.01-14.38,0.07-21.56l0.02-3.01
				c0.06-7.74,1.16-14.98,3.35-22.14c4.66-15.24,8.19-28.01,11.12-40.18c3.22-13.42,4.21-24.54,3.1-35.03
				c-0.51-4.82-1.1-9.63-1.69-14.43c-0.23-1.88-0.45-3.77-0.67-5.66c-0.54-4.75-1.11-9.67-1.94-14.43
				c-2.42-13.94-6.57-27.72-10.58-41.05l-0.88-2.94c-0.72-2.38-1.63-5.15-3.03-7.61c-2.11-3.69-2.62-7.06-1.63-10.61
				c0.24-0.87,0.24-1.85,0.24-2.88l0-0.68c0.09-8.02-1.16-16.06-3.84-24.59c-0.6-1.92-0.68-3.57,0.9-5.42
				c1.97-2.3,3.13-5.18,3.45-8.56c0.77-8.14,1.52-16.28,2.26-24.42l0.59-6.48c0.05-0.55,0.08-1.1,0.1-1.66l0.26-4.59l2.03,4.29
				c3.47,7.35,6.75,14.29,11.11,20.8c0.7,1.05,0.61,2.73,0.29,3.96c-1.14,4.48-0.66,9.03,1.51,14.35c1.3,3.17,2.31,6.51,3.29,9.73
				l0.59,1.95c0.33,1.08,0.6,2.2,0.86,3.31c0.33,1.42,0.65,2.75,1.11,4.05c6.82,18.97,12.68,34.71,20.68,50.17
				c2.28,4.4,4.4,8.98,6.46,13.39c1.25,2.69,2.5,5.39,3.79,8.06c1,2.06,1.2,3.98,0.62,5.89c-1.86,6.1-0.56,11.92,3.96,17.78
				l0.37,0.48c3.82,4.96,7.77,10.08,10.58,15.91c0.35,0.73,0.81,1.41,1.3,2.14c0.22,0.33,0.45,0.67,0.67,1.01
				c2.62,4.14,4.9,7,9.32,6.42l0.65-0.08l1.25,2.16c2.57,4.32,5.23,5.34,10.17,3.92c0.8-0.23,1.76-0.26,2.92-0.07
				c2.38,0.39,4.48-0.05,5.9-1.26c1.36-1.17,2.07-2.97,2.06-5.23c-0.01-1.72,0.27-3.13,1.65-4.46c1.88-1.79,2.3-4.13,1.31-7.17
				c-0.38-1.14-1.02-2.22-1.71-3.36c-0.24-0.39-0.48-0.79-0.7-1.19c-1.68-2.94-3.37-5.88-5.17-9.01l-3.63-6.32l2.08,0.39
				c0.76,0.14,1.44,0.25,2.06,0.36c1.21,0.21,2.21,0.38,3.18,0.62c1.98,0.5,3.93,0.23,5.99-0.82c3.06-1.57,4.48-3.55,4.49-6.24
				c0.01-2.73-1.79-3.96-4.51-4.96h-0.01c-0.23-0.09-0.46-0.2-0.69-0.3c-0.22-0.11-0.43-0.21-0.66-0.28
				c-2.88-0.88-4.78-2.93-6.47-4.73c-4.93-5.3-9.44-9.79-13.8-13.73c-2.23-2.01-4.31-3.89-5.86-6.88
				c-6.45-12.42-10.77-25.31-12.85-38.28c-0.51-3.17-0.89-6.41-1.27-9.54c-0.5-4.23-1.02-8.59-1.85-12.81
				c-2.61-13.34-8.02-24.53-16.52-34.22l-0.38-0.43l0.19-0.54c0.26-0.75,0.54-1.48,0.81-2.2c0.6-1.6,1.17-3.11,1.55-4.66
				c0.55-2.22,1.13-4.8,1.13-7.32c0.02-11.39-3.4-21.64-10.15-30.46c-1.46-1.9-2.08-3.63-2.1-5.79l-0.01-1.76
				c-0.03-5.07-0.07-10.31-0.58-15.39c-0.49-4.8-1.03-9.06-2.75-12.69c-6.57-13.88-16.83-22.17-30.52-24.63
				c-5.28-0.95-11.26-2.03-16.67-4.97c-0.78-0.43-1.62-0.77-2.45-1.11c-0.57-0.23-1.14-0.47-1.7-0.72
				c-4.76-2.2-9.53-4.41-14.17-6.57l-4.12-1.92l-2.18-16.26l0.26-0.33c3-3.74,3.45-5,3.73-10.32l0.04-1
				c0.04-1.22,0.09-2.49,0.37-3.73c0.23-1.05,0.96-2.44,2.02-3c2.62-1.39,3.98-3.78,5.37-6.52c0.98-1.93,1.82-3.99,2.63-5.98
				l0.25-0.62c1.99-4.84,1.06-7.8-3.33-10.55c-2.4-1.5-3.34-3.29-3.24-6.15c0.29-7.97-1.45-14.98-5.31-21.42
				c-5.69-9.47-16.46-15.4-28.1-15.46c-11.63,0.07-22.4,5.99-28.09,15.46c-3.87,6.44-5.61,13.44-5.32,21.42
				c0.1,2.86-0.84,4.64-3.23,6.15c-4.39,2.75-5.32,5.71-3.33,10.55l0.29,0.7c0.81,1.96,1.64,3.99,2.6,5.9
				c1.39,2.75,2.75,5.13,5.37,6.52c1.06,0.56,1.79,1.95,2.02,3c0.27,1.24,0.32,2.51,0.36,3.73l0.04,1
				c0.27,5.32,0.73,6.57,3.73,10.32l0.26,0.33l-2.18,16.26l-4.43,2.06c-4.54,2.11-9.2,4.27-13.86,6.43
				c-0.56,0.26-1.13,0.49-1.7,0.72c-0.83,0.34-1.66,0.68-2.44,1.1c-5.42,2.95-11.4,4.03-16.68,4.98
				c-13.68,2.47-23.95,10.75-30.52,24.63c-1.72,3.63-2.26,7.89-2.75,12.69c-0.52,5.1-0.55,10.36-0.58,15.44l-0.01,1.71
				c-0.02,2.16-0.64,3.89-2.1,5.79C83.5,233.76,80.08,244,80.1,255.39c0,2.52,0.58,5.1,1.13,7.32c0.38,1.56,0.95,3.08,1.56,4.68
				c0.27,0.72,0.54,1.44,0.8,2.18l0.19,0.54l-0.38,0.43c-8.5,9.69-13.91,20.88-16.52,34.22c-0.83,4.22-1.35,8.58-1.85,12.8
				c-0.38,3.13-0.76,6.38-1.27,9.55c-2.08,12.97-6.4,25.85-12.85,38.28c-1.56,2.99-3.64,4.87-5.85,6.86
				c-4.36,3.93-8.88,8.42-13.82,13.74c-1.68,1.81-3.59,3.85-6.47,4.73c-0.23,0.07-0.44,0.17-0.66,0.28
				c-0.23,0.11-0.46,0.22-0.7,0.31c-2.72,1-4.52,2.22-4.51,4.96c0.01,2.68,1.43,4.67,4.49,6.24c2.07,1.06,4.02,1.33,5.99,0.82
				c0.98-0.25,1.98-0.42,3.19-0.62c0.62-0.11,1.29-0.22,2.05-0.36l2.08-0.38l-3.33,5.78c-1.92,3.34-3.71,6.44-5.48,9.55
				c-0.23,0.4-0.47,0.79-0.71,1.19c-0.69,1.14-1.34,2.22-1.71,3.36c-0.99,3.04-0.57,5.38,1.31,7.17c1.38,1.33,1.66,2.74,1.65,4.46
				c-0.02,2.26,0.7,4.07,2.06,5.23c1.42,1.21,3.5,1.66,5.89,1.26c1.16-0.19,2.12-0.17,2.93,0.07c4.93,1.41,7.59,0.39,10.16-3.92
				l1.26-2.17l0.65,0.08c4.48,0.58,6.7-2.29,9.32-6.42c0.22-0.34,0.44-0.68,0.67-1.02c0.49-0.73,0.95-1.41,1.31-2.14
				c2.81-5.84,6.77-10.97,10.59-15.94l0.35-0.46c4.51-5.87,5.81-11.68,3.95-17.78c-0.58-1.9-0.38-3.83,0.62-5.89
				c1.28-2.65,2.52-5.32,3.76-7.99c2.06-4.44,4.2-9.03,6.49-13.46c8.63-16.67,15.03-34.46,20.68-50.17
				c0.46-1.29,0.78-2.62,1.11-4.03c0.26-1.12,0.52-2.23,0.86-3.32l0.59-1.94c0.98-3.22,1.99-6.55,3.29-9.73
				c2.17-5.31,2.65-9.87,1.51-14.35c-0.32-1.23-0.4-2.92,0.3-3.96c4.36-6.5,7.63-13.45,11.1-20.8l2.01-4.26l0.28,4.63
				c0.02,0.53,0.05,1.06,0.1,1.59l0.35,3.84c0.82,9.02,1.64,18.04,2.5,27.06c0.32,3.38,1.48,6.26,3.45,8.56
				c1.58,1.85,1.51,3.5,0.9,5.42c-2.67,8.52-3.93,16.57-3.83,24.59l0,0.69c0,1.03,0,2.01,0.24,2.87c0.99,3.55,0.47,6.93-1.64,10.62
				c-1.38,2.43-2.31,5.21-3.03,7.6l-0.88,2.94c-4.02,13.33-8.17,27.11-10.58,41.05c-0.82,4.74-1.38,9.62-1.93,14.34
				c-0.22,1.92-0.44,3.83-0.68,5.75c-0.59,4.81-1.18,9.62-1.69,14.43c-1.11,10.49-0.12,21.62,3.1,35.03
				c2.92,12.17,6.46,24.93,11.12,40.18c2.19,7.16,3.28,14.4,3.35,22.14l0.02,2.13c0.06,7.35,0.12,14.95,0.07,22.43
				c-0.01,1.55-0.4,3.25-1.1,4.79c-5.73,12.56-8.9,26.41-9.68,42.35c-1.03,21.14,2,42.89,9.26,66.51c0.8,2.61,1.99,5.18,3.13,7.68
				l0.64,1.39c0.79,1.74,1.1,3.26,0.2,5.41c-0.71,1.71-0.97,3.62-1.23,5.66c-0.08,0.65-0.17,1.3-0.27,1.94
				c-0.3,1.88-0.57,3.78-0.84,5.67c-0.52,3.62-1.05,7.36-1.77,11.01c-0.35,1.78-1.4,3.36-2.41,4.88l-0.49,0.75
				c-0.47,0.73-1.07,1.34-1.65,1.93c-0.41,0.42-0.82,0.83-1.17,1.3c-3.84,5.06-8.81,9.57-15.2,13.81
				c-5.74,3.81-9.76,7.99-12.31,12.79l-0.16,0.31c-0.48,0.9-0.94,1.76-1.23,2.65c-1.01,3.12-0.04,5.65,2.65,6.94
				c4.9,2.37,10.75,4.89,17.07,5.69c7.12,0.89,13.56-0.84,19.06-5.19c4.28-3.38,9.02-6.77,14.74-8.63c3.41-1.11,5.64-3.69,6.81-7.87
				c2.23-7.97,3.36-15.28,3.47-22.36c0.03-2.2,0.41-4.39,0.77-6.51c0.18-1.03,0.35-2.05,0.49-3.08l0.11-0.72
				c0.12-0.73,0.23-1.43,0.13-2.02c-0.21-1.24-0.4-2.49-0.6-3.73c-0.62-3.97-1.27-8.07-2.29-11.98c-2.27-8.72-2.42-16.57-0.44-23.99
				c1.86-6.98,4.21-13.92,6.26-19.79c3.33-9.53,6.97-22.2,5.57-35.64c-0.45-4.33-1.3-8.71-2.12-12.95l-0.47-2.45
				c-1.02-5.33-1.69-10.99-2.17-18.36c-0.28-4.32,0.88-7.78,2.05-10.6c6.21-14.92,9.68-31.24,10.3-48.52
				c0.38-10.49-0.04-19.83-1.3-28.52c-0.32-2.18-0.66-4.57,1.42-6.59c0.27-0.26,0.44-0.98,0.56-1.51
				c4.09-17.44,7.87-34.44,9.45-51.98l0.02-0.3c0.55-6.15,1.12-12.5,1.37-18.75c0.08-2.27-0.15-4.55-0.4-6.97
				c-0.12-1.14-0.23-2.29-0.32-3.47L187.01,388.19z"/>
		</g>
		<g>
			<path class="st1" d="M653.15,546.91c-0.5-0.92-0.96-1.76-1.36-2.63c-1.06-2.27-2.11-4.56-3.16-6.84
				c-1.46-3.17-2.91-6.34-4.41-9.5c-4.83-10.19-7.53-20.87-8.05-31.77c-0.17-3.55-0.32-7.09-0.47-10.63
				c-0.3-6.93-0.59-13.86-1-20.78c-0.21-3.62-0.54-7.22-0.87-10.83c-0.35-3.9-0.71-7.79-0.92-11.7c-0.27-5-0.28-10.12-0.29-15.06
				l-0.02-4.42c0-0.87,0.13-1.74,0.27-2.62l0.16-1.07c0.18-1.35,0.82-1.35,1.13-1.35c0.23,0,0.49,0.05,0.79,0.13
				c0.73,0.21,1.45,0.45,2.17,0.69c0.86,0.29,1.72,0.57,2.59,0.81l0.89,0.25c1.44,0.41,2.93,0.83,4.46,0.97
				c0.32,0.03,0.63,0.04,0.92,0.04c1.57,0,2.67-0.41,3.36-1.25c0.79-0.96,0.98-2.35,0.59-4.4l-0.74-3.73
				c-0.64-3.2-1.3-6.51-1.76-9.78c-0.91-6.51-0.54-12.22,1.12-17.47c0.74-2.33,1.97-4.76,3.65-7.23c0.89-1.31,2.39-2.57,4-3.38
				c1.38-0.69,2.55-1.04,3.48-1.04c1.16,0,2.76,0.46,3.31,4.44c2.02,14.58,2.79,28.03,2.36,41.12c-0.07,1.99-0.11,3.98-0.16,5.97
				c-0.14,5.57-0.28,11.33-0.81,16.95c-1.12,11.73-2.56,23.74-4.29,35.7c-0.72,4.96-1.63,9.99-2.51,14.85
				c-1.09,6.02-2.21,12.24-2.99,18.42c-0.51,4.08-0.32,8.29-0.12,12.35c0.09,1.91,0.18,3.81,0.2,5.71l0.05,3.57
				c0.06,3.47,0.11,7.05,0,10.55c-0.08,2.57-0.32,3.34-1.47,5.16L653.15,546.91z"/>
			<path class="st1" d="M620.8,565.13c-0.31-0.43-0.58-0.85-0.74-1.28c-0.72-1.97-1.48-3.92-2.24-5.88
				c-1.88-4.86-3.82-9.89-5.12-14.96c-3.95-15.44-6.75-28.12-8.84-39.92c-1.19-6.73-1.46-13.78-1.72-20.59l-0.18-4.49
				c-0.53-11.66-1.04-24.07-1.09-36.37c-0.02-5.55,0.34-11.22,0.7-16.7c0.17-2.58,0.33-5.17,0.46-7.75l0.23-4.95
				c0.1-2.3,0.2-4.61,0.33-6.91c0.04-0.75,0.15-1.51,0.29-2.44l0.07-0.51l2.05,1.15c0.89,0.49,1.77,1.02,2.65,1.55
				c1.96,1.18,3.99,2.41,6.17,3.21c7,2.57,10.74,7.34,11.42,14.59c0.47,4.93,0.96,9.85,1.45,14.77c1.08,10.77,2.2,21.91,2.98,32.89
				c0.31,4.4,0.53,8.81,0.75,13.23c0.5,10.12,1.01,20.58,2.71,30.75c1.42,8.55-0.94,15.9-7.67,23.84
				c-3.23,3.81-4.57,7.42-4.33,11.69c0.19,3.35,0.06,6.79-0.06,10.13c-0.05,1.33-0.1,2.65-0.13,3.98
				C620.95,564.49,620.91,564.79,620.8,565.13z"/>
			<path class="st1" d="M642.48,414.58c-0.73,0-1.73-0.18-3.05-0.55c-8.99-2.53-16.91-5.76-24.2-9.86
				c-6.43-3.62-11.63-7.91-15.9-13.11c-4.57-5.55-4.7-9.15-0.56-14.8c6.87-9.39,12.76-19.55,17.51-30.22
				c0.8-1.79,1.38-3.69,1.94-5.52c0.3-0.96,0.59-1.92,0.91-2.86c0.85-2.47,1.22-2.91,3.99-2.91l0.82,0.01
				c5.3,0.55,10.69,2.7,15.52,6.2c7.61,5.51,13.28,13.25,17.36,23.66c0.76,1.95,0.69,2.18-1.22,3.38c-0.33,0.21-0.68,0.38-1.03,0.56
				l-0.61,0.32c-4.18,2.27-6.96,5.62-8.48,10.24c-2.46,7.47-3.29,15.21-2.45,23.01c0.25,2.28,0.55,4.56,0.85,6.83l0.15,1.17
				c0.29,2.18,0.2,3.51-0.28,4.05C643.63,414.34,643.33,414.58,642.48,414.58z"/>
			<path class="st2" d="M632.08,274.32c-3.91,0-7.8-1.37-11.25-3.97c-5.2-3.91-10.56-8.34-14.5-14.2c-2.25-3.35-2.31-4.74-0.32-7.81
				l4.5-6.95c5.42-8.37,11.01-17.02,16.7-25.41c4.61-6.81,7.48-13.42,8.77-20.19l0.12-0.66c0.09-0.5,0.17-1.01,0.32-1.49
				c0.51-1.62,1.04-1.62,1.29-1.62c0.38,0,0.91,0.17,1.56,0.52c0.57,0.31,1.1,0.7,1.62,1.1c8.65,6.47,13.31,13.7,15.3,23.6
				c5.93,22.35-2.01,44.59-13.11,53.2C639.79,272.97,635.99,274.32,632.08,274.32z"/>
			<path class="st2" d="M596.16,241.44c0.06-13.49,0.12-27.45,0.42-41.16c0.17-8.01,1.79-34.29,15.31-36.51
				c3.22-0.53,6.8-0.8,10.67-0.8c4.28,0,8.84,0.34,13.19,0.99c3.5,0.52,7.92,1.73,10.79,2.91c-0.01,0.01-0.03,0.01-0.04,0.02
				c-5.8,2.55-9.52,7.16-11.37,14.08c-1.12,4.18-2.41,9.14-3.45,14.19c-1.39,6.71-4.24,13.16-8.48,19.17
				c-2.84,4.02-5.71,8.01-8.59,12c-2.05,2.85-7.87,10.95-7.87,10.95c-2.02,2.8-4.12,5.69-5.9,8.71c-1.53,2.59-2.8,5.28-4.14,8.13
				c-0.2,0.42-0.4,0.84-0.6,1.27L596.16,241.44z"/>
			<path class="st1" d="M597.42,363.76c-0.93,0-1.08-1.16-1.11-1.66c-0.08-1.6-0.05-3.21-0.02-4.82c0.01-0.81,0.03-1.62,0.03-2.42
				l0.03-18.43c0.04-18.91,0.08-37.82,0.04-56.72c-0.02-8.56,1.21-15.13,3.55-18.99c0.21-0.35,0.8-1.16,1.72-1.16
				c0.53,0,1.1,0.26,1.71,0.77c3,2.49,11.15,12.05,16.43,18.94c5.67,7.4,8.78,16.74,9.53,28.57c0.09,1.46-0.35,2.08-1.73,2.47
				c-3.14,0.88-5.73,2.97-7.49,6.06c-1.26,2.23-2.21,5.89-3.3,10.14c-0.96,3.74-2.05,7.99-3.52,11.66l-0.91,2.27
				c-2.12,5.33-5.03,12.63-9.29,18.93c-1.66,2.45-3.35,3.37-4.58,4.05C598.07,363.65,597.72,363.76,597.42,363.76z"/>
			<path class="st1" d="M638.43,747.67c-1.68,0-3.23-0.16-4.73-0.49c-1.8-0.39-2.72-1.14-3.3-2.64c-1.52-3.94-2.24-7.93-2.33-12.96
				c1.29-5.24,0.56-10.79-0.22-16.68c-0.41-3.12-0.84-6.34-0.93-9.52c-0.09-3.35,0.27-6.94,1.03-10.38
				c0.76-3.41,3.06-5.44,6.49-5.72c0.22-0.02,0.45-0.03,0.67-0.03c3.62,0,7.32,2.29,8.79,5.45c1.69,3.63,3.47,7.22,5.25,10.81
				l0.62,1.25c1.11,2.24,2.77,3.28,5.24,3.28c0.27,0,0.55-0.01,0.84-0.04c2.68-0.23,5.62-0.34,9.25-0.34c1.1,0,2.21,0.01,3.31,0.02
				c4.01,0.05,7.5,1.98,10.37,5.73c3.45,4.51,2.98,9.59-1.24,13.25c-1.63,1.41-3.81,2.4-5.72,3.2c-1.72,0.73-3.61,1.22-5.43,1.7
				l-1.04,0.28c-4.58,1.23-8.04,3.68-10.27,7.28c-1.93,3.1-4.72,4.9-8.78,5.65C643.95,747.22,641.18,747.67,638.43,747.67z"/>
			<path class="st1" d="M753.82,440.09c-0.74,0-1.83-0.53-2.65-2.02c-0.7-1.27-1.5-2.71-2.35-4.22c-2.19-3.91-4.67-8.33-6.22-11.65
				c-0.47-1.07-1.33-1.77-2.17-1.77c-0.48,0-0.9,0.23-1.16,0.63c-0.28,0.43-0.47,1.24,0.18,2.66c0.44,0.97,1.65,3.24,2.8,5.4
				c0.85,1.59,1.66,3.12,2.1,4c-0.26,0.17-0.55,0.26-0.88,0.26c-0.53,0-0.95-0.23-1.15-0.43c-0.75-0.72-1.43-1.59-1.97-2.52
				c-0.86-1.48-1.72-2.95-2.59-4.42c-3.98-6.74-8.09-13.71-11.02-21.12c-1.17-2.96-1.67-5.57-1.59-8.24
				c0.11-3.54,0.03-7.03-0.12-11.18c-0.07-1.78,0.52-2.71,2.08-3.32c0.95-0.37,1.86-0.82,2.78-1.28c0.59-0.29,1.17-0.58,1.77-0.85
				c3.07-1.37,6.15-2.07,9.18-2.07c5.45,0,10.56,2.27,14.79,6.57c1.76,1.79,4.02,4.17,5.98,6.8c2.99,4.03,9.53,8.61,14.95,10.54
				c-1.23,2.65-4.2,3.92-6.1,3.97h0c-4.16,0-12.67-4.37-13.49-4.92l-0.58-0.39l-0.5,0.5c-0.89,0.93-1.48,1.78-0.47,3.7
				c0.71,1.36,1.41,2.74,2.11,4.11l1.73,3.39c0.77,1.5,1.69,3.25,2.64,5.06c1.62,3.09,3.34,6.37,4.63,8.96
				c0.85,1.46,0.83,2.78,0.46,3.42c-0.2,0.35-0.43,0.35-0.5,0.35c-0.5,0-1.38-0.61-2.35-2.32c-1.5-2.56-3.33-5.79-5.09-8.9
				c-1.21-2.13-2.39-4.21-3.4-5.96c-0.85-1.5-1.69-2.26-2.5-2.26c-0.44,0-0.82,0.22-1.04,0.6c-0.42,0.72-0.22,1.96,0.57,3.39
				c1.46,2.91,2.95,5.84,4.44,8.76c1.92,3.78,3.85,7.57,5.74,11.38c0.95,2.22,0.82,3.73,0.42,4.34c-0.16,0.24-0.36,0.35-0.64,0.35
				c-0.69,0-1.95-0.75-3.24-2.88c-1.44-2.77-3.26-6.13-5.07-9.49c-1.83-3.38-3.65-6.77-5.13-9.6c-0.69-1.32-1.46-2.02-2.24-2.02
				c-0.42,0-0.79,0.2-1.03,0.56c-0.43,0.65-0.36,1.73,0.2,3.05c1.22,2.66,2.47,5.27,3.71,7.89l2.75,5.79
				c0.73,1.51,1.48,3.07,2.03,4.64c0.43,1,0.48,1.83,0.16,2.31C754.5,440.03,754.06,440.09,753.82,440.09z"/>
			<path class="st1" d="M628.93,632.8c-1.2,0-2.37-0.78-3.91-2.62c-4.43-5.29-6.72-11.72-7.01-19.65c-0.28-7.52,0.93-15,3.57-22.22
				c3.83-10.45,5.28-20.78,4.41-31.55c-0.19-2.36-0.19-4.8-0.18-7.16v-1.18c0-0.48,0.11-0.99,0.23-1.54
				c0.02-0.09,0.04-0.18,0.06-0.27c0.11-0.01,0.23-0.01,0.34-0.01c2.03,0,3.49,1.13,5.06,2.48c4.04,3.51,5.56,8.49,6.61,13.35
				c2.71,12.55,4.1,25.66,4.24,40.09c0.05,5.17-0.19,11.96-2.52,18.58c-1.63,4.62-3.87,7.81-7.07,10.04
				C631.11,632.28,629.93,632.8,628.93,632.8z"/>
			<path class="st1" d="M648.96,694.01c-3.73-7.6-8.99-9.39-13.11-9.39c-2.13,0-4.34,0.48-6.6,1.42c0.27-0.97,0.52-1.86,0.83-2.73
				c2.26-6.51,2.63-13.21,1.12-20.46c-1.47-7.05-2.88-14.11-4.29-21.17l-1.24-6.23c-0.04-0.2-0.06-0.41-0.08-0.65
				c0.03,0.01,0.05,0.02,0.07,0.03c1.65,1.07,3.33,1.61,4.98,1.61c0,0,0,0,0,0c2.28,0,4.47-1.02,6.5-3.02
				c1.75-1.72,3.16-3.79,4.53-5.79l0.65-0.94c0.55-0.8,0.89-1.71,1.19-2.51c0.06-0.17,0.12-0.33,0.19-0.5l11.02-1.4
				c-0.82,3.99-1.73,7.97-2.64,11.95c-2.22,9.71-4.51,19.75-5.43,29.92l1.65,0.28l1.7-6.73l8.62-33.76
				c0.86-3.37,2.67-6.07,5.49-8.18c-0.06,0.26-0.11,0.51-0.16,0.76c-0.41,1.96-0.84,3.99-1.48,5.88
				c-4.4,12.98-7.75,26.46-10.99,39.5l-1.67,6.72C647.79,676.55,647.52,684.87,648.96,694.01z"/>
			<path class="st2" d="M683.73,215.14c-9.01,0-16.22-2.65-22.03-8.09c-2.46-2.3-5.04-4.86-8.12-8.07
				c-3.41-3.54-7.58-7.6-12.58-10.86c-2.46-1.6-2.56-1.87-1.81-4.85c1.39-5.46,4.7-9.74,9.85-12.73c1.51-0.87,2.98-1.3,4.51-1.3
				c1.04,0,2.13,0.21,3.22,0.61c6.39,2.38,11.85,5.25,16.67,8.77c7.93,5.78,12.81,13.72,14.53,23.6c0.62,3.57,1.01,7.29,1.36,10.57
				c0.18,1.69,0.18,1.72-1.75,1.98c-1.1,0.15-2.21,0.23-3.04,0.3L683.73,215.14L683.73,215.14z"/>
			<path class="st1" d="M651.93,615.9c-2.38-0.16-3.77-1.42-4.15-3.75c-0.33-1.98-0.51-3.99-0.54-5.97
				c-0.22-12.71-1.91-25.47-3.55-37.8l-0.84-6.41c-0.71-5.46-0.95-11.07-1.13-15.9c-0.09-2.29,0.73-4.17,2.5-5.72
				c0.06,0.07,0.13,0.14,0.19,0.2c0.36,0.39,0.66,0.71,0.89,1.07c8.32,13.21,13.98,25.72,17.3,38.27c1.9,7.19,3.71,15.78,2.66,24.97
				c-0.68,5.99-6.46,11.06-12.61,11.06C652.41,615.92,652.17,615.91,651.93,615.9z"/>
			<path class="st1" d="M687,284.09c-3.79-0.08-6.7-1.59-9.16-4.73c-1.92-2.47-3.56-5.21-4.94-7.59l-0.68-1.17
				c-1.88-3.24-3.21-5.51-4.8-9.02c0.42,0.28,0.95,0.66,1.5,1.13c1.84,1.55,3.93,2.37,6.04,2.37c2.95,0,5.45-1.6,6.52-4.19
				c1.46-3.51,2.42-10.12,1.82-15.32c0.4,0.25,0.79,0.49,1.17,0.73c0.76,0.48,1.45,0.91,1.98,1.19l1.2,0.65
				c2.98,1.64,6.06,3.34,9.75,3.57c1.05,0.07,1.7,0.62,2.38,2.02c2.89,5.94,3.68,12.57,2.51,20.86c-0.4,2.82-2.14,5.07-5.18,6.7
				c-3.6,1.93-6.61,2.79-9.76,2.79L687,284.09z"/>
			<path class="st1" d="M658.48,354.76c-0.56-0.35-1.99-1.8-4.13-5.77c-3.89-6.46-18.1-18.25-29.68-18.25
				c-0.51,0-1.01,0.02-1.5,0.07c1.26-6.67,2.86-12.02,8.35-15.24c0.68-0.4,1.7-0.62,2.89-0.62c0.7,0,1.39,0.07,2.01,0.19
				c6.42,1.26,11.37,5.03,14.72,11.2c1.36,2.51,2.38,5.07,3.04,7.59c1.27,4.9,2.34,9.95,3.38,14.83l0.57,2.65
				C658.59,353.48,658.55,354.4,658.48,354.76z"/>
			<path class="st1" d="M675.23,260.87c-1.04,0-3.11-1.45-4.47-2.41c-0.42-0.3-0.81-0.57-1.16-0.8c-6.3-5-7.25-9.83-6.97-18.74
				c0.21-6.76-1.19-18.09-2.54-23.32c-0.33-1.29-0.11-1.77,0.01-1.92c0.11-0.15,0.32-0.23,0.62-0.23c0.81,0,1.93,0.56,2.48,1.25
				c1.44,1.79,9.82,13.3,12.35,21.27c1.73,5.46,3.57,13.26,2.55,19.46c-0.32,2.3-1.67,5.02-2.68,5.39L675.23,260.87z"/>
			<path class="st1" d="M635.21,308.68c-0.18-12.35-3.23-22.56-9.09-30.44c2.47,0.82,4.88,1.23,7.2,1.23
				c7.58,0,14.14-4.27,19.55-12.7c-1.01,7.87-2.66,16.64-6.23,25.15c-1.95,4.65-4.27,9.52-7.94,13.58
				c-0.84,0.93-1.83,1.77-2.97,2.74C635.55,308.39,635.38,308.53,635.21,308.68z"/>
			<path class="st1" d="M696.48,247.53c-0.57,0-1.26-0.14-2.12-0.34c-5.63-1.66-12.21-8.11-15.26-15c-1.15-2.59-2.48-5.15-3.76-7.62
				c-0.69-1.34-1.39-2.68-2.06-4.03c-0.39-0.8-0.74-1.62-1.17-2.61l-0.09-0.2c0.55,0.12,1.09,0.23,1.61,0.34
				c2.06,0.45,3.83,0.83,5.66,0.99c2.03,0.17,4.19,0.26,6.39,0.26c1.32,0,2.63-0.03,3.94-0.09l0.68-0.02c1.19,0,1.68,0.25,2.03,1.02
				c0.43,0.97,0.87,1.95,1.31,2.92c2.91,6.42,5.65,12.49,5.33,19.56C698.56,247.53,697.3,247.53,696.48,247.53z"/>
			<path class="st1" d="M720.22,306.13c-2.85-5.07-6.58-9.01-9.92-12.55c-1.5-1.59-2.91-3.08-4.05-4.49
				c-1.36-1.68-1.96-2.99-1.22-5.09c0.67-1.93,0.97-3.91,1.29-6.01c0.07-0.47,0.14-0.94,0.22-1.42
				C713.36,281.88,720.36,297.31,720.22,306.13z"/>
			<path class="st1" d="M635.8,545.59c-1.48-1.99-3.68-3.68-6-4.6c3.47-4.15,6.16-9.43,7.22-14.08l0.28,0.54
				c1.19,2.27,2.32,4.41,3.3,6.58c0.21,0.47,0.11,1.44-0.22,2.26c-0.48,1.18-1.1,2.14-1.75,3.16
				C637.61,541.04,636.48,542.78,635.8,545.59z"/>
			<path class="st1" d="M651.97,318.46c-3.17-3.97-6.35-6.25-9.97-7.17l6.61-7.99l0.13,0.04c0.24,1.01,0.5,2.02,0.75,3.03
				C650.45,310.19,651.43,314.1,651.97,318.46z"/>
			<path class="st1" d="M721.13,378.23c-0.53-0.85-1.02-1.62-1.44-2.43l-1.88-3.55c-2.31-4.34-4.61-8.67-6.8-13.07l-3.35-6.71
				c-4.24-8.46-8.62-17.21-12.58-25.96c-1.67-3.7-3.14-7.57-4.57-11.31c-2.38-6.24-4.84-12.69-8.3-18.63
				c-0.3-0.52-0.54-1.15-0.75-1.93c-0.58-2.19-0.72-4.31-0.44-6.68c0.26,0.31,1.25,1.41,1.5,1.71c1.02,1.22,2.05,2.5,3.08,3.78
				c1.62,2.02,3.25,4.05,4.9,5.93c3.84,4.4,6.57,9.55,8.87,16.7c0.52,1.62,1.02,3.24,1.52,4.86c1.4,4.54,2.85,9.24,4.72,13.71
				c0.84,2.01,1.44,2.76,2.22,2.76h0.43l0.43-0.45c0.37-0.51,0.34-1.32,0.21-1.73c-2.04-6.36-4.09-13.99-5.58-19.55l-0.7-2.59
				c-1.86-6.91-5.27-12.96-10.11-17.99c-0.63-0.65-0.93-1.28-0.89-1.85c0.04-0.64,0.49-1.3,1.33-1.97c1.57-1.24,2.79-1.8,3.97-1.8
				c0.82,0,1.69,0.26,2.72,0.83c2.54,1.38,12.49,10.76,16.14,15.21c3.53,4.31,5.69,9.17,6.41,14.46c0.49,3.56,0.59,7.26,0.69,10.84
				l0.01,0.51c0.06,2.09,0.06,4.18,0.06,6.27c0,3.1-0.01,6.31,0.19,9.46l0.08,1.28c0.21,3.61,0.42,7.34,2.09,10.85l1.05,2.2
				l0.53-2.38c0.33-1.46,0.33-2.88,0.33-4.25l0.01-5.41c0-5.12,0.01-10.24,0.06-15.36v-0.4c0-1.01,0-1.85,0.69-2.58l0.08,0.22
				c0.33,0.89,0.65,1.72,0.91,2.58c0.46,1.47,0.89,2.96,1.32,4.44c0.78,2.69,1.57,5.39,2.49,8.03c1.72,4.92,3.12,8.74,4.59,12.76
				c1.01,2.77,2.06,5.64,3.28,9.02l0.17,0.47c0.38,1.02,1.14,3.01,0.82,4.28c-0.46-0.05-0.94-0.08-1.41-0.08
				c-4.59,0-9.74,2.27-14.72,4.47c-1.31,0.58-2.62,1.16-3.92,1.69L721.13,378.23z"/>
			<path class="st1" d="M534.18,547.11c-1.15-1.83-1.39-2.59-1.47-5.16c-0.11-3.51-0.06-7.09,0-10.55l0.05-3.57
				c0.02-1.9,0.11-3.8,0.2-5.71c0.19-4.06,0.39-8.27-0.12-12.35c-0.78-6.17-1.9-12.39-2.99-18.42c-0.88-4.86-1.79-9.89-2.51-14.85
				c-1.73-11.96-3.17-23.97-4.29-35.7c-0.54-5.62-0.68-11.38-0.81-16.95c-0.05-1.99-0.1-3.98-0.16-5.97
				c-0.43-13.1,0.34-26.55,2.36-41.12c0.55-3.98,2.15-4.44,3.31-4.44c0.94,0,2.11,0.35,3.48,1.04c1.62,0.81,3.11,2.07,4,3.38
				c1.69,2.47,2.92,4.91,3.66,7.23c1.66,5.25,2.03,10.96,1.12,17.47c-0.45,3.27-1.12,6.58-1.76,9.78l-0.74,3.73
				c-0.39,2.04-0.2,3.44,0.59,4.4c0.7,0.84,1.8,1.25,3.36,1.25c0.29,0,0.59-0.02,0.92-0.04c1.53-0.13,3.02-0.55,4.46-0.97l0.9-0.25
				c0.87-0.24,1.73-0.53,2.59-0.81c0.72-0.24,1.44-0.48,2.17-0.69c0.3-0.09,0.56-0.13,0.79-0.13c0.31,0,0.95,0,1.13,1.35l0.16,1.07
				c0.14,0.87,0.28,1.75,0.27,2.62l-0.02,4.42c-0.01,4.95-0.02,10.06-0.29,15.06c-0.21,3.91-0.56,7.8-0.92,11.7
				c-0.33,3.61-0.66,7.22-0.87,10.83c-0.41,6.92-0.7,13.85-1,20.78c-0.15,3.54-0.3,7.09-0.47,10.63
				c-0.52,10.9-3.22,21.59-8.05,31.77c-1.49,3.15-2.95,6.33-4.41,9.5c-1.05,2.28-2.1,4.56-3.16,6.84c-0.41,0.87-0.87,1.72-1.36,2.63
				L534.18,547.11z"/>
			<path class="st1" d="M566.64,565.13c-0.11-0.33-0.15-0.64-0.16-0.95c-0.03-1.33-0.08-2.65-0.13-3.98
				c-0.12-3.33-0.25-6.78-0.06-10.13c0.24-4.27-1.1-7.87-4.33-11.69c-6.73-7.94-9.1-15.29-7.67-23.84
				c1.7-10.17,2.22-20.63,2.71-30.75c0.22-4.42,0.43-8.83,0.75-13.23c0.78-10.98,1.9-22.12,2.98-32.89
				c0.5-4.92,0.99-9.85,1.45-14.77c0.68-7.25,4.42-12.02,11.42-14.59c2.19-0.8,4.21-2.03,6.17-3.21c0.88-0.53,1.76-1.06,2.65-1.55
				l2.05-1.15l0.07,0.51c0.13,0.93,0.25,1.68,0.29,2.44c0.13,2.3,0.23,4.6,0.33,6.9l0.23,4.95c0.13,2.58,0.3,5.16,0.46,7.75
				c0.35,5.48,0.72,11.14,0.7,16.7c-0.05,12.3-0.56,24.71-1.09,36.37l-0.18,4.49c-0.26,6.81-0.53,13.86-1.72,20.59
				c-2.08,11.8-4.89,24.48-8.84,39.92c-1.3,5.07-3.24,10.1-5.12,14.96c-0.76,1.96-1.52,3.92-2.24,5.88
				C567.22,564.28,566.94,564.7,566.64,565.13z"/>
			<path class="st1" d="M544.95,414.58c-0.84,0-1.15-0.24-1.3-0.41c-0.48-0.54-0.57-1.87-0.28-4.05l0.15-1.17
				c0.3-2.27,0.6-4.55,0.85-6.83c0.84-7.8,0.02-15.54-2.45-23.01c-1.52-4.62-4.29-7.97-8.48-10.24l-0.61-0.32
				c-0.35-0.18-0.7-0.35-1.03-0.56c-1.9-1.2-1.98-1.42-1.22-3.38c4.07-10.41,9.75-18.15,17.36-23.66c4.84-3.5,10.23-5.65,15.59-6.2
				l0.76-0.01c2.77,0,3.15,0.44,3.99,2.91c0.32,0.95,0.61,1.9,0.91,2.86c0.56,1.83,1.14,3.73,1.94,5.52
				c4.75,10.67,10.64,20.83,17.51,30.22c4.14,5.66,4.01,9.25-0.56,14.8c-4.28,5.2-9.48,9.49-15.9,13.11
				c-7.29,4.1-15.2,7.33-24.2,9.86C546.68,414.4,545.68,414.58,544.95,414.58z"/>
			<path class="st2" d="M555.35,274.32c-3.91,0-7.71-1.35-11-3.9c-11.1-8.61-19.04-30.85-13.12-53.15c2-9.94,6.67-17.18,15.15-23.52
				c0.7-0.52,1.22-0.92,1.79-1.22c0.65-0.35,1.18-0.52,1.56-0.52c0.25,0,0.78,0,1.29,1.62c0.15,0.49,0.24,0.99,0.32,1.49l0.12,0.66
				c1.29,6.77,4.16,13.38,8.77,20.19c5.68,8.39,11.28,17.04,16.7,25.41l4.5,6.95c1.99,3.07,1.93,4.46-0.32,7.81
				c-3.94,5.86-9.3,10.29-14.5,14.2C563.15,272.95,559.26,274.32,555.35,274.32C555.35,274.32,555.35,274.32,555.35,274.32z"/>
			<path class="st2" d="M590.75,254.12c-1.34-2.85-2.61-5.54-4.14-8.13c-1.79-3.02-3.88-5.91-5.9-8.71c0,0-5.82-8.1-7.87-10.95
				c-2.88-3.99-5.75-7.98-8.59-12c-4.24-6.01-7.09-12.46-8.48-19.17c-1.05-5.05-2.33-10.01-3.45-14.19
				c-1.85-6.92-5.57-11.53-11.38-14.08c-0.01-0.01-0.02-0.01-0.03-0.02c2.87-1.18,7.29-2.39,10.79-2.91
				c4.35-0.65,8.91-0.99,13.19-0.99c3.86,0,7.45,0.27,10.67,0.8c13.52,2.22,15.14,28.5,15.31,36.51c0.3,13.71,0.36,27.67,0.42,41.16
				l0.07,13.95C591.14,254.97,590.94,254.54,590.75,254.12z"/>
			<path class="st1" d="M590.01,363.76c-0.3,0-0.65-0.11-1.03-0.32c-1.3-0.71-2.99-1.64-4.65-4.09c-4.26-6.3-7.17-13.6-9.29-18.93
				l-0.91-2.27c-1.46-3.67-2.55-7.91-3.52-11.66c-1.09-4.24-2.04-7.91-3.3-10.13c-1.76-3.09-4.35-5.18-7.49-6.06
				c-1.39-0.39-1.82-1.01-1.73-2.47c0.74-11.82,3.86-21.17,9.53-28.57c5.28-6.89,13.43-16.45,16.43-18.94
				c0.61-0.51,1.18-0.77,1.71-0.77c0.92,0,1.51,0.81,1.72,1.16c2.34,3.86,3.57,10.43,3.55,18.99c-0.04,18.9,0,37.81,0.04,56.72
				l0.03,18.43c0,0.81,0.02,1.62,0.03,2.42c0.03,1.61,0.06,3.22-0.02,4.82C591.1,362.6,590.94,363.76,590.01,363.76L590.01,363.76z"
				/>
			<path class="st1" d="M549,747.67c-2.75,0-5.52-0.45-7.87-0.88c-4.06-0.75-6.85-2.54-8.78-5.65c-2.24-3.6-5.69-6.05-10.27-7.28
				l-1.04-0.28c-1.83-0.48-3.71-0.97-5.43-1.7c-1.91-0.81-4.09-1.79-5.72-3.2c-4.22-3.66-4.69-8.74-1.24-13.25
				c2.87-3.75,6.36-5.68,10.37-5.73c1.1-0.01,2.2-0.02,3.31-0.02c3.63,0,6.57,0.11,9.25,0.34c0.29,0.03,0.57,0.04,0.84,0.04
				c2.47,0,4.14-1.04,5.24-3.28l0.62-1.25c1.78-3.59,3.56-7.18,5.25-10.81c1.47-3.16,5.17-5.45,8.79-5.45
				c0.23,0,0.45,0.01,0.67,0.03c3.43,0.28,5.73,2.31,6.49,5.72c0.77,3.44,1.13,7.02,1.03,10.38c-0.09,3.18-0.51,6.4-0.93,9.52
				c-0.78,5.88-1.52,11.44-0.2,16.89c-0.11,4.82-0.83,8.81-2.35,12.75c-0.58,1.51-1.51,2.25-3.3,2.64
				C552.23,747.51,550.69,747.67,549,747.67C549,747.67,549,747.67,549,747.67z"/>
			<path class="st1" d="M433.61,440.09c-0.24,0-0.67-0.06-0.93-0.45c-0.32-0.48-0.27-1.3,0.13-2.26c0.57-1.63,1.32-3.19,2.05-4.7
				l2.75-5.79c1.25-2.62,2.49-5.23,3.7-7.87c0.57-1.34,0.64-2.42,0.21-3.07c-0.24-0.36-0.61-0.56-1.03-0.56
				c-0.77,0-1.55,0.7-2.24,2.02c-1.49,2.86-3.33,6.27-5.17,9.68c-1.8,3.34-3.6,6.66-5.06,9.46c-1.26,2.08-2.52,2.83-3.21,2.83
				c-0.28,0-0.48-0.11-0.64-0.35c-0.4-0.61-0.52-2.12,0.44-4.38c1.87-3.76,3.8-7.55,5.72-11.33c1.49-2.93,2.98-5.86,4.45-8.79
				c0.77-1.4,0.98-2.64,0.56-3.36c-0.23-0.38-0.61-0.6-1.04-0.6c-0.81,0-1.65,0.76-2.5,2.26c-1.01,1.75-2.18,3.82-3.39,5.96
				c-1.76,3.11-3.59,6.34-5.09,8.89c-0.98,1.72-1.86,2.33-2.36,2.33c-0.07,0-0.3,0-0.5-0.35c-0.36-0.63-0.38-1.96,0.44-3.37
				c1.32-2.64,3.04-5.92,4.66-9.01c0.95-1.81,1.86-3.55,2.64-5.06l1.73-3.38c0.7-1.38,1.39-2.75,2.1-4.11
				c1.01-1.92,0.42-2.77-0.39-3.61l-0.5-0.52l-0.68,0.32c-0.81,0.54-9.33,4.92-13.35,4.92l0,0c-2.03-0.05-5.01-1.32-6.24-3.97
				c5.42-1.93,11.96-6.51,14.95-10.53c1.95-2.64,4.22-5.02,5.97-6.8c4.23-4.3,9.34-6.57,14.79-6.57c3.03,0,6.12,0.7,9.18,2.07
				c0.6,0.27,1.18,0.55,1.77,0.85c0.92,0.45,1.83,0.91,2.78,1.28c1.57,0.61,2.15,1.54,2.08,3.32c-0.15,4.15-0.23,7.64-0.12,11.18
				c0.09,2.67-0.42,5.28-1.59,8.24c-2.93,7.41-7.04,14.38-11.02,21.12c-0.87,1.47-1.73,2.94-2.59,4.42
				c-0.54,0.93-1.22,1.8-1.97,2.52c-0.2,0.2-0.63,0.43-1.15,0.43c-0.32,0-0.62-0.09-0.88-0.26c0.44-0.88,1.25-2.41,2.1-4
				c1.15-2.16,2.36-4.43,2.8-5.4c0.65-1.42,0.45-2.23,0.18-2.66c-0.26-0.4-0.68-0.63-1.16-0.63c-0.84,0-1.7,0.7-2.18,1.78
				c-1.54,3.3-4.02,7.73-6.21,11.63c-0.85,1.51-1.65,2.95-2.35,4.23C435.44,439.56,434.35,440.09,433.61,440.09z"/>
			<path class="st1" d="M558.51,632.8c-1,0-2.18-0.51-3.82-1.65c-3.2-2.23-5.44-5.42-7.07-10.04c-2.33-6.62-2.57-13.4-2.52-18.58
				c0.14-14.43,1.53-27.54,4.24-40.09c1.05-4.86,2.58-9.84,6.61-13.35c1.57-1.36,3.03-2.48,5.06-2.48c0.11,0,0.23,0,0.34,0.01
				c0.02,0.09,0.04,0.18,0.06,0.27c0.12,0.55,0.23,1.07,0.23,1.54v1.18c0,2.36,0,4.8-0.18,7.17c-0.87,10.77,0.57,21.09,4.41,31.55
				c2.65,7.22,3.85,14.7,3.57,22.22c-0.29,7.92-2.59,14.35-7.01,19.65C560.88,632.01,559.71,632.8,558.51,632.8L558.51,632.8z"/>
			<path class="st1" d="M538.48,694.01c1.43-9.14,1.16-17.46-0.83-25.38l-1.67-6.72c-3.24-13.04-6.59-26.52-10.99-39.5
				c-0.64-1.89-1.07-3.92-1.48-5.88c-0.06-0.26-0.11-0.51-0.16-0.76c2.83,2.11,4.63,4.81,5.49,8.18l10.32,40.49l1.65-0.28
				c-0.92-10.17-3.21-20.21-5.43-29.92c-0.91-3.98-1.82-7.95-2.64-11.95l11.02,1.4c0.06,0.16,0.12,0.33,0.19,0.5
				c0.3,0.8,0.64,1.71,1.19,2.51l0.65,0.95c1.37,2,2.78,4.07,4.53,5.79c2.03,2.01,4.22,3.02,6.5,3.02c1.65,0,3.33-0.54,4.98-1.61
				c0.02-0.01,0.04-0.02,0.07-0.03c-0.02,0.24-0.03,0.45-0.08,0.65l-1.24,6.23c-1.4,7.06-2.81,14.12-4.29,21.17
				c-1.51,7.26-1.15,13.95,1.12,20.46c0.31,0.87,0.55,1.76,0.83,2.73c-2.26-0.95-4.47-1.42-6.6-1.42
				C547.47,684.62,542.21,686.41,538.48,694.01z"/>
			<path class="st2" d="M502.91,215.07c-0.83-0.07-1.94-0.15-3.04-0.3c-1.94-0.26-1.93-0.29-1.75-1.98c0.34-3.28,0.74-7,1.36-10.57
				c1.71-9.88,6.6-17.82,14.53-23.6c4.83-3.52,10.28-6.39,16.67-8.77c1.09-0.41,2.18-0.61,3.22-0.61c1.53,0,3.01,0.43,4.51,1.3
				c5.15,2.99,8.47,7.27,9.85,12.73c0.76,2.98,0.66,3.25-1.81,4.85c-5,3.26-9.17,7.31-12.58,10.86c-3.08,3.2-5.66,5.76-8.12,8.07
				c-5.82,5.45-13.03,8.09-22.03,8.09C503.71,215.14,502.91,215.07,502.91,215.07z"/>
			<path class="st1" d="M534.78,615.92c-6.15,0-11.93-5.07-12.61-11.06c-1.04-9.19,0.76-17.78,2.66-24.97
				c3.33-12.55,8.98-25.06,17.3-38.27c0.23-0.36,0.53-0.68,0.89-1.07c0.06-0.07,0.12-0.13,0.19-0.2c1.77,1.55,2.58,3.43,2.5,5.72
				c-0.17,4.83-0.42,10.44-1.13,15.9l-0.84,6.41c-1.63,12.33-3.33,25.09-3.55,37.81c-0.04,1.98-0.22,3.99-0.54,5.97
				c-0.38,2.33-1.78,3.59-4.15,3.75C535.26,615.91,535.02,615.92,534.78,615.92L534.78,615.92z"/>
			<path class="st1" d="M500.09,284.1c-3.15,0-6.16-0.86-9.76-2.79c-3.04-1.62-4.78-3.88-5.18-6.7c-1.18-8.29-0.38-14.92,2.51-20.86
				c0.68-1.4,1.33-1.95,2.38-2.02c3.69-0.23,6.77-1.93,9.75-3.57l1.2-0.66c0.52-0.28,1.21-0.71,1.97-1.19
				c0.37-0.24,0.76-0.48,1.17-0.73c-0.59,5.2,0.36,11.81,1.82,15.32c1.07,2.58,3.57,4.19,6.52,4.19c2.11,0,4.2-0.82,6.04-2.37
				c0.54-0.46,1.06-0.83,1.48-1.1c-1.59,3.5-2.91,5.76-4.79,8.99l-0.68,1.17c-1.38,2.38-3.02,5.12-4.94,7.59
				c-2.45,3.14-5.36,4.65-9.16,4.73L500.09,284.1z"/>
			<path class="st1" d="M528.95,354.76c-0.07-0.36-0.11-1.28,0.35-3.34l0.57-2.66c1.04-4.88,2.11-9.93,3.38-14.83
				c0.65-2.52,1.67-5.07,3.04-7.59c3.35-6.17,8.3-9.94,14.72-11.2c0.62-0.12,1.31-0.19,2.01-0.19c1.18,0,2.21,0.22,2.89,0.62
				c5.5,3.22,7.09,8.57,8.35,15.24c-0.49-0.05-0.99-0.07-1.5-0.07c-11.58,0-25.79,11.8-29.66,18.22
				C530.94,352.96,529.51,354.41,528.95,354.76z"/>
			<path class="st1" d="M512.21,260.87c-0.08,0-0.14-0.01-0.19-0.03c-1.01-0.38-2.36-3.09-2.68-5.37
				c-1.03-6.23,0.81-14.03,2.54-19.49c2.53-7.97,10.91-19.49,12.35-21.27c0.55-0.69,1.67-1.25,2.48-1.25c0.3,0,0.51,0.08,0.62,0.23
				c0.11,0.14,0.34,0.63,0.01,1.92c-1.35,5.24-2.76,16.56-2.54,23.32c0.28,8.91-0.66,13.73-7.02,18.78
				c-0.29,0.19-0.68,0.46-1.1,0.76C515.31,259.42,513.25,260.87,512.21,260.87L512.21,260.87z"/>
			<path class="st1" d="M551.71,308.24c-1.15-0.97-2.13-1.82-2.97-2.74c-3.67-4.06-5.99-8.93-7.94-13.58
				c-3.56-8.51-5.22-17.28-6.23-25.15c5.41,8.43,11.97,12.7,19.55,12.7c2.32,0,4.73-0.41,7.2-1.23c-5.85,7.88-8.91,18.1-9.09,30.44
				C552.05,308.53,551.88,308.39,551.71,308.24z"/>
			<path class="st1" d="M490.96,247.53c-0.83,0-2.08,0-2.5-4.84c-0.32-7.04,2.43-13.1,5.33-19.53c0.44-0.97,0.88-1.95,1.31-2.92
				c0.34-0.77,0.83-1.02,2.03-1.02l0.68,0.02c1.31,0.06,2.63,0.09,3.95,0.09c2.21,0,4.36-0.09,6.39-0.26
				c1.83-0.16,3.6-0.54,5.66-0.99c0.52-0.11,1.05-0.23,1.61-0.34l-0.09,0.2c-0.43,1-0.78,1.82-1.17,2.62
				c-0.67,1.35-1.36,2.69-2.05,4.03c-1.28,2.47-2.6,5.03-3.76,7.62c-3.06,6.88-9.63,13.34-15.3,15.01
				C492.22,247.4,491.53,247.53,490.96,247.53L490.96,247.53z"/>
			<path class="st1" d="M467.21,306.13c-0.14-8.82,6.87-24.25,13.68-29.56c0.08,0.48,0.15,0.95,0.22,1.42
				c0.32,2.1,0.62,4.08,1.29,6.01c0.73,2.09,0.13,3.4-1.22,5.09c-1.14,1.41-2.55,2.91-4.05,4.49
				C473.79,297.12,470.06,301.06,467.21,306.13z"/>
			<path class="st1" d="M551.64,545.59c-0.68-2.81-1.81-4.55-2.82-6.13c-0.65-1.01-1.27-1.97-1.75-3.15
				c-0.34-0.82-0.43-1.8-0.22-2.27c0.98-2.17,2.1-4.32,3.3-6.58l0.28-0.54c1.06,4.64,3.75,9.93,7.22,14.08
				C555.31,541.91,553.12,543.61,551.64,545.59z"/>
			<path class="st1" d="M535.47,318.46c0.54-4.36,1.52-8.28,2.48-12.09c0.25-1.01,0.51-2.02,0.75-3.03l0.13-0.04l6.61,7.99
				C541.82,312.21,538.64,314.49,535.47,318.46z"/>
			<path class="st1" d="M465.87,378.92c-1.3-0.54-2.61-1.11-3.92-1.69c-4.98-2.2-10.13-4.47-14.72-4.47c-0.48,0-0.95,0.03-1.41,0.08
				c-0.32-1.27,0.43-3.26,0.82-4.28l0.17-0.47c1.21-3.38,2.26-6.25,3.28-9.02c1.47-4.02,2.87-7.84,4.59-12.76
				c0.92-2.64,1.71-5.34,2.49-8.03c0.43-1.48,0.86-2.97,1.32-4.44c0.26-0.86,0.57-1.69,0.91-2.58l0.08-0.22
				c0.69,0.72,0.69,1.57,0.69,2.58v0.4c0.05,5.12,0.06,10.24,0.06,15.36l0.01,5.32c0,1.46,0.01,2.88,0.33,4.34l0.53,2.38l1.05-2.2
				c1.67-3.51,1.89-7.24,2.09-10.85l0.08-1.28c0.2-3.15,0.19-6.36,0.19-9.46c0-2.09,0-4.18,0.06-6.27l0.01-0.51
				c0.1-3.58,0.2-7.27,0.69-10.84c0.73-5.29,2.89-10.15,6.41-14.46c3.65-4.44,13.61-13.83,16.14-15.21c1.03-0.57,1.9-0.83,2.72-0.83
				c1.18,0,2.4,0.55,3.97,1.8c0.84,0.67,1.29,1.34,1.33,1.97c0.04,0.57-0.26,1.2-0.89,1.85c-4.85,5.03-8.25,11.08-10.11,17.99
				l-0.7,2.59c-1.49,5.56-3.54,13.19-5.58,19.55c-0.13,0.41-0.15,1.22,0.21,1.73l0.25,0.34l0.61,0.11c0.78,0,1.38-0.75,2.22-2.76
				c1.87-4.47,3.32-9.17,4.72-13.71c0.5-1.62,1-3.24,1.52-4.86c2.29-7.15,5.03-12.3,8.87-16.7c1.64-1.88,3.28-3.92,4.9-5.93
				c1.03-1.28,2.06-2.56,3.08-3.78c0.25-0.3,1.24-1.4,1.5-1.71c0.28,2.37,0.13,4.49-0.44,6.68c-0.2,0.78-0.45,1.41-0.75,1.93
				c-3.47,5.93-5.93,12.39-8.3,18.63c-1.43,3.74-2.9,7.61-4.57,11.31c-3.96,8.75-8.34,17.5-12.58,25.96l-3.35,6.71
				c-2.19,4.4-4.49,8.73-6.8,13.07l-1.88,3.55c-0.43,0.81-0.91,1.58-1.44,2.43L465.87,378.92z"/>
			<path class="st1" d="M616.1,129c-0.41-2.09-0.81-4.11-1.26-6.13c-0.5-2.22-1.01-4.52-1.74-6.75
				c-3.07-9.38-8.87-13.37-19.38-13.37c-10.51,0-16.31,4-19.38,13.37c-0.73,2.23-1.24,4.53-1.74,6.75
				c-0.45,2.02-0.85,4.04-1.26,6.13l-0.37,1.86c-1.11-0.6-1.68-1.41-1.85-2.59c-0.15-1.04-0.28-2.08-0.41-3.12
				c-0.11-0.86-0.22-1.72-0.33-2.57l-1.46-10.14l-0.58-0.12c-4.34-0.9-4.34-0.9-6.01-4.42l-0.87-1.82c-0.81-1.69-1.62-3.39-2.4-5.09
				c-1.41-3.09-0.77-4.78,2.35-6.25c0.91-0.43,1.83-0.83,2.64-1.17l1.28-0.56l0.04-0.5c0.14-1.76,0.24-3.49,0.34-5.18
				c0.21-3.61,0.41-7.02,0.97-10.38c2.36-14.35,14.3-24.38,29.05-24.38c14.75,0,26.7,10.02,29.05,24.38
				c0.55,3.36,0.75,6.77,0.97,10.38c0.1,1.69,0.2,3.42,0.34,5.18l0.04,0.5l1.28,0.56c0.8,0.34,1.72,0.74,2.64,1.17
				c3.12,1.47,3.77,3.16,2.35,6.25c-0.78,1.71-1.59,3.4-2.4,5.09l-0.87,1.82c-1.68,3.52-1.68,3.52-6.01,4.42l-0.58,0.12l-1.46,10.14
				c-0.12,0.86-0.23,1.72-0.33,2.57c-0.13,1.04-0.26,2.08-0.41,3.12c-0.17,1.18-0.74,1.99-1.85,2.59L616.1,129z"/>
			<path class="st1" d="M593.72,179.26c-0.63-2.41-1.38-4.92-2.33-7.24c-2.81-6.81-7.75-10.98-14.68-12.37
				c-2.84-0.57-5.68-0.65-8.07-0.65l-4.82,0.04c-0.96,0-1.92-0.02-2.87-0.06c-0.32-0.01-0.64-0.03-0.95-0.05
				c2.52-1.88,4.96-3.34,6.9-4.45c4.66-2.67,7.2-6.92,7.54-12.61l0.33-5.33c0.17-2.56,0.33-5.12,0.47-7.67
				c0.27-4.97,2.75-12.14,3.9-13.84c0.13-0.25,0.26-0.45,0.38-0.62l-1.25,16.74c-0.11,1.49,0.18,1.99,0.41,2.23l0.25,0.27l0.49,0.06
				c0.75,0,1.25-0.75,1.48-2.21c0.17-1.06,0.54-4.43,0.97-8.28c0.38-3.44,0.81-7.26,1.17-10.15c0.3-2.44,1.34-3.81,3.59-4.76
				c2.91-1.22,6.16-1.31,7.09-1.31s4.19,0.1,7.09,1.31c2.25,0.94,3.29,2.32,3.59,4.75c0.36,2.91,0.79,6.77,1.18,10.23
				c0.43,3.82,0.8,7.15,0.97,8.2c0.23,1.47,0.73,2.21,1.48,2.21h0.37l0.37-0.33c0.23-0.24,0.52-0.74,0.41-2.23l-1.26-16.75
				c0.11,0.15,0.22,0.33,0.33,0.55c1.19,1.78,3.68,8.95,3.95,13.91c0.14,2.6,0.31,5.21,0.48,7.81l0.32,5.19
				c0.34,5.7,2.87,9.94,7.54,12.61c1.94,1.11,4.38,2.57,6.9,4.45c-0.32,0.02-0.63,0.04-0.95,0.05c-0.96,0.04-1.91,0.06-2.87,0.06
				l-4.82-0.04c-2.4,0-5.23,0.08-8.08,0.65c-6.92,1.39-11.86,5.55-14.67,12.37C595.1,174.34,594.34,176.85,593.72,179.26z"/>
			<path class="st3" d="M548.13,753.92c-4.68,0-9.28-0.95-13.74-2.84c-2.25-0.95-4.42-2.72-5.67-4.62
				c-2.56-3.88-6.12-6.22-11.53-7.57c-3.59-0.9-6.84-2.26-9.42-3.93c-4.23-2.75-6.89-6.81-7.48-11.43
				c-0.61-4.7,0.98-9.41,4.47-13.26c4.25-4.68,9.48-7.06,15.56-7.06c0.02,0,0.04,0,0.06,0c2.76,0.01,5.52,0.01,8.18,0.01l2.42,0
				c0.19-1.4,0.38-2.79,0.57-4.18c0.56-4.04,1.14-8.22,1.53-12.33c0.32-3.5,0.26-6.4-0.21-8.88c-3.19-17.09-7.53-34.02-12.88-50.31
				c-1.61-4.91-3.33-10.65-3.31-16.77c0.01-0.71-0.13-1.45-0.28-2.23l-0.04-0.24c-1.17-6.37-1.22-12.78-0.14-19.03
				c0.66-3.82,1.78-7.6,2.87-11.25c0.43-1.45,0.87-2.91,1.27-4.37c1.98-7.15,3.93-13.55,7.61-19.45c0.73-1.17,0.81-2.22,0.3-3.89
				c-0.86-2.83-1.71-5.84-1.77-8.84c-0.09-4.19,0.03-8.44,0.15-12.56c0.07-2.33,0.13-4.67,0.16-7c0.01-0.96,0.05-1.92,0.09-2.88
				c0.1-2.67,0.21-5.43-0.24-7.99l-1.38-7.89c-3.28-18.72-6.67-38.08-8.24-57.38c-2.23-27.48-1.96-48.43,0.89-67.93
				c0.65-4.43,1.29-8.86,5.75-11.19l-0.12-2.34c-0.12-2.41-0.23-4.67-0.38-6.94c-0.04-0.56-0.14-1.12-0.24-1.69
				c-0.21-1.13-0.42-2.3-0.18-3.46c0.31-1.53,0.6-3.06,0.89-4.59c1.42-7.42,2.88-15.1,6-22.27c0.32-0.73,0.4-1.39,0.34-1.57
				c-1.84-2.91-1.14-5.88-0.52-8.5l0.32-1.37c0.67-2.84,1.36-5.77,1.9-8.68c0.53-2.88,1.38-6.06,4.56-8
				c-5.29-11.25-7.25-23.27-9.05-34.96c-0.86,1.38-1.66,2.77-2.45,4.14c-0.58,1-1.15,1.99-1.74,2.98c-1.57,2.61-3.17,5.19-4.78,7.78
				c-1.22,1.96-2.44,3.92-3.64,5.89c-0.26,0.42-0.78,1.28-0.74,1.74c0.48,4.8-0.93,9.14-2.37,12.75l-1.59,3.98
				c-3.72,9.3-7.56,18.92-11.52,28.31c-5.43,12.85-12.07,25.32-18.5,37.38c-2.43,4.55-4.85,9.1-7.21,13.67l-0.12,0.23
				c-0.36,0.71-0.81,1.6-1.62,2.02c-2.21,1.16-2.31,3.03-2.21,5.56c0.12,2.91,0.09,5.9-0.08,8.91c-0.1,1.88-0.23,4.2-0.95,6.29
				c-4.11,11.96-10.66,22.52-17.02,32.32c-1.35,2.08-3.31,3.26-5.53,3.33c-1.7,0.06-2.64,0.86-3.86,2.42
				c-2.81,3.56-6.59,4.74-10.95,3.4c-0.84-0.26-1.98-0.11-3.15,0.08c-2.62,0.43-4.9,0.01-6.61-1.24c-1.58-1.15-2.59-2.96-2.93-5.24
				c-0.07-0.43-0.12-0.86-0.17-1.29c-0.26-2.12-0.48-3.96-2.09-5.38c-0.62-0.55-0.71-1.4-0.78-2.15c-0.02-0.2-0.04-0.41-0.08-0.59
				c-0.63-3.43,0.86-6.21,2.3-8.89c1.44-2.69,2.77-5.34,4.22-8.21l1.15-2.27c-0.2,0.03-0.39,0.06-0.58,0.09
				c-1.52,0.23-2.82,0.42-4.11,0.71c-2.91,0.65-5.62,0.15-8.07-1.48c-2.23-1.49-5.28-3.53-5-7.83c0.28-4.31,3.81-5.63,6.14-6.51
				c4.4-1.65,7.89-4.29,10.67-8.06c3.97-5.38,9.09-11.26,17.01-14.09c0.3-0.11,0.81-0.7,1.03-1.3c1.86-5.09,3.69-10.18,5.52-15.28
				c2.1-5.84,4.2-11.68,6.33-17.51l0.66-1.81c1.21-3.35,2.46-6.82,4.26-9.95c2.52-4.36,3.83-8.97,4-14.09l0.02-0.61
				c0.04-1.35,0.08-2.74,0.32-4.11l0.4-2.39c0.57-3.44,1.16-6.99,2.04-10.43c1.21-4.7,3.7-8.8,6.11-12.76
				c0.84-1.38,1.67-2.76,2.46-4.16c1.48-2.64,3.15-5.41,5.31-7.75c1.52-1.63,2.14-3.27,2.11-5.48c-0.06-3.91,0.72-7.94,2.38-12.32
				l0.36-0.91c0.93-2.36,1.73-4.39,0.54-6.68c-0.36-0.7-0.26-1.48-0.16-2.16c0.03-0.21,0.06-0.42,0.07-0.61
				c0.47-9.33,3.47-18.42,9.19-27.78c0.4-0.65,0.56-1.57,0.67-2.48c0.15-1.18,0.26-2.37,0.37-3.56c0.14-1.49,0.27-2.98,0.49-4.46
				c1.67-11.48,5.53-19.78,12.13-26.14c7.63-7.35,16.88-12.48,28.27-15.67c1.4-0.39,2.81-0.75,4.22-1.12
				c3.83-0.98,7.79-2,11.35-3.62c3.94-1.79,7.72-4.2,11.38-6.53c1.45-0.92,2.9-1.85,4.36-2.74c1.99-1.22,3.14-2.95,3.41-5.16
				c0.2-1.64,0.3-3.29,0.4-4.98c0.03-0.55,0.07-1.1,0.1-1.65c-4.95-2.82-5.78-7.63-5.96-11.06c-0.06-1.08-0.21-2.15-0.36-3.22
				c-0.13-0.95-0.26-1.89-0.34-2.84c-0.1-1.34-0.59-2.06-1.87-2.78c-1.62-0.91-3.12-2.43-4.02-4.06c-1.07-1.94-2-3.98-2.9-5.96
				c-0.68-1.48-1.35-2.97-2.09-4.43c-1.72-3.37-1.29-6.69,1.24-9.61c1.07-1.24,2.36-2.27,3.6-3.27c0.44-0.35,0.88-0.71,1.31-1.07
				c0.16-1.34,0.3-2.71,0.44-4.08c0.34-3.36,0.7-6.84,1.41-10.24c1.77-8.46,8.71-28.12,34.91-28.12c26.2,0,33.14,19.67,34.91,28.12
				c0.71,3.38,1.06,6.85,1.4,10.2c0.14,1.39,0.28,2.77,0.45,4.12c0.43,0.37,0.87,0.72,1.31,1.07c1.24,1,2.53,2.03,3.6,3.27
				c2.53,2.92,2.95,6.25,1.24,9.62c-0.74,1.45-1.42,2.94-2.09,4.42c-0.9,1.97-1.83,4.02-2.9,5.96c-0.9,1.63-2.41,3.15-4.02,4.05
				c-1.28,0.72-1.77,1.44-1.87,2.78c-0.08,0.95-0.21,1.9-0.34,2.85c-0.15,1.07-0.3,2.14-0.36,3.22c-0.18,3.43-1.01,8.24-5.96,11.06
				c0.04,0.56,0.07,1.12,0.11,1.67c0.1,1.67,0.2,3.32,0.4,4.95c0.27,2.21,1.42,3.94,3.41,5.16c1.46,0.89,2.91,1.82,4.36,2.74
				c3.65,2.33,7.43,4.75,11.38,6.53c3.56,1.62,7.52,2.64,11.35,3.62c1.41,0.37,2.82,0.73,4.22,1.12
				c11.39,3.19,20.64,8.32,28.27,15.67c6.6,6.36,10.46,14.67,12.13,26.14c0.22,1.48,0.36,2.97,0.49,4.46
				c0.11,1.19,0.22,2.38,0.37,3.56c0.12,0.9,0.28,1.83,0.67,2.47c5.72,9.36,8.72,18.45,9.19,27.78c0.01,0.2,0.04,0.41,0.07,0.62
				c0.09,0.68,0.2,1.46-0.16,2.15c-1.19,2.29-0.39,4.32,0.54,6.68l0.36,0.91c1.67,4.38,2.44,8.42,2.38,12.32
				c-0.04,2.2,0.59,3.84,2.11,5.48c2.16,2.34,3.83,5.11,5.31,7.75c0.78,1.4,1.62,2.77,2.45,4.14c2.41,3.97,4.91,8.07,6.12,12.77
				c0.88,3.44,1.47,6.99,2.04,10.43l0.4,2.39c0.23,1.37,0.28,2.76,0.32,4.11l0.02,0.62c0.17,5.12,1.48,9.73,4,14.09
				c1.81,3.13,3.06,6.61,4.27,9.97l0.65,1.78c2.13,5.83,4.23,11.67,6.33,17.51c1.83,5.09,3.66,10.19,5.52,15.28
				c0.22,0.6,0.73,1.19,1.03,1.3c7.92,2.83,13.04,8.71,17.01,14.09c2.78,3.77,6.27,6.41,10.67,8.06l0,0
				c2.33,0.88,5.86,2.2,6.14,6.51c0.28,4.3-2.77,6.34-5,7.83c-2.45,1.64-5.15,2.14-8.07,1.48c-1.28-0.29-2.59-0.48-4.11-0.71
				c-0.19-0.03-0.39-0.06-0.58-0.09l1.15,2.27c1.44,2.87,2.78,5.52,4.18,8.14c1.48,2.77,2.96,5.53,2.34,8.96
				c-0.03,0.18-0.05,0.39-0.08,0.59c-0.07,0.75-0.16,1.6-0.78,2.15c-1.61,1.42-1.83,3.26-2.09,5.38c-0.05,0.43-0.1,0.86-0.17,1.29
				c-0.34,2.28-1.35,4.09-2.93,5.24c-1.71,1.24-3.99,1.67-6.61,1.24c-1.18-0.19-2.3-0.35-3.16-0.08c-4.36,1.34-8.15,0.16-10.95-3.4
				c-1.22-1.56-2.16-2.36-3.86-2.42c-2.22-0.07-4.19-1.26-5.53-3.33c-6.37-9.81-12.92-20.38-17.02-32.32
				c-0.72-2.09-0.85-4.42-0.95-6.29c-0.17-3.01-0.19-6-0.08-8.91c0.1-2.53,0-4.41-2.21-5.57c-0.81-0.42-1.26-1.31-1.62-2.02
				l-0.12-0.23c-2.37-4.58-4.79-9.13-7.22-13.68c-6.43-12.06-13.08-24.54-18.5-37.38c-3.96-9.39-7.8-19.01-11.52-28.31l-1.59-3.98
				c-1.45-3.61-2.86-7.95-2.37-12.75c0.04-0.45-0.48-1.32-0.74-1.74c-1.2-1.97-2.42-3.93-3.64-5.89c-1.61-2.58-3.22-5.17-4.78-7.78
				c-0.59-0.99-1.17-1.99-1.75-2.99c-0.78-1.35-1.58-2.74-2.43-4.12c-1.8,11.69-3.77,23.71-9.05,34.96c3.18,1.94,4.02,5.13,4.56,8
				c0.54,2.94,1.25,5.92,1.93,8.8l0.3,1.26c0.65,2.75,1.31,5.6-0.54,8.53c-0.05,0.15,0.03,0.81,0.35,1.54
				c3.13,7.17,4.59,14.85,6,22.27c0.29,1.53,0.58,3.07,0.89,4.59c0.23,1.16,0.02,2.33-0.18,3.46c-0.1,0.57-0.21,1.13-0.24,1.69
				c-0.15,2.27-0.26,4.53-0.38,6.94l-0.12,2.34c4.46,2.33,5.1,6.76,5.73,11.04c2.87,19.65,3.14,40.6,0.91,68.08
				c-1.57,19.29-4.95,38.63-8.23,57.33l-1.38,7.94c-0.44,2.56-0.34,5.32-0.24,7.99c0.04,0.96,0.07,1.92,0.09,2.88
				c0.03,2.31,0.1,4.62,0.16,6.93c0.12,4.14,0.24,8.41,0.15,12.63c-0.06,2.99-0.91,6.01-1.77,8.84c-0.51,1.67-0.42,2.73,0.3,3.89
				c3.68,5.9,5.63,12.3,7.61,19.45c0.4,1.44,0.83,2.88,1.26,4.32c1.09,3.67,2.22,7.46,2.88,11.3c1.08,6.26,1.03,12.66-0.13,19.03
				l-0.05,0.28c-0.14,0.77-0.28,1.49-0.27,2.19c0.02,6.11-1.69,11.86-3.31,16.77c-5.35,16.29-9.69,33.22-12.88,50.31
				c-0.46,2.48-0.53,5.38-0.21,8.88c0.38,4.07,0.96,8.21,1.51,12.21c0.2,1.43,0.4,2.87,0.59,4.3l2.42,0c2.66,0,5.43,0.01,8.18-0.01
				c6.08,0.09,11.36,2.36,15.62,7.06c3.49,3.84,5.08,8.55,4.47,13.26c-0.6,4.61-3.25,8.67-7.48,11.43
				c-2.58,1.67-5.83,3.03-9.42,3.93c-5.42,1.35-8.97,3.69-11.53,7.57c-1.25,1.9-3.42,3.67-5.68,4.62
				c-7.05,2.99-14.45,3.62-21.99,1.88c-2.99-0.69-4.95-2.38-6.17-5.31c-2.66-6.37-3.58-12.98-2.75-19.64
				c0.49-3.94,0.04-7.72-0.45-11.71l-0.38-3.05c-0.34-2.59-0.68-5.26-0.79-7.92c-0.29-7.44,0.82-15.08,3.42-23.34
				c1.97-6.26,2.33-12.15,1.1-18c-1.03-4.94-2.04-9.88-3.05-14.83c-1.01-4.94-2.02-9.88-3.05-14.82c-0.29-1.39-0.67-2.45-1.17-3.23
				c-5.61-8.82-7.32-19.2-5.24-31.74c0.69-4.19,1.92-8.33,3.1-12.33c0.51-1.72,1.01-3.43,1.48-5.15c0.21-0.77,0.48-1.53,0.75-2.29
				l0.36-1.04c1.17-3.48,1.8-6.37-1.52-9.25c-2.21-1.92-3.48-5-4.53-8.04c-2.75-8-5.18-15.24-7.08-22.72l-0.9-3.52
				c-2.35-9.21-4.58-17.91-6.25-28.72c-1-7.31-1.79-15.56-2.06-21.53l-0.22-4.71c-0.69-14.85-1.54-33.34-0.05-57.34
				c0.15-2.59,0.28-5.19,0.41-7.78c0.16-3.27,0.32-6.54,0.53-9.81c0.1-1.5,0.33-3.01,0.59-4.75c0.12-0.76,0.24-1.57,0.36-2.47
				c-0.3-0.27-0.67-0.58-1.08-0.93c-0.78-0.67-1.72-1.47-2.71-2.36c-0.98,0.88-1.92,1.68-2.7,2.35c-0.42,0.35-0.79,0.67-1.09,0.94
				c0.12,0.9,0.25,1.71,0.36,2.47c0.26,1.74,0.49,3.24,0.59,4.75c0.21,3.27,0.37,6.54,0.53,9.81c0.13,2.6,0.26,5.19,0.41,7.79
				c1.49,24.04,0.63,42.55-0.06,57.42l-0.21,4.63c-0.27,5.98-1.05,14.23-2.05,21.52c-1.68,10.83-3.9,19.52-6.26,28.73l-0.9,3.52
				c-1.9,7.48-4.33,14.72-7.08,22.72c-1.05,3.04-2.32,6.12-4.53,8.04c-3.31,2.88-2.68,5.77-1.52,9.25l0.36,1.04
				c0.27,0.76,0.54,1.52,0.75,2.29c0.47,1.72,0.97,3.44,1.48,5.15c1.18,4,2.4,8.14,3.1,12.33c2.08,12.54,0.37,22.92-5.24,31.74
				c-0.5,0.79-0.88,1.85-1.17,3.23c-1.02,4.86-2.01,9.73-3,14.59c-1.02,5.02-2.04,10.04-3.09,15.05c-1.22,5.86-0.86,11.74,1.1,18
				c2.59,8.26,3.71,15.9,3.42,23.34c-0.11,2.66-0.45,5.34-0.79,7.93l-0.38,3.05c-0.48,3.99-0.94,7.77-0.45,11.71
				c0.84,6.67-0.09,13.28-2.74,19.64c-1.22,2.93-3.18,4.61-6.17,5.31C553.61,753.6,550.85,753.92,548.13,753.92z M520.31,705.19
				c-5.5,0-10.25,2.16-14.11,6.42c-3.1,3.41-4.51,7.56-3.98,11.69c0.52,4.03,2.87,7.6,6.61,10.03c2.39,1.56,5.45,2.83,8.83,3.68
				c5.93,1.48,9.84,4.07,12.7,8.39c1.05,1.59,2.89,3.08,4.8,3.89c6.67,2.82,13.66,3.42,20.79,1.77c2.39-0.55,3.83-1.79,4.81-4.15
				c2.52-6.05,3.4-12.32,2.61-18.64c-0.53-4.18-0.03-8.25,0.44-12.19l0.39-3.07c0.33-2.54,0.67-5.17,0.78-7.75
				c0.28-7.21-0.81-14.63-3.33-22.67c-2.07-6.59-2.45-12.8-1.15-18.99c1.05-5.01,2.07-10.03,3.09-15.04c0.99-4.87,1.98-9.74,3-14.6
				c0.34-1.62,0.81-2.89,1.43-3.88c5.34-8.39,6.96-18.33,4.96-30.37c-0.68-4.07-1.88-8.15-3.05-12.09c-0.51-1.73-1.02-3.46-1.49-5.2
				c-0.2-0.72-0.45-1.43-0.7-2.15l-0.37-1.07c-1.26-3.74-2.13-7.7,2.08-11.36c1.87-1.62,3.05-4.55,3.96-7.2
				c2.74-7.96,5.16-15.16,7.04-22.57l0.9-3.52c2.34-9.16,4.55-17.82,6.22-28.53c0.99-7.22,1.77-15.4,2.04-21.32l0.21-4.63
				c0.69-14.82,1.55-33.27,0.06-57.21c-0.15-2.6-0.28-5.2-0.41-7.81c-0.16-3.26-0.32-6.52-0.53-9.78c-0.09-1.42-0.3-2.81-0.57-4.58
				c-0.14-0.91-0.29-1.9-0.44-3.02l-0.07-0.51l0.38-0.35c0.37-0.33,0.89-0.78,1.52-1.32c0.93-0.8,2.1-1.8,3.31-2.9l0.66-0.61
				l0.66,0.61c1.21,1.11,2.38,2.11,3.32,2.91c0.62,0.53,1.14,0.98,1.51,1.31l0.38,0.35l-0.07,0.51c-0.15,1.12-0.3,2.11-0.44,3.02
				c-0.27,1.77-0.47,3.16-0.57,4.58c-0.21,3.26-0.37,6.52-0.53,9.78c-0.13,2.6-0.26,5.2-0.41,7.8c-1.48,23.9-0.63,42.33,0.06,57.13
				l0.21,4.71c0.27,5.93,1.05,14.1,2.04,21.34c1.66,10.7,3.87,19.35,6.21,28.52l0.9,3.52c1.88,7.41,4.3,14.6,7.04,22.57
				c0.91,2.65,2.09,5.58,3.96,7.2c4.21,3.67,3.34,7.62,2.08,11.36l-0.37,1.07c-0.25,0.71-0.5,1.42-0.7,2.15
				c-0.47,1.74-0.98,3.47-1.49,5.2c-1.17,3.94-2.37,8.02-3.05,12.09c-2,12.04-0.38,21.98,4.96,30.37c0.63,0.99,1.1,2.26,1.43,3.88
				c1.03,4.94,2.04,9.88,3.05,14.83c1.01,4.94,2.02,9.88,3.05,14.82c1.29,6.19,0.92,12.4-1.15,18.99
				c-2.53,8.04-3.61,15.46-3.33,22.68c0.1,2.57,0.45,5.2,0.78,7.75l0.39,3.07c0.48,3.93,0.97,8.01,0.44,12.19
				c-0.79,6.32,0.09,12.59,2.61,18.64c0.98,2.36,2.42,3.6,4.81,4.15c7.12,1.65,14.12,1.06,20.79-1.77c1.91-0.81,3.75-2.3,4.8-3.89
				c2.85-4.32,6.77-6.91,12.7-8.39c3.38-0.85,6.43-2.12,8.83-3.68c3.74-2.43,6.09-6,6.61-10.03c0.53-4.12-0.88-8.27-3.98-11.69
				c-3.86-4.26-8.61-6.42-14.11-6.42c-1.6,0.06-3.16,0.01-4.73,0.01c-1.19,0-2.36,0-3.52,0h-4.14l-0.11-0.85
				c-0.22-1.72-0.46-3.43-0.7-5.14c-0.56-4.02-1.13-8.18-1.52-12.3c-0.34-3.68-0.27-6.77,0.23-9.42
				c3.21-17.17,7.56-34.19,12.94-50.56c1.56-4.76,3.23-10.33,3.21-16.15c0-0.88,0.15-1.73,0.31-2.56l0.05-0.28
				c1.13-6.15,1.17-12.32,0.13-18.35c-0.64-3.72-1.76-7.46-2.83-11.07c-0.43-1.45-0.87-2.9-1.27-4.36c-1.95-7-3.84-13.26-7.39-18.94
				c-1.3-2.08-0.99-3.94-0.52-5.5c0.82-2.7,1.63-5.57,1.68-8.31c0.09-4.17-0.03-8.42-0.15-12.53c-0.07-2.32-0.13-4.64-0.17-6.96
				c-0.01-0.94-0.05-1.88-0.08-2.83c-0.11-2.77-0.22-5.64,0.27-8.41l1.38-7.94c3.27-18.66,6.64-37.95,8.2-57.15
				c2.22-27.33,1.95-48.15-0.87-67.49c-0.65-4.46-1.2-8.18-5.22-9.98l-0.61-0.27l0.18-3.66c0.12-2.42,0.23-4.7,0.38-6.97
				c0.04-0.63,0.16-1.28,0.27-1.92c0.18-0.99,0.35-1.93,0.19-2.72c-0.31-1.53-0.6-3.07-0.89-4.61c-1.39-7.32-2.84-14.89-5.88-21.86
				c-0.28-0.66-0.88-2.31-0.21-3.37c1.41-2.24,0.89-4.46,0.29-7.04l-0.3-1.25c-0.69-2.9-1.4-5.9-1.95-8.89
				c-0.62-3.38-1.57-5.73-4.34-7.06l-0.89-0.42l0.43-0.89c5.65-11.62,7.59-24.25,9.47-36.47l0.58-3.79l1.4,2.07
				c1.45,2.14,2.7,4.3,3.9,6.39c0.58,1,1.14,1.98,1.73,2.97c1.56,2.6,3.16,5.17,4.77,7.75c1.22,1.97,2.45,3.93,3.65,5.91
				c0.57,0.93,1.12,1.93,1.01,2.95c-0.44,4.38,0.88,8.44,2.24,11.83l1.59,3.98c3.71,9.29,7.55,18.9,11.5,28.27
				c5.39,12.77,12.02,25.2,18.42,37.23c2.43,4.55,4.85,9.11,7.22,13.69l0.12,0.24c0.21,0.42,0.53,1.04,0.78,1.18
				c3.48,1.82,3.35,5.03,3.26,7.38c-0.11,2.84-0.08,5.78,0.08,8.72c0.1,1.75,0.22,3.93,0.85,5.76
				c4.03,11.73,10.51,22.18,16.81,31.88c0.99,1.52,2.39,2.39,3.95,2.44c2.71,0.09,4.12,1.62,5.34,3.17
				c2.33,2.96,5.21,3.86,8.83,2.74c1.26-0.38,2.63-0.21,4.05,0.03c2.08,0.35,3.86,0.04,5.13-0.89c1.16-0.85,1.89-2.18,2.15-3.94
				c0.06-0.42,0.11-0.83,0.16-1.24c0.28-2.31,0.57-4.7,2.74-6.61c0.05-0.1,0.1-0.58,0.13-0.87c0.03-0.26,0.05-0.52,0.09-0.76
				c0.51-2.75-0.75-5.1-2.09-7.58c-1.46-2.72-2.8-5.39-4.25-8.27l-2.88-5.69l1.91,0.31c0.88,0.15,1.7,0.27,2.45,0.38
				c1.57,0.23,2.92,0.44,4.25,0.74c2.39,0.53,4.53,0.14,6.55-1.2c2.54-1.7,4.33-3.13,4.13-6.07c-0.19-2.82-2.23-3.81-4.88-4.8
				c-4.77-1.79-8.55-4.65-11.56-8.74c-3.79-5.14-8.67-10.76-16.09-13.41c-1.04-0.37-1.88-1.54-2.21-2.47
				c-1.86-5.09-3.69-10.19-5.52-15.28c-2.1-5.84-4.19-11.67-6.33-17.5l-0.65-1.79c-1.18-3.28-2.41-6.67-4.13-9.66
				c-2.68-4.65-4.08-9.56-4.26-15.01l-0.02-0.62c-0.04-1.28-0.08-2.6-0.28-3.83l-0.4-2.4c-0.57-3.4-1.15-6.91-2.01-10.26
				c-1.13-4.42-3.55-8.4-5.89-12.24c-0.85-1.39-1.7-2.79-2.49-4.21c-1.42-2.54-3.02-5.19-5.04-7.38c-1.86-2.02-2.67-4.13-2.62-6.84
				c0.06-3.66-0.67-7.45-2.25-11.6l-0.35-0.89c-0.97-2.44-2.06-5.22-0.46-8.3c0.07-0.14,0-0.67-0.04-0.99
				c-0.03-0.27-0.07-0.53-0.08-0.78c-0.45-8.99-3.37-17.78-8.91-26.86c-0.59-0.96-0.8-2.13-0.94-3.25
				c-0.16-1.21-0.27-2.42-0.38-3.63c-0.13-1.46-0.27-2.91-0.48-4.36c-1.61-11.02-5.28-18.97-11.56-25.01
				c-7.39-7.12-16.37-12.09-27.44-15.19c-1.38-0.39-2.78-0.75-4.18-1.11c-3.91-1-7.95-2.04-11.67-3.73
				c-4.07-1.85-7.91-4.3-11.62-6.67c-1.43-0.92-2.87-1.83-4.32-2.72c-2.5-1.52-4-3.81-4.33-6.6c-0.2-1.67-0.31-3.35-0.41-5.07
				c-0.05-0.76-0.09-1.52-0.15-2.29l-0.05-0.65l0.58-0.29c3.56-1.8,5.2-4.71,5.47-9.72c0.06-1.13,0.22-2.26,0.37-3.39
				c0.13-0.91,0.25-1.82,0.32-2.73c0.16-2,1.01-3.29,2.87-4.33c1.29-0.72,2.54-1.99,3.26-3.29c1.04-1.88,1.95-3.88,2.84-5.82
				c0.69-1.51,1.38-3.02,2.13-4.5c1.37-2.68,1.05-5.11-0.97-7.44c-0.96-1.1-2.12-2.03-3.35-3.02c-0.56-0.44-1.12-0.89-1.66-1.36
				l-0.28-0.25l-0.05-0.38c-0.19-1.5-0.34-3.02-0.5-4.55c-0.34-3.3-0.69-6.71-1.37-10c-1.67-7.98-8.23-26.56-32.99-26.56
				c-24.76,0-31.32,18.57-32.99,26.56c-0.69,3.3-1.04,6.73-1.38,10.04c-0.16,1.52-0.31,3.02-0.49,4.5l-0.05,0.38l-0.28,0.25
				c-0.54,0.47-1.1,0.91-1.66,1.36c-1.23,0.99-2.39,1.92-3.35,3.02c-2.02,2.33-2.33,4.77-0.97,7.44c0.75,1.48,1.44,2.99,2.13,4.5
				c0.88,1.94,1.8,3.95,2.84,5.82c0.72,1.31,1.97,2.57,3.26,3.3c1.85,1.03,2.71,2.33,2.86,4.33c0.07,0.91,0.2,1.82,0.33,2.73
				c0.16,1.13,0.31,2.26,0.37,3.39c0.27,5.02,1.91,7.92,5.47,9.72l0.58,0.29l-0.05,0.65c-0.06,0.76-0.1,1.52-0.15,2.26
				c-0.11,1.72-0.21,3.41-0.42,5.09c-0.33,2.79-1.83,5.07-4.33,6.6c-1.45,0.88-2.89,1.8-4.32,2.72c-3.71,2.37-7.55,4.82-11.62,6.67
				c-3.72,1.69-7.77,2.73-11.67,3.73c-1.4,0.36-2.8,0.72-4.18,1.11c-11.07,3.1-20.05,8.07-27.44,15.19
				c-6.27,6.04-9.94,13.99-11.56,25.01c-0.21,1.45-0.34,2.9-0.48,4.36c-0.11,1.21-0.23,2.42-0.38,3.63
				c-0.14,1.12-0.36,2.29-0.95,3.25c-5.54,9.07-8.45,17.86-8.9,26.86c-0.01,0.25-0.05,0.51-0.08,0.78
				c-0.04,0.32-0.12,0.85-0.04,0.99c1.6,3.08,0.5,5.86-0.46,8.3l-0.35,0.89c-1.58,4.15-2.31,7.94-2.25,11.6
				c0.04,2.72-0.77,4.83-2.63,6.84c-2.02,2.19-3.61,4.84-5.03,7.38c-0.8,1.42-1.65,2.82-2.5,4.22c-2.34,3.84-4.75,7.81-5.88,12.23
				c-0.86,3.36-1.44,6.87-2.01,10.26l-0.4,2.4c-0.21,1.23-0.25,2.55-0.28,3.83l-0.02,0.62c-0.18,5.46-1.58,10.37-4.27,15.01
				c-1.72,2.98-2.94,6.36-4.12,9.63l-0.66,1.82c-2.14,5.83-4.23,11.66-6.33,17.5c-1.83,5.1-3.67,10.2-5.52,15.29
				c-0.34,0.92-1.17,2.1-2.21,2.47c-7.42,2.66-12.3,8.27-16.09,13.41c-3.02,4.09-6.8,6.95-11.56,8.74c-2.65,0.99-4.69,1.98-4.88,4.8
				c-0.19,2.94,1.59,4.37,4.13,6.07c2.02,1.34,4.15,1.73,6.55,1.2c1.33-0.3,2.67-0.5,4.25-0.74c0.76-0.11,1.57-0.23,2.45-0.38
				l1.91-0.31l-2.88,5.69c-1.45,2.88-2.8,5.55-4.2,8.18c-1.38,2.57-2.64,4.92-2.14,7.67c0.04,0.24,0.07,0.49,0.09,0.76
				c0.03,0.29,0.08,0.77,0.16,0.91c2.14,1.88,2.43,4.27,2.71,6.58c0.05,0.41,0.1,0.83,0.16,1.24c0.26,1.77,0.99,3.1,2.15,3.94
				c1.28,0.93,3.04,1.23,5.13,0.89c1.41-0.24,2.78-0.42,4.05-0.03c3.63,1.12,6.51,0.22,8.83-2.74c1.22-1.55,2.63-3.07,5.34-3.17
				c1.56-0.05,2.96-0.92,3.95-2.44c6.29-9.69,12.77-20.14,16.81-31.88c0.63-1.83,0.75-4.01,0.85-5.76c0.16-2.95,0.19-5.88,0.08-8.73
				c-0.1-2.34-0.23-5.56,3.25-7.38c0.26-0.13,0.58-0.76,0.79-1.18l0.13-0.25c2.37-4.58,4.79-9.14,7.22-13.69
				c6.41-12.02,13.03-24.46,18.42-37.23c3.96-9.37,7.79-18.98,11.5-28.27l1.59-3.98c1.36-3.39,2.68-7.45,2.24-11.83
				c-0.1-1.03,0.47-2.07,1.01-2.96c1.21-1.98,2.43-3.94,3.65-5.91c1.6-2.57,3.21-5.15,4.77-7.75c0.58-0.98,1.15-1.96,1.72-2.95
				c1.21-2.09,2.46-4.26,3.92-6.4l1.4-2.06l0.58,3.77c1.88,12.23,3.81,24.87,9.47,36.49l0.43,0.89l-0.89,0.42
				c-2.77,1.33-3.72,3.68-4.34,7.06c-0.54,2.95-1.24,5.91-1.92,8.77l-0.33,1.37c-0.61,2.57-1.13,4.8,0.29,7.03
				c0.69,1.1,0.01,2.86-0.22,3.38c-3.03,6.97-4.48,14.54-5.87,21.85c-0.29,1.54-0.59,3.08-0.89,4.62c-0.16,0.79,0.01,1.73,0.19,2.72
				c0.12,0.64,0.23,1.28,0.27,1.92c0.15,2.27,0.26,4.55,0.38,6.97l0.18,3.66l-0.61,0.27c-4.03,1.8-4.57,5.52-5.2,9.83
				c-2.85,19.5-3.12,40.31-0.9,67.64c1.56,19.22,4.94,38.52,8.21,57.2l1.38,7.89c0.48,2.77,0.37,5.63,0.27,8.41
				c-0.04,0.94-0.07,1.89-0.08,2.83c-0.03,2.34-0.1,4.69-0.17,7.03c-0.12,4.09-0.24,8.32-0.15,12.46c0.06,2.75,0.87,5.62,1.68,8.32
				c0.47,1.56,0.78,3.42-0.52,5.5c-3.54,5.68-5.44,11.94-7.39,18.94c-0.41,1.47-0.84,2.93-1.28,4.4c-1.07,3.6-2.18,7.32-2.82,11.02
				c-1.04,6.03-1,12.2,0.13,18.34c0.2,1.08,0.36,1.94,0.36,2.84c-0.02,5.82,1.64,11.38,3.21,16.14
				c5.38,16.38,9.73,33.39,12.94,50.56c0.5,2.66,0.57,5.74,0.23,9.42c-0.39,4.15-0.97,8.35-1.53,12.42
				c-0.23,1.67-0.47,3.35-0.68,5.02l-0.11,0.85h-4.14c-2.66,0.01-5.42,0-8.19,0C520.34,705.19,520.33,705.19,520.31,705.19z"/>
		</g>
	</g>
</g>
</svg>
