<?xml version="1.0" encoding="utf-8"?>
<!-- Generator: Adobe Illustrator 26.4.1, SVG Export Plug-In . SVG Version: 6.00 Build 0)  -->
<svg version="1.1" id="圖層_1" xmlns="http://www.w3.org/2000/svg" xmlns:xlink="http://www.w3.org/1999/xlink" x="0px" y="0px"
	 viewBox="0 0 800 800" style="enable-background:new 0 0 800 800;" xml:space="preserve">
<style type="text/css">
	.st0{fill:none;}
	.st1{opacity:0.75;fill:#FFFFFF;enable-background:new    ;}
	.st2{fill:#E60012;}
	.st3{fill:#FFFFFF;}
</style>
<g>
	<rect class="st0" width="800" height="800"/>
	<g>
		<g>
			<path class="st1" d="M250.3,540.4c-21.1-22.3-25.1-54.5-26.1-80.2c0.1-24.6,7-49,13.6-72.5c2.9-10.1,5.8-20.6,8.2-31
				c0.9,12.3,1.9,24.6,2.8,36.9c1.4,18.5,2.8,37,4.2,55.5c0.3,15.7-0.5,31.7-1.3,47.1C250.9,510.7,250.2,525.6,250.3,540.4z"/>
			<path class="st1" d="M230.6,694.6c0-5.2,1-10.4,1.9-15.4c1.7-9.3,3.5-18.9-0.7-28.8c-13-32.3-12.4-46.8-5.9-79.8
				c9.7,37.7,19.3,76.6,7.5,114.5l1.6,0.6c6.6-13.4,7.5-28.6,8.3-43.3l0-0.4c0.2-10.2,0.8-20.5,1.4-30.4c1.4-23.3,2.8-47.3-1.4-71
				C272.5,581.7,266.6,656,230.6,694.6z"/>
			<path class="st1" d="M219,230.4c-13.4,0-22.4-9.1-22.6-22.5c0-1.5,0.3-13,0.7-17.1c0.6-5.9,3.6-9.9,9.1-12
				c4.2-1.6,8.5-3,12.7-4.5c2-0.7,4.1-1.4,6.1-2.1c1.1-0.4,2.2-0.6,3.2-0.6c2.1,0,3.9,0.8,5.5,2.4c1.5,1.5,3.1,3.2,4.1,5.1
				c2.7,5.4,5.4,10.9,8,16.4c2.2,4.5,4.4,9,6.6,13.5c1.2,2.5,1.1,4.1-0.4,5.6C240.6,225.6,230.5,230.4,219,230.4L219,230.4z"/>
			<path class="st1" d="M166.6,230.4c-11.5,0-21.6-4.8-32.7-15.6c-1.6-1.5-1.7-3.1-0.5-5.6c2.2-4.5,4.4-9.1,6.6-13.6
				c2.6-5.4,5.2-10.9,7.9-16.3c1-1.9,2.6-3.6,4.1-5.1c1.6-1.6,3.4-2.4,5.5-2.4c1,0,2.1,0.2,3.2,0.6c2,0.7,4.1,1.4,6.1,2.1
				c4.2,1.4,8.5,2.9,12.7,4.5c5.4,2.1,8.5,6.1,9.1,12c0.4,4.1,0.7,15.6,0.7,17.1C189.1,221.4,180,230.4,166.6,230.4L166.6,230.4
				L166.6,230.4z"/>
			<path class="st1" d="M343.4,436.2c-1.1,0-3-1.1-3.6-2.4c-0.9-1.6-1.9-3.4-3-5.4c-2-3.5-4-7-5.4-9.7c-0.7-1.5-1.5-2.3-2.4-2.3
				c-0.5,0-0.9,0.2-1.1,0.6c-0.5,0.8-0.3,2,0.5,3.5c0.4,0.9,0.9,1.8,1.4,2.7c0.6,1.1,1.1,2.2,1.7,3.4c0.2,0.5,0.5,0.9,0.7,1.4
				c0.2,0.4,0.4,0.8,0.6,1.2c-0.2,0.1-0.4,0.1-0.6,0.1c-0.5,0-0.9-0.3-1.5-1.2c-1-1.4-1.9-2.9-2.8-4.3c-1-1.6-2-3.1-3-4.7
				c-1-1.5-2.1-3.1-3.2-4.6c-1.4-1.9-2.7-3.8-4-5.7c-2-3.1-4-6.2-5.5-9.4c-1.2-2.6-1.3-5.5-0.2-8.3c1.8-4.4,2.4-9.2,1.9-14.7
				l-0.1-1.3c-0.8-10.2-1.7-20.8-4.1-31c0.3,0.4,0.6,0.8,0.9,1.3l13.9,19.8c2.6,3.6,5.5,7.3,10.6,8.5c1.1,0.3,2.3,1.1,3.7,2.5
				c2.6,2.6,5.2,5.3,7.8,8c2.1,2.2,4.2,4.4,6.4,6.6c1.1,1.1,2.5,2,3.8,2.8c0.6,0.4,1.2,0.6,1.9,0.9c0.5,0.2,0.9,0.4,1.3,0.6
				c0.3,0.2,0.7,0.3,1.1,0.5c1.2,0.4,1.4,0.6,1.4,1.2c-0.1,0.7-0.4,1.8-2.8,2.5c-0.4,0.1-0.9,0.2-1.5,0.2c-0.5,0-1,0-1.5-0.1
				c-2.6-0.5-4.9-1-7-1.6c-0.8-0.2-1.5-0.3-2.1-0.3c-1.4,0-2.6,0.5-3.9,1.4L343,399l0.2,0.6c0.1,0.2,0.1,0.4,0.2,0.7
				c0.2,0.6,0.4,1.2,0.7,1.8c1.6,2.9,3.3,5.7,4.9,8.5c1.9,3.4,3.9,6.7,5.8,10.1c2,3.1,2.1,4.8,1.8,5.4c-0.1,0.1-0.2,0.2-0.5,0.2
				c-0.9,0-2.6-1.1-4.1-3.6c-1.7-2.9-3.5-5.6-5.2-8.3c-1.7-2.6-3.3-5.2-5-8c-0.7-1.3-1.4-2-2.2-2c-0.5,0-0.9,0.3-1.1,0.7
				c-0.5,0.9-0.2,2.3,0.7,3.6c2,3.7,4.1,7.4,6.3,11.1c2.2,3.7,4.3,7.5,6.4,11.3c1,1.7,1.2,3.1,0.8,3.9c-0.2,0.3-0.5,0.5-1,0.5
				c-1.2,0-3.1-1.2-4.4-4c-1.4-2.6-2.9-5.2-4.4-7.9c-2-3.5-4-7-5.7-10.3c-0.8-1.4-1.7-2.1-2.6-2.1c-0.5,0-1,0.3-1.3,0.8
				c-0.5,0.8-0.3,2.1,0.5,3.5c0.8,1.4,1.5,2.8,2.4,4.1c1,1.7,2,3.3,2.8,5.1c0.6,1.1,1.2,2.2,1.8,3.4c1,1.8,2,3.5,2.8,5.3
				c0.9,2,0.6,2.6,0.5,2.7C343.8,436.2,343.7,436.2,343.4,436.2z"/>
			<path class="st1" d="M212.5,466.5c-5.6-19.6-9.1-42-10.7-68.4c-0.9-5.6,1.3-9.5,6.2-11.2c12.5-6.5,21.4-16.9,30-26.9
				c1-1.1,1.9-2.3,2.9-3.4c-4.1,17.4-8.9,34.9-13.5,51.8C222.2,427.3,216.9,446.9,212.5,466.5z"/>
			<path class="st1" d="M267.1,747.9c-5.8,0-10.4-3.3-15.3-6.7c-3.6-2.6-7.4-5.3-11.9-6.6c-7.7-3.4-8-13.5-8.3-22.5
				c-0.1-2.5-0.2-5-0.4-7.1c0.2-5.9,4.4-10.2,8.7-14.6c3.4-3.4,6.8-7,8.6-11.5c0.8,3.4,1.1,7,1.4,10.6c0.6,6.2,1.1,12.6,4.2,18
				c4.2,6.2,10.1,10.8,15.7,15.3c6.6,5.2,12.8,10.1,16.7,17.2c0.1,0.5,0,1.2-0.4,1.8c-1.7,2.7-8.3,4.2-12.7,5.1
				c-1.4,0.3-2.6,0.5-3.4,0.8C269.2,747.8,268.1,747.9,267.1,747.9z"/>
			<path class="st1" d="M292.3,296.1c-15.3-20.7-24.4-44.9-27.8-74c-0.2-1.7-0.1-3.5,0-5.2c0.1-2,0.6-2.1,1.6-2.1c0.2,0,0.4,0,0.6,0
				c2.1,0.2,4.3,0.7,6.6,1.4c1.9,0.6,3.8,1.3,5.5,2l1.9,0.8c5.7,2.2,10.3,6.1,13.6,11.6c4.8,7.9,7,15.8,6.9,24.3
				c-0.1,5.7-1.5,10.3-4.4,14.3c-3.2,4.3-3.8,9.4-4.1,13.9c-0.2,2.1-0.2,4.3-0.2,6.5c0,1.3,0,2.6-0.1,3.9
				C292.4,294.3,292.4,295.2,292.3,296.1z"/>
			<path class="st1" d="M288.6,219.1c-7.9-5.2-16.4-7.5-24.4-9.3c-4.5-1-7.6-3.2-9.7-6.9l-1.2-2.2c-4.2-7.3-8.5-14.9-11.4-23
				c-1-2.8-0.6-4.2,1.8-6.5c2.8-2.6,5.8-3.9,9.5-3.9c1.2,0,2.4,0.1,3.8,0.4c7.8,1.4,15.9,3.7,21.7,10.6c6.3,7.4,9.6,14.8,9.9,22.6
				c0.2,4.3,0.1,8.7,0.1,13.2C288.6,215.8,288.6,217.4,288.6,219.1z"/>
			<path class="st1" d="M255.6,500.3c2.1-28.9,3.2-49.1,0.2-74.7c-2.5-25-4.8-51.8-4-81.6l1.6,5.8
				C269.3,407,278.3,439.2,255.6,500.3z"/>
			<path class="st2" d="M194.9,383.5c-0.1-0.6-0.1-1.2-0.1-1.7l0.1-9c0.2-12,0.3-24.1,0.6-36.1c0.1-2.2,0.4-4.5,0.8-6.7
				c0.2-1,0.3-2,0.4-3c0.3-2.1,1.4-3.4,3.3-4l3.3-0.9c4-1.1,8.1-2.3,12.1-3.4c0.4-0.1,0.9-0.1,1.3-0.2c0.2,0,0.4,0,0.6,0
				c1.3,0,2.2,0.3,2.7,0.8c0.6,0.6,0.9,1.5,0.9,2.9c0,3-0.1,7-0.7,10.9c-1.6,10.8-4.8,21.1-9.1,33.3c-2.3,6.3-5.4,11-9.6,14.4
				c-2,1.6-3.8,2.4-6.8,2.9L194.9,383.5z"/>
			<path class="st1" d="M246.8,291.8c-0.2-0.4-0.3-0.7-0.4-1.1c-1.3-4.2-3.7-8-7.2-11.6l-1.6-1.6c-1.3-1.4-2.7-2.7-4-4.1
				c-3.3-3.6-5.2-7.4-6-11.7c-0.9-4.9-1.9-9.7-2.9-14.5c-0.6-2.8-1.2-5.6-1.7-8.4c-0.6-3-0.3-3.3,2.6-4.3c4.4-1.6,8.8-3.2,13.1-4.9
				l5.9-2.2l4.5-1.7c0.1,0.2,0.1,0.4,0.1,0.5c0.2,0.9,0.5,1.6,0.5,2.3c1.1,11.6,2.2,25.1,0.7,38.5l-0.6,5
				c-0.6,5.3-1.2,10.6-1.8,15.9C247.9,289.4,247.6,290.7,246.8,291.8z"/>
			<path class="st1" d="M306.9,373.4c-9-18.5-18.2-37.6-24.9-57.5c-1-3.1-2.2-6.8-3.1-10.6c-1.2-4.8-2.4-9.5-4.6-13.9
				c-1.4-2.8-1.8-6-1.2-9.6c0.1-0.7,0.4-1.3,0.8-2.2c0.1-0.2,0.1-0.3,0.2-0.5c0.1,0.1,0.3,0.2,0.4,0.4c0.7,0.6,1.3,1.1,1.8,1.7
				c1.7,2,3.4,4,5.1,6.1l1.3,1.5c4.4,5.3,7.8,11,10.1,17.1c6,15.8,12,32.9,14.8,51.2c0.8,5.1,1.3,10.3,1.7,15.4l0.1,1.7
				c0.1,1.4,0.1,2.8,0.1,4.4c0,0,0,0,0,0L306.9,373.4z"/>
			<path class="st2" d="M211.1,376c0.4-0.8,0.7-1.5,1.1-2.2c4.4-9.8,8.8-19.7,11-30.4c1.2-6.1,2-12.4,2.8-18.5l0.1-0.5
				c0.4-3,1.2-4.5,2.9-5.5c6.2-3.4,11.1-8.6,15.2-16.2c1.9,5.9,2.7,11.5,3.2,15.8c0,0.2,0,0.5,0.1,0.7c0,0.3,0,0.6,0.1,0.9
				c1.1,9.4-1.4,18.6-7.8,27.9c-5.3,7.7-10.6,15.5-18.1,21.4c-2.3,1.8-4.9,3.3-7.4,4.8C213.2,374.8,212.1,375.4,211.1,376z"/>
			<path class="st1" d="M329.3,363.9c-0.2-0.2-0.5-0.5-0.7-0.8c-16.4-19.7-26.3-39.6-30.5-60.6c-0.9-4.8-1.5-10.1-1.8-16.6
				c-0.1-2.5,0.6-5.1,1.3-7.7l0.2-0.7c0.2-0.7,0.7-1.5,1.4-2.4c0.2-0.2,0.4-0.5,0.5-0.7c0.2,0.2,0.5,0.5,0.7,0.7
				c0.8,0.9,1.6,1.6,2.1,2.4c6.9,9.6,11.3,20.9,13.1,33.6c0.3,2.3,0.6,4.7,1,7c0.8,5.8,1.6,11.8,2.7,17.6c1.6,8.5,4.8,17.4,9.8,28
				C329.2,363.9,329.2,363.9,329.3,363.9z"/>
			<path class="st1" d="M239.6,610.4c-1.4-6.6-3.1-13.3-4.7-19.8c-5.7-22.6-11.6-45.9-4.3-68.8c13.4,22.8,11.6,50.4,9.7,77.2
				C240.1,602.9,239.8,606.7,239.6,610.4z"/>
			<path class="st2" d="M197.6,318.6c-1.1,0-2.1-0.3-2.1-3.4c-0.1-2.7-0.1-5.3,0-8l0-2.6l0.1-0.8c0-1.3,0-2.6-0.1-3.9
				c-0.1-2.9-0.1-5.8,0.1-8.7c0.3-4.3,1-4.9,5.4-5c0.5,0,1,0,1.6,0c7.1,0,13.4,1.6,19.2,5c2.2,1.2,2.9,2.7,2.5,5.1
				c-0.9,5.5-2.4,10.1-4.7,14.2c-1.2,2.1-2.8,3.4-4.9,3.9c-2.8,0.7-5.6,1.4-8.3,2.1c-2.3,0.6-4.6,1.2-6.8,1.8
				C198.8,318.6,198.1,318.6,197.6,318.6z"/>
			<path class="st1" d="M222.4,551.5c-10.3-27.9-11.7-56.8-4.1-87.9c0.1,1,0.2,2,0.3,3c1.6,15.1,3.3,30.7,7.5,45.7
				c-0.2,5.2-1.1,10.7-1.8,16.1C223.2,536,222.1,543.7,222.4,551.5z"/>
			<path class="st2" d="M224.6,286.1c-1.3-0.4-2.5-0.8-3.7-1.2c-3.5-1.2-6.8-2.4-10.2-3c-3.5-0.6-7.1-0.7-10.7-0.7
				c-1.4,0-2.8,0-4.1-0.1c0-0.1-0.1-0.3-0.1-0.4c-0.1-0.6-0.3-1.1-0.3-1.5l0-1.2c-0.1-4.4-0.1-8.9,0-13.4c0.1-3.7,0.6-4.2,4.2-4.3
				h0.5c8.3,0,15.4,2.9,21.1,8.5c0.8,0.8,1.3,1.5,1.4,2.1C223.7,276.2,224.3,281.2,224.6,286.1z"/>
			<path class="st2" d="M222.3,262c-0.7-0.4-1.4-0.7-2.1-1c-6-3.2-12.6-5.2-20-6l-0.6-0.1c-0.3,0-0.6-0.1-0.9-0.1
				c-3.2-0.5-3.4-0.6-3.4-3.8c0-0.4,0-0.7,0-1.1c0-0.7,0.1-1.4-0.1-2.1c-0.9-5.9,1.8-10.6,5-14.9c0.9-1.3,1.6-1.4,2.2-1.4
				c0.4,0,0.9,0.1,1.4,0.4c1.8,0.8,3.6,1.6,5.4,2.3c1.4,0.6,2.8,1.2,4.1,1.8c2.4,1,3.9,2.7,4.4,5c1.4,5.8,2.7,11.7,4.1,17.5l0.8,3.6
				L222.3,262z"/>
			<path class="st1" d="M196.6,170.7c-0.5-5.1,0.1-10,1.7-15.2c0.8-2.5,1.9-5.1,2.9-7.5c0.5-1.3,1-2.6,1.5-3.8
				c1-2.6,2.8-4.4,5.6-5.6c1.4-0.6,2.8-1.2,4.1-1.8l1.2-0.5c0.1,0.1,0.5,0.4,0.5,0.4c1.6,5.8,3.2,11.9-1,17.4
				c-3.8,4.9-7.7,9.5-10.7,13C200.8,169,199.4,169.9,196.6,170.7z"/>
			<path class="st1" d="M202.7,173.5c0.3-0.5,0.5-0.8,0.7-1.1c0.9-1,1.8-1.9,2.7-2.9c1.5-1.6,3.1-3.3,4.6-5c1.8-2.2,3.4-4.5,4.9-6.7
				c0.7-1,1.4-1.9,2-2.9l1.1-1.5l25.8,11.7l-7.1,5.2c-2.7-2-5.6-3-8.6-3c-1.5,0-3.1,0.3-4.8,0.8c-4.5,1.4-9.1,2.5-13.6,3.6
				c-1.7,0.4-3.5,0.9-5.2,1.3C204.5,173.1,203.7,173.3,202.7,173.5L202.7,173.5z"/>
			<path class="st2" d="M223,316c5.2-5.3,7.7-12.2,7.6-20.6c-0.1-4-0.6-8.1-1.1-12c-0.2-1.7-0.5-3.4-0.6-5.1
				c-0.1-0.6-0.2-1.3-0.3-2.1l0,0c0.9,0.7,1.7,1.3,2.3,1.9l0.4,0.4c3,3.3,6.2,6.6,9,10.1c1.9,2.4,2.4,5.2,1.3,8.2
				c-2.3,6.2-5.5,11-9.8,14.8C229.3,313.6,226.6,315.1,223,316z"/>
			<path class="st1" d="M271.4,270.6c-9.9-14.5-13.7-29.2-11.4-44.9c0.8,2.6,1.4,5.3,1.9,8c0.4,2,0.8,3.9,1.3,5.9
				c0.8,2.9,1.6,5.9,2.4,8.8c0.8,2.7,1.5,5.4,2.2,8.2c0.3,1.2,0.7,2.5,1,3.8C269.9,263.6,270.9,267.1,271.4,270.6z"/>
			<path class="st1" d="M130.1,500.3c-22.7-61.2-13.7-93.3,2.2-150.4l1.6-5.8c0.8,29.7-1.6,56.6-4.1,81.6
				C126.8,451.2,128,471.4,130.1,500.3z"/>
			<path class="st1" d="M135.4,540.4c0.1-14.8-0.6-29.7-1.4-44.2c-0.8-15.4-1.6-31.4-1.3-47.2c1.4-18.7,2.8-37.4,4.2-56.1
				c0.9-12.1,1.8-24.2,2.7-36.3c2.4,10.4,5.3,20.9,8.2,31c6.6,23.5,13.5,47.8,13.6,72.5C160.4,485.9,156.5,518.1,135.4,540.4z"/>
			<path class="st1" d="M155.1,694.6c-35.9-38.6-41.9-112.9-12.6-153.8c-4.2,23.6-2.8,47.7-1.4,70.9c0.6,10,1.2,20.3,1.4,30.4l0,0.5
				c0.8,14.7,1.7,29.8,8.3,43.2l1.6-0.6c-11.9-37.9-2.2-76.8,7.5-114.5c6.4,33,7.1,47.4-5.9,79.8c-4.1,9.9-2.4,19.5-0.7,28.8
				C154.1,684.2,155,689.3,155.1,694.6z"/>
			<path class="st1" d="M173.2,466.5c-4.4-19.6-9.8-39.1-14.9-58.1c-4.6-16.9-9.4-34.4-13.5-51.8c1,1.1,2,2.3,2.9,3.4
				c8.6,10.1,17.5,20.5,29.9,26.9c5,1.7,7.2,5.7,6.3,11.2C182.3,424.4,178.8,446.9,173.2,466.5z"/>
			<path class="st1" d="M118.5,747.9c-1,0-2-0.1-3-0.3c-0.8-0.2-1.9-0.5-3.3-0.8c-4.4-0.9-11-2.3-12.7-5.1c-0.4-0.6-0.5-1.2-0.3-2
				c3.8-6.9,10.1-11.8,16.6-17c5.6-4.5,11.5-9.1,15.7-15.2c3.1-5.5,3.6-11.8,4.2-18c0.3-3.5,0.6-7.2,1.4-10.6
				c1.7,4.5,5.2,8,8.6,11.5c4.4,4.5,8.5,8.7,8.7,14.8c-0.2,2-0.3,4.4-0.4,7c-0.3,9-0.6,19.1-8.4,22.5c-4.3,1.3-8.1,3.9-11.8,6.5
				C128.9,744.7,124.4,747.9,118.5,747.9L118.5,747.9z"/>
			<path class="st1" d="M93.4,296.1c-0.1-0.9-0.2-1.8-0.2-2.7c-0.1-1.3-0.1-2.6-0.1-4c0-2.1-0.1-4.3-0.2-6.4
				c-0.3-4.4-1-9.5-4.1-13.9c-2.9-3.9-4.3-8.6-4.4-14.3c-0.1-8.5,2.1-16.4,6.9-24.3c3.3-5.5,7.9-9.4,13.6-11.6l2-0.8
				c1.8-0.7,3.7-1.4,5.5-2c2.3-0.7,4.5-1.2,6.6-1.4c0.2,0,0.4,0,0.6,0c0.9,0,1.4,0.1,1.6,2.1c0.1,1.7,0.2,3.5,0,5.2
				C117.8,251.2,108.7,275.4,93.4,296.1z"/>
			<path class="st1" d="M97.1,214.3c-0.1-4.6-0.1-8.9,0.1-13.3c0.3-7.8,3.6-15.2,9.9-22.6c5.8-6.9,13.9-9.1,21.7-10.6
				c1.4-0.2,2.6-0.4,3.8-0.4c3.7,0,6.7,1.2,9.5,3.9c2.4,2.3,2.8,3.7,1.8,6.5c-2.9,8.1-7.2,15.7-11.4,23l-1.2,2.1
				c-2.1,3.7-5.3,5.9-9.7,6.9c-8,1.7-16.5,4.1-24.4,9.3C97.1,217.4,97.1,215.9,97.1,214.3z"/>
			<path class="st2" d="M190.8,383.7c-3-0.5-4.8-1.3-6.8-2.9c-4.2-3.4-7.4-8-9.6-14.4c-4.3-12.2-7.6-22.5-9.1-33.3
				c-0.6-3.8-0.6-7.7-0.7-10.9c0-1.4,0.3-2.3,0.9-2.9c0.6-0.6,1.4-0.8,2.7-0.8c0.2,0,0.4,0,0.6,0c0.5,0,0.9,0,1.3,0.2
				c3.9,1.1,15.4,4.4,15.4,4.4c2,0.6,3.1,1.9,3.3,4c0.1,1,0.3,2,0.4,3.1c0.3,2.2,0.7,4.5,0.8,6.7c0.3,12,0.4,23.9,0.6,35.9l0.1,9.3
				c0,0.5-0.1,1.1-0.1,1.7L190.8,383.7z"/>
			<path class="st1" d="M138.9,291.8c-0.9-1.2-1.2-2.5-1.4-3.8c-0.7-5.4-1.3-10.8-1.9-16.1l-0.5-4.8c-1.5-13.4-0.4-26.9,0.7-38.5
				c0.1-0.7,0.3-1.5,0.5-2.3c0.1-0.2,0.1-0.4,0.1-0.5l4.5,1.7l5.9,2.2c4.4,1.6,8.7,3.3,13.1,4.9c2.9,1,3.2,1.2,2.6,4.3
				c-0.6,2.8-1.1,5.6-1.7,8.4c-1,4.8-2,9.7-2.9,14.5c-0.8,4.3-2.7,8.1-6,11.7c-1.3,1.4-2.6,2.7-3.9,4.1l-1.7,1.7
				c-3.5,3.6-5.9,7.4-7.2,11.6C139.2,291.1,139.1,291.4,138.9,291.8z"/>
			<path class="st1" d="M76.1,378.6c0-1.6-0.1-3,0.1-4.4l0.2-1.8c0.5-5,1-10.2,1.7-15.3c2.8-18.3,8.8-35.5,14.8-51.2
				c2.3-6.1,5.7-11.9,10.1-17.1l1.1-1.4c1.7-2.1,3.5-4.2,5.3-6.2c0.5-0.6,1.1-1.1,1.8-1.7c0.1-0.1,0.3-0.2,0.4-0.4
				c0.1,0.2,0.1,0.3,0.2,0.5c0.4,0.9,0.7,1.5,0.8,2.2c0.6,3.6,0.2,6.8-1.2,9.6c-2.2,4.4-3.5,9.1-4.6,13.9c-0.9,3.8-2.1,7.5-3.1,10.6
				c-6.6,19.9-15.9,39-24.8,57.5l-2.7,5.5C76.1,378.7,76.1,378.6,76.1,378.6z"/>
			<path class="st2" d="M174.5,376c-1-0.6-2-1.2-3-1.8c-2.5-1.5-5.1-3-7.4-4.8c-7.4-5.8-12.8-13.7-18-21.3c-6.4-9.4-9-18.5-7.9-27.9
				c0-0.3,0.1-0.5,0.1-0.8c0-0.2,0-0.5,0.1-0.7c0.5-4.3,1.3-9.8,3.2-15.7c4.2,7.5,9.1,12.7,15.2,16c1.7,0.9,2.5,2.5,2.9,5.5l0.1,0.6
				c0.8,6,1.6,12.3,2.8,18.4c2.2,10.6,6.6,20.5,10.9,30.2C173.8,374.5,174.1,375.2,174.5,376z"/>
			<path class="st1" d="M56.5,363.8c5.1-10.6,8.2-19.5,9.8-28c1.1-5.8,1.9-11.8,2.7-17.5c0.3-2.4,0.6-4.7,1-7.1
				c1.8-12.6,6.2-24,13.1-33.6c0.6-0.8,1.3-1.5,2.1-2.4c0.2-0.2,0.5-0.5,0.7-0.7c0.2,0.3,0.4,0.5,0.5,0.7c0.7,0.9,1.2,1.6,1.4,2.4
				l0.2,0.6c0.7,2.6,1.4,5.2,1.3,7.7c-0.3,6.5-0.8,11.8-1.8,16.6c-4.1,21.1-14.1,40.9-30.5,60.6c-0.2,0.3-0.5,0.5-0.7,0.8
				C56.4,363.9,56.5,363.9,56.5,363.8z"/>
			<path class="st1" d="M146.1,610.4c-0.2-3.7-0.5-7.5-0.7-11.3c-1.8-26.8-3.7-54.4,9.8-77.2c7.3,22.9,1.4,46.2-4.3,68.8
				C149.1,597.1,147.4,603.8,146.1,610.4z"/>
			<path class="st2" d="M188.1,318.6c-0.5,0-1.1-0.1-1.9-0.3c-2.3-0.6-4.6-1.2-6.8-1.8c-2.8-0.7-5.6-1.5-8.3-2.1
				c-2.2-0.5-3.8-1.8-4.9-3.9c-2.2-4.1-3.8-8.7-4.6-14.2c-0.4-2.4,0.3-3.9,2.5-5.1c5.9-3.4,12.2-5,19.2-5c0.5,0,1,0,1.6,0
				c4.4,0.1,5.1,0.8,5.4,5c0.2,2.9,0.1,5.8,0.1,8.7c0,1.3-0.1,2.6-0.1,3.9v0.8h0.1l0,2.7c0,2.6,0,5.3,0,7.9
				C190.1,318.4,189.1,318.6,188.1,318.6L188.1,318.6z"/>
			<path class="st1" d="M163.2,551.5c0.4-7.8-0.7-15.6-1.8-23.1c-0.8-5.4-1.6-10.9-1.8-16.3c4.1-14.7,5.8-30.3,7.4-45.4
				c0.1-1,0.2-2,0.3-3.1C174.9,494.8,173.6,523.6,163.2,551.5z"/>
			<path class="st2" d="M161.1,286.1c0.2-4.9,0.9-9.8,2-15.1c0.1-0.6,0.6-1.3,1.4-2.1c5.7-5.6,12.8-8.5,21.1-8.5h0.5
				c3.6,0,4.1,0.6,4.2,4.3c0.1,4.5,0,9,0,13.4l0,1.2c0,0.5-0.1,1-0.3,1.6c0,0.1-0.1,0.2-0.1,0.4c-1.4,0-2.8,0.1-4.1,0.1
				c-3.5,0-7.2,0.1-10.7,0.7c-3.4,0.6-6.8,1.8-10.2,3C163.6,285.2,162.4,285.7,161.1,286.1z"/>
			<path class="st2" d="M164,258c1.3-5.7,2.6-11.3,3.9-17c0.6-2.3,2-3.9,4.4-5c1.4-0.6,2.8-1.2,4.2-1.8c1.8-0.8,3.6-1.5,5.4-2.3
				c0.5-0.2,1-0.4,1.4-0.4c0.5,0,1.2,0.2,2.2,1.4c3.1,4.2,5.9,8.9,5,14.9c-0.1,0.7-0.1,1.4-0.1,2.1c0,0.4,0,0.7,0,1.1
				c-0.1,3.2-0.2,3.3-3.4,3.8c-0.3,0-0.6,0.1-0.9,0.1l-0.6,0.1c-7.4,0.8-14,2.8-20,6c-0.6,0.4-1.3,0.7-2.1,1l-0.2,0.1L164,258z"/>
			<path class="st1" d="M189.1,170.7c-2.5-0.8-4.1-1.6-5.8-3.6c-3-3.5-7-8.2-10.7-13c-4.2-5.5-2.6-11.6-1-17.5c0,0,0,0,0,0
				c0,0,0.1-0.1,0.2-0.2c0.1-0.1,0.1-0.1,0.2-0.2l1.1,0.5c1.4,0.6,2.8,1.2,4.2,1.8c2.7,1.1,4.6,2.9,5.6,5.6c0.5,1.3,1,2.6,1.5,3.8
				c1,2.4,2,5,2.9,7.5C189.1,160.7,189.6,165.6,189.1,170.7z"/>
			<path class="st1" d="M183,173.5c-1-0.2-1.8-0.3-2.6-0.5c-1.7-0.4-3.5-0.9-5.2-1.3c-4.5-1.1-9.1-2.2-13.6-3.6
				c-1.6-0.5-3.3-0.8-4.8-0.8c-3.1,0-5.9,1-8.6,3l-7.1-5.2l25.8-11.7l1.1,1.5c0.7,1,1.4,1.9,2,2.9c1.6,2.2,3.2,4.6,4.9,6.7
				c1.4,1.8,3,3.4,4.6,5c0.9,0.9,1.8,1.9,2.7,2.9C182.6,172.6,182.8,173,183,173.5L183,173.5z"/>
			<path class="st2" d="M162.6,316c-3.5-0.9-6.3-2.4-8.7-4.4c-4.3-3.8-7.5-8.6-9.8-14.8c-1.1-3-0.6-5.8,1.3-8.2
				c2.9-3.5,6-6.9,9-10.1l0.4-0.4c0.6-0.6,1.4-1.2,2.3-1.9l0,0c-0.1,0.8-0.2,1.5-0.3,2.1c-0.2,1.7-0.4,3.4-0.6,5.1
				c-0.5,3.9-1.1,8-1.1,12C154.9,303.7,157.5,310.7,162.6,316z"/>
			<path class="st1" d="M114.3,270.6c0.5-3.5,1.5-7,2.4-10.4c0.3-1.2,0.7-2.5,1-3.8c0.7-2.7,1.5-5.5,2.2-8.2
				c0.8-2.9,1.7-5.9,2.4-8.8c0.5-1.9,0.9-3.9,1.3-5.9c0.5-2.6,1.1-5.3,1.9-7.9C127.9,241.4,124.2,256.1,114.3,270.6z"/>
			<path class="st1" d="M192.8,137.8c-1.6-0.1-3.2-0.3-4.7-0.8c-4.5-1.3-8.3-2.6-11.7-4.2c-8.1-3.7-8.1-3.7-8.8-12.8
				c-0.1-1.9-0.3-3.8-0.5-5.7l-0.4-3.4l-0.7,0c-2.8-0.1-4.7-0.6-5.6-2.7c-1.3-3-2.6-6.1-3.9-9.1c-0.7-1.6-0.3-2.9,1.2-4.2
				c0.5-0.5,1.1-0.9,1.7-1.3c3.1-1.8,4.4-4.4,4-7.8c-0.1-1.2,0-2.4,0.1-3.7c0.1-0.5,0.1-1,0.1-1.5c0.5-6.8,2.6-12.6,6.3-17.2
				c6.1-7.5,13.5-11.3,22.1-11.3l0.8,0l0.9,0c8.6,0,16,3.8,22.1,11.3c3.7,4.6,5.9,10.4,6.3,17.2c0,0.5,0.1,1,0.1,1.5
				c0.1,1.3,0.2,2.5,0.1,3.7c-0.4,3.4,0.9,5.9,4,7.8c0.6,0.4,1.2,0.8,1.7,1.3c1.5,1.3,1.9,2.6,1.2,4.2c-1.3,3.1-2.6,6.1-3.9,9.1
				c-0.9,2.2-2.8,2.6-5.6,2.7l-0.7,0l-0.3,3.4c-0.2,1.9-0.4,3.8-0.5,5.7c-0.7,9.1-0.7,9.1-8.8,12.8c-3.4,1.6-7.3,2.9-11.8,4.2
				C196.1,137.5,194.5,137.8,192.8,137.8z"/>
			<path class="st1" d="M192.8,162.4c-0.7-5.3-2.4-14.9-5.8-20.2c1.4-0.2,3.2-0.3,5-0.3h1.5c1.8,0,3.6,0.1,5,0.3
				C195.3,147.6,193.6,157.2,192.8,162.4z"/>
			<path class="st1" d="M188.5,177.7h8.7c-0.8,1.4-3.7,6.6-4.4,7.9C192.1,184.4,189.2,179.1,188.5,177.7z"/>
			<path class="st1" d="M192.8,233.9c-2.1-2.4-4.2-4.8-5.5-7.5c-0.1-0.2,0-0.8,0.1-1l0.8-1.3c1.3-2.1,2.6-4.3,4.5-6
				c1.9,1.7,3.2,3.9,4.5,6l0.8,1.3c0.2,0.3,0.2,0.8,0.1,1C197,229.1,194.9,231.6,192.8,233.9z"/>
			<path class="st1" d="M42.3,436.2c-0.3,0-0.4-0.1-0.5-0.2c-0.1-0.1-0.4-0.7,0.5-2.7c0.8-1.8,1.7-3.5,2.8-5.3
				c0.6-1.1,1.2-2.2,1.8-3.3c0.9-1.7,1.8-3.4,2.8-5c0.8-1.4,1.6-2.8,2.4-4.2c0.8-1.3,1-2.6,0.5-3.4c-0.3-0.5-0.8-0.8-1.3-0.8
				c-0.9,0-1.8,0.7-2.6,2.1c-1.8,3.3-3.8,6.9-5.8,10.3c-1.5,2.6-3,5.3-4.4,7.8c-1.3,2.8-3.2,4.1-4.4,4.1c-0.5,0-0.8-0.2-1-0.5
				c-0.5-0.8-0.2-2.2,0.8-3.9c2.1-3.9,4.2-7.6,6.4-11.3c2.1-3.7,4.3-7.4,6.3-11.2c0.8-1.2,1.1-2.7,0.7-3.6c-0.2-0.4-0.7-0.7-1.1-0.7
				c-0.8,0-1.5,0.7-2.2,2.1c-1.6,2.7-3.3,5.3-5,7.9c-1.7,2.7-3.5,5.4-5.2,8.3c-1.5,2.5-3.2,3.6-4.1,3.6c-0.3,0-0.4-0.1-0.5-0.2
				c-0.3-0.5-0.2-2.2,1.8-5.3c2-3.5,3.9-6.9,5.9-10.2c1.6-2.8,3.2-5.6,4.8-8.4c0.3-0.6,0.5-1.2,0.7-1.8c0.1-0.2,0.1-0.5,0.2-0.7
				l0.2-0.6l-0.5-0.4c-1.2-1-2.5-1.4-3.9-1.4c-0.7,0-1.4,0.1-2.1,0.3c-2.1,0.6-4.4,1.1-7,1.6c-0.5,0.1-1,0.1-1.5,0.1
				c-0.5,0-1-0.1-1.5-0.2c-2.4-0.7-2.8-1.7-2.8-2.5c0-0.6,0.1-0.8,1.4-1.2c0.4-0.1,0.8-0.3,1.1-0.5c0.4-0.2,0.9-0.4,1.3-0.6
				c0.6-0.3,1.3-0.5,1.9-0.9c1.2-0.8,2.6-1.6,3.8-2.8c2.2-2.2,4.3-4.4,6.5-6.6c2.6-2.6,5.1-5.3,7.7-7.9c1.4-1.4,2.6-2.2,3.7-2.5
				c5.1-1.2,8.1-4.9,10.6-8.5l13.9-19.8c0.3-0.4,0.6-0.9,0.9-1.3c-2.4,10.2-3.3,20.8-4.1,31l-0.1,1.3c-0.5,5.5,0.2,10.3,1.9,14.7
				c1.1,2.8,1.1,5.7-0.2,8.3c-1.6,3.2-3.5,6.3-5.6,9.4c-1.3,1.9-2.6,3.8-3.9,5.7c-1.1,1.5-2.2,3.1-3.2,4.6c-1,1.6-2,3.2-3.1,4.8
				c-0.9,1.4-1.8,2.9-2.7,4.3c-0.6,0.8-1,1.2-1.5,1.2l0,0c-0.2,0-0.4,0-0.6-0.1c0.2-0.4,0.4-0.8,0.6-1.2c0.2-0.5,0.5-0.9,0.7-1.4
				c0.5-1.2,1.1-2.3,1.7-3.4c0.5-0.9,0.9-1.8,1.4-2.7c0.7-1.4,0.9-2.7,0.4-3.5c-0.2-0.4-0.7-0.6-1.1-0.6c-0.9,0-1.7,0.8-2.4,2.3
				c-1.3,2.7-3.4,6.2-5.3,9.7c-1.1,2-2.2,3.8-3,5.4C45.2,435.2,43.4,436.2,42.3,436.2z"/>
			<path class="st3" d="M267.4,753.9c-6.1,0-11.7-2-16.6-5.8c-4.8-3.8-9-6.6-14.1-8.3c-4.1-1.3-6.7-4.3-8.1-9.2
				c-2.3-8.1-3.4-15.6-3.5-22.9c0-2-0.4-4.1-0.7-6.2c-0.2-1-0.4-2.1-0.5-3.2l-0.1-0.7c-0.1-0.9-0.3-1.7-0.1-2.7
				c0.2-1.2,0.4-2.5,0.6-3.7c0.6-4,1.3-8.2,2.3-12.2c2.2-8.4,2.3-15.9,0.4-23c-1.8-6.9-4.1-13.5-6.2-19.7
				c-3.4-9.7-7.1-22.7-5.7-36.5c0.5-4.5,1.3-8.9,2.2-13.2l0.4-2.3c1-5.3,1.7-10.9,2.1-18.1c0.2-3.2-0.4-6-1.9-9.7
				c-6.3-15.1-9.8-31.7-10.4-49.2c-0.4-10.6,0.1-20.1,1.3-28.9c0.3-1.9,0.5-3.6-0.9-4.9c-0.7-0.6-0.9-1.6-1.1-2.4
				c-4.1-17.6-7.9-34.6-9.5-52.3c-0.6-6.4-1.2-12.8-1.4-19.1c-0.1-2.4,0.1-4.8,0.4-7.3c0.1-0.8,0.2-1.5,0.2-2.3h-7.4
				c0.1,0.8,0.1,1.6,0.2,2.4c0.3,2.5,0.5,4.8,0.4,7.2c-0.2,6.3-0.8,12.7-1.4,18.9l0,0.3c-1.6,17.7-5.4,34.7-9.5,52.1
				c-0.2,0.9-0.4,1.9-1.1,2.6c-1.4,1.3-1.1,3-0.9,4.8c1.3,8.9,1.7,18.3,1.3,28.9c-0.6,17.5-4.2,34.1-10.4,49.2
				c-1.6,3.7-2.1,6.6-1.9,9.7c0.5,7.3,1.1,12.9,2.1,18.1l0.5,2.5c0.8,4.3,1.7,8.7,2.1,13.1c1.4,13.8-2.3,26.8-5.7,36.5
				c-2,5.8-4.4,12.7-6.2,19.7c-1.9,7.1-1.8,14.6,0.4,23c1,4,1.7,8.2,2.3,12.2c0.2,1.2,0.4,2.5,0.6,3.7c0.1,0.9,0,1.8-0.1,2.7
				l-0.1,0.7c-0.1,1-0.3,2.1-0.5,3.2c-0.4,2.1-0.7,4.2-0.7,6.2c-0.1,7.2-1.3,14.7-3.5,22.9c-1.4,4.9-4,7.9-8.1,9.2
				c-5.1,1.7-9.4,4.5-14.1,8.3c-5.9,4.7-12.8,6.6-20.5,5.6c-6.6-0.8-12.6-3.4-17.7-5.9c-3.6-1.7-5-5.3-3.7-9.3c0.3-1.1,0.9-2,1.4-3
				l0.2-0.3c2.7-5.1,6.9-9.5,13-13.5c6.2-4.1,11-8.5,14.7-13.4c0.4-0.5,0.9-1,1.3-1.5c0.5-0.5,1-1,1.4-1.6l0.5-0.8
				c0.9-1.4,1.8-2.8,2.1-4.2c0.7-3.6,1.2-7.3,1.8-10.9c0.3-1.9,0.5-3.8,0.8-5.7c0.1-0.6,0.2-1.3,0.3-1.9c0.3-2.1,0.6-4.2,1.4-6.2
				c0.6-1.5,0.4-2.5-0.2-3.8l-0.6-1.4c-1.2-2.5-2.4-5.2-3.2-7.9c-7.3-23.8-10.4-45.8-9.3-67.2c0.8-16.2,4-30.3,9.9-43.1
				c0.6-1.3,0.9-2.7,0.9-4c0.1-7.5,0-15.1-0.1-22.4l0-2.1c-0.1-7.5-1.1-14.6-3.3-21.6c-4.7-15.3-8.2-28.1-11.2-40.3
				c-3.3-13.6-4.3-25-3.2-35.7c0.5-4.8,1.1-9.6,1.7-14.5c0.2-1.9,0.5-3.8,0.7-5.7c0.6-4.8,1.1-9.7,1.9-14.5
				c2.4-14.1,6.6-27.9,10.6-41.3l0.9-2.9c0.7-2.5,1.7-5.4,3.2-8c1.9-3.2,2.3-6.1,1.5-9.1c-0.3-1.1-0.3-2.3-0.3-3.4v-0.7
				c-0.1-8.2,1.2-16.5,3.9-25.2c0.5-1.6,0.4-2.5-0.5-3.5c-2.2-2.6-3.6-5.9-3.9-9.6c-0.9-9-1.7-18-2.5-27.1l-0.2-2.6
				c-3.1,6.5-6.1,12.6-10,18.5c-0.3,0.4-0.3,1.4,0,2.4c1.2,4.9,0.7,9.9-1.6,15.6c-1.3,3.1-2.3,6.4-3.2,9.6l-0.6,2
				c-0.3,1-0.6,2.1-0.8,3.2c-0.3,1.4-0.7,2.9-1.2,4.2c-5.7,15.8-12.1,33.6-20.8,50.4c-2.3,4.4-4.4,9-6.5,13.4
				c-1.2,2.7-2.5,5.4-3.8,8c-0.8,1.6-0.9,3-0.5,4.5c2.1,6.8,0.7,13.1-4.3,19.5l-0.3,0.5c-3.8,4.9-7.7,9.9-10.4,15.6
				c-0.4,0.9-0.9,1.6-1.5,2.4c-0.2,0.3-0.4,0.6-0.6,1c-2.1,3.3-4.9,7.8-10.6,7.4l-0.6,1.1c-3,5.1-6.6,6.5-12.4,4.8
				c-0.5-0.1-1.2-0.2-2.1,0c-3,0.5-5.6-0.1-7.5-1.7c-1.8-1.5-2.8-3.9-2.8-6.7c0-1.3-0.1-2.2-1-3c-2.4-2.3-3-5.5-1.8-9.2
				c0.4-1.4,1.2-2.6,1.9-3.8c0.2-0.4,0.5-0.8,0.7-1.1c1.8-3.1,3.6-6.2,5.5-9.6l1.2-2.1c0,0,0,0,0,0c-1.2,0.2-2.1,0.4-3,0.6
				c-2.4,0.6-4.9,0.3-7.4-1c-3.7-1.9-5.5-4.5-5.6-8c0-4.1,3.1-5.8,5.8-6.8c0.2-0.1,0.4-0.1,0.5-0.2c0.3-0.1,0.6-0.3,0.9-0.4
				c2.4-0.7,4-2.5,5.6-4.2c5-5.4,9.5-9.9,13.9-13.8c2.2-2,4-3.6,5.4-6.3c6.3-12.2,10.6-24.9,12.6-37.7c0.5-3.1,0.9-6.4,1.3-9.5
				c0.5-4.3,1-8.7,1.9-12.9c2.6-13.5,8.1-24.8,16.6-34.7c-0.2-0.5-0.4-1.1-0.6-1.6c-0.6-1.6-1.2-3.2-1.6-4.9c-0.6-2.3-1.2-5-1.2-7.8
				c0-11.8,3.5-22.5,10.6-31.6c1.2-1.6,1.7-2.9,1.7-4.6l0-1.7c0.1-5.2,0.1-10.5,0.7-15.7c0.5-5,1.1-9.4,2.9-13.3
				c6.9-14.5,17.6-23.1,31.9-25.7c5.1-0.9,10.9-2,16.1-4.8c0.9-0.5,1.7-0.8,2.6-1.2c0.6-0.2,1.1-0.4,1.6-0.7
				c4.7-2.1,9.3-4.3,13.9-6.4l3.5-1.6l1.9-14.4c-3-3.8-3.6-5.6-3.9-11.1l0-1c0-1.2-0.1-2.3-0.3-3.4c-0.1-0.7-0.6-1.5-1-1.7
				c-3.1-1.7-4.7-4.4-6.2-7.4c-1-2-1.8-4-2.7-6l-0.3-0.7c-2.4-5.8-1.1-9.7,4.1-13c1.8-1.1,2.4-2.2,2.3-4.4
				c-0.3-8.4,1.5-15.7,5.6-22.5c6-10,17.4-16.3,29.8-16.4c12.3,0.1,23.7,6.4,29.8,16.4c4.1,6.8,5.9,14.1,5.6,22.5
				c-0.1,2.2,0.5,3.3,2.3,4.4c5.2,3.3,6.5,7.2,4.1,13l-0.2,0.6c-0.8,2-1.7,4.1-2.7,6.1c-1.5,2.9-3.1,5.7-6.2,7.4
				c-0.4,0.2-0.9,1-1,1.7c-0.2,1.1-0.3,2.2-0.3,3.4l0,1c-0.3,5.5-0.9,7.3-3.9,11.1l1.9,14.4l3.1,1.5c4.6,2.2,9.4,4.4,14.2,6.6
				c0.5,0.2,1.1,0.5,1.6,0.7c0.9,0.4,1.8,0.7,2.6,1.2c5.1,2.8,10.9,3.8,16.1,4.8c14.3,2.6,25.1,11.2,32,25.7
				c1.9,3.9,2.4,8.4,2.9,13.3c0.5,5.2,0.6,10.5,0.6,15.6l0,1.8c0,1.7,0.5,3.1,1.7,4.6c7,9.2,10.6,19.8,10.6,31.7
				c0,2.7-0.6,5.5-1.2,7.8c-0.4,1.7-1,3.3-1.6,4.9c-0.2,0.5-0.4,1.1-0.6,1.6c8.5,9.9,13.9,21.2,16.6,34.7c0.8,4.3,1.4,8.7,1.9,13
				c0.4,3.1,0.8,6.3,1.3,9.5c2,12.8,6.3,25.5,12.6,37.7c1.4,2.7,3.2,4.4,5.4,6.3c4.4,4,9,8.5,14,13.9c1.9,2,3.4,3.5,5.6,4.2
				c0.3,0.1,0.6,0.2,0.9,0.4c0.2,0.1,0.4,0.2,0.5,0.2l0,0c2.7,1,5.8,2.7,5.8,6.8c0,3.5-1.8,6.1-5.6,8c-2.5,1.3-5,1.6-7.4,1
				c-0.9-0.2-1.9-0.4-3-0.6h0l1.5,2.7c1.8,3.1,3.5,6.1,5.2,9c0.2,0.4,0.5,0.8,0.7,1.1c0.7,1.2,1.5,2.4,1.9,3.8
				c1.2,3.7,0.6,6.9-1.8,9.2c-0.9,0.9-1.1,1.7-1,3c0,2.9-0.9,5.2-2.8,6.7c-1.9,1.6-4.5,2.2-7.5,1.7c-0.9-0.1-1.5-0.1-2.1,0
				c-5.8,1.7-9.4,0.3-12.4-4.8l-0.6-1.1c-5.6,0.4-8.5-4.1-10.6-7.4c-0.2-0.3-0.4-0.6-0.6-1c-0.5-0.8-1-1.5-1.5-2.4
				c-2.7-5.6-6.6-10.7-10.4-15.6l-0.4-0.5c-4.9-6.4-6.3-12.8-4.3-19.5c0.4-1.4,0.3-2.9-0.5-4.5c-1.3-2.7-2.5-5.4-3.8-8.1
				c-2-4.4-4.2-9-6.4-13.3c-8.1-15.6-13.9-31.4-20.8-50.4c-0.5-1.4-0.9-2.9-1.2-4.3c-0.2-1.1-0.5-2.1-0.8-3.2l-0.6-2
				c-1-3.2-2-6.5-3.2-9.6c-2.3-5.7-2.9-10.7-1.6-15.6c0.2-1,0.2-2,0-2.4c-3.9-5.9-7-12-10-18.5l-0.5,5.2c-0.7,8.1-1.5,16.3-2.3,24.4
				c-0.4,3.8-1.7,7-3.9,9.6c-0.9,1.1-1,1.9-0.5,3.5c2.7,8.7,4,17,3.9,25.2v0.6c0,1.1,0,2.3-0.3,3.4c-0.9,3.1-0.4,5.9,1.4,9.1
				c1.5,2.6,2.5,5.5,3.2,8l0.9,2.9c4,13.4,8.2,27.2,10.6,41.3c0.8,4.8,1.4,9.8,2,14.5c0.2,1.9,0.4,3.8,0.7,5.6
				c0.6,4.8,1.2,9.6,1.7,14.5c1.1,10.7,0.1,22-3.1,35.7c-2.9,12.2-6.5,25-11.1,40.3c-2.1,7-3.2,14-3.3,21.6l0,3
				c-0.1,7.2-0.1,14.3-0.1,21.5c0,1.3,0.4,2.7,0.9,4c5.8,12.8,9.1,26.9,9.9,43.1c1,21.4-2,43.3-9.3,67.2c-0.8,2.7-2.1,5.4-3.2,7.9
				l-0.6,1.4c-0.6,1.4-0.8,2.3-0.2,3.8c0.8,2,1.1,4.1,1.4,6.2c0.1,0.6,0.2,1.3,0.3,1.9c0.3,1.9,0.6,3.8,0.9,5.7
				c0.5,3.6,1,7.3,1.8,10.9c0.3,1.4,1.2,2.8,2.1,4.2l0.5,0.8c0.4,0.6,0.9,1.1,1.4,1.6c0.5,0.5,0.9,1,1.3,1.5
				c3.7,4.9,8.5,9.2,14.7,13.4c6,4,10.3,8.4,13,13.5l0.2,0.3c0.5,0.9,1,1.9,1.4,2.9c1.3,4-0.1,7.6-3.7,9.3c-5,2.4-11.1,5-17.7,5.9
				C270,753.8,268.7,753.9,267.4,753.9z M187,388.2h11.7l-0.1,1.1c-0.1,1.2-0.2,2.3-0.3,3.5c-0.2,2.4-0.5,4.7-0.4,7
				c0.2,6.3,0.8,12.7,1.4,18.9c1.6,17.6,5.4,34.6,9.4,52c0.2,0.7,0.3,1.4,0.6,1.6c2.1,2,1.7,4.4,1.4,6.5c-1.3,8.8-1.7,18.1-1.3,28.6
				c0.6,17.3,4.1,33.6,10.3,48.5c1.2,2.8,2.3,6.3,2.1,10.6c-0.5,7.2-1.1,13.1-2.2,18.4l-0.4,2.3c-0.8,4.3-1.7,8.7-2.1,13
				c-1.4,13.5,2.2,26.1,5.6,35.6c2.2,6.2,4.4,12.9,6.3,19.8c2,7.4,1.8,15.3-0.4,24c-1,3.9-1.7,8-2.3,12c-0.2,1.2-0.4,2.5-0.6,3.7
				c-0.1,0.6,0,1.3,0.1,2l0.1,0.7c0.1,1,0.3,2.1,0.5,3.1c0.4,2.1,0.7,4.3,0.8,6.5c0.1,7.1,1.2,14.4,3.5,22.4
				c1.2,4.2,3.4,6.8,6.8,7.9c5.7,1.9,10.5,5.2,14.7,8.6c5.5,4.3,11.9,6.1,19.1,5.2c6.3-0.8,12.2-3.3,17.1-5.7
				c2.7-1.3,3.6-3.8,2.6-6.9c-0.3-0.9-0.7-1.7-1.2-2.6l-0.2-0.3c-2.5-4.8-6.6-9-12.3-12.8c-6.4-4.2-11.4-8.8-15.2-13.8
				c-0.4-0.5-0.8-0.9-1.2-1.3c-0.6-0.6-1.2-1.2-1.6-1.9l-0.5-0.8c-1-1.5-2-3.1-2.4-4.9c-0.7-3.7-1.2-7.4-1.8-11
				c-0.3-1.9-0.5-3.8-0.8-5.7c-0.1-0.6-0.2-1.3-0.3-1.9c-0.3-2-0.5-4-1.2-5.7c-0.9-2.2-0.6-3.7,0.2-5.4l0.6-1.4
				c1.1-2.5,2.3-5.1,3.1-7.7c7.3-23.6,10.3-45.4,9.3-66.5c-0.8-15.9-3.9-29.8-9.7-42.3c-0.7-1.5-1.1-3.2-1.1-4.8
				c-0.1-7.2,0-14.4,0.1-21.6l0-3c0.1-7.7,1.2-15,3.4-22.1c4.7-15.2,8.2-28,11.1-40.2c3.2-13.4,4.2-24.5,3.1-35
				c-0.5-4.8-1.1-9.6-1.7-14.4c-0.2-1.9-0.5-3.8-0.7-5.7c-0.5-4.8-1.1-9.7-1.9-14.4c-2.4-13.9-6.6-27.7-10.6-41l-0.9-2.9
				c-0.7-2.4-1.6-5.1-3-7.6c-2.1-3.7-2.6-7.1-1.6-10.6c0.2-0.9,0.2-1.9,0.2-2.9v-0.7c0.1-8-1.2-16.1-3.8-24.6
				c-0.6-1.9-0.7-3.6,0.9-5.4c2-2.3,3.1-5.2,3.4-8.6c0.8-8.1,1.5-16.3,2.3-24.4l0.6-6.5c0.1-0.5,0.1-1.1,0.1-1.7l0.3-4.6l2,4.3
				c3.5,7.3,6.8,14.3,11.1,20.8c0.7,1,0.6,2.7,0.3,4c-1.1,4.5-0.7,9,1.5,14.4c1.3,3.2,2.3,6.5,3.3,9.7l0.6,2
				c0.3,1.1,0.6,2.2,0.9,3.3c0.3,1.4,0.6,2.8,1.1,4c6.8,19,12.7,34.7,20.7,50.2c2.3,4.4,4.4,9,6.5,13.4c1.2,2.7,2.5,5.4,3.8,8.1
				c1,2.1,1.2,4,0.6,5.9c-1.9,6.1-0.6,11.9,4,17.8l0.4,0.5c3.8,5,7.8,10.1,10.6,15.9c0.4,0.7,0.8,1.4,1.3,2.1c0.2,0.3,0.5,0.7,0.7,1
				c2.6,4.1,4.9,7,9.3,6.4l0.6-0.1l1.2,2.2c2.6,4.3,5.2,5.3,10.2,3.9c0.8-0.2,1.8-0.3,2.9-0.1c2.4,0.4,4.5,0,5.9-1.3
				c1.4-1.2,2.1-3,2.1-5.2c0-1.7,0.3-3.1,1.6-4.5c1.9-1.8,2.3-4.1,1.3-7.2c-0.4-1.1-1-2.2-1.7-3.4c-0.2-0.4-0.5-0.8-0.7-1.2
				c-1.7-2.9-3.4-5.9-5.2-9l-3.6-6.3l2.1,0.4c0.8,0.1,1.4,0.2,2.1,0.4c1.2,0.2,2.2,0.4,3.2,0.6c2,0.5,3.9,0.2,6-0.8
				c3.1-1.6,4.5-3.5,4.5-6.2c0-2.7-1.8-4-4.5-5h0c-0.2-0.1-0.5-0.2-0.7-0.3c-0.2-0.1-0.4-0.2-0.7-0.3c-2.9-0.9-4.8-2.9-6.5-4.7
				c-4.9-5.3-9.4-9.8-13.8-13.7c-2.2-2-4.3-3.9-5.9-6.9c-6.5-12.4-10.8-25.3-12.9-38.3c-0.5-3.2-0.9-6.4-1.3-9.5
				c-0.5-4.2-1-8.6-1.9-12.8c-2.6-13.3-8-24.5-16.5-34.2l-0.4-0.4l0.2-0.5c0.3-0.8,0.5-1.5,0.8-2.2c0.6-1.6,1.2-3.1,1.5-4.7
				c0.5-2.2,1.1-4.8,1.1-7.3c0-11.4-3.4-21.6-10.1-30.5c-1.5-1.9-2.1-3.6-2.1-5.8l0-1.8c0-5.1-0.1-10.3-0.6-15.4
				c-0.5-4.8-1-9.1-2.8-12.7c-6.6-13.9-16.8-22.2-30.5-24.6c-5.3-0.9-11.3-2-16.7-5c-0.8-0.4-1.6-0.8-2.4-1.1
				c-0.6-0.2-1.1-0.5-1.7-0.7c-4.8-2.2-9.5-4.4-14.2-6.6l-4.1-1.9l-2.2-16.3l0.3-0.3c3-3.7,3.4-5,3.7-10.3l0-1
				c0-1.2,0.1-2.5,0.4-3.7c0.2-1.1,1-2.4,2-3c2.6-1.4,4-3.8,5.4-6.5c1-1.9,1.8-4,2.6-6l0.2-0.6c2-4.8,1.1-7.8-3.3-10.6
				c-2.4-1.5-3.3-3.3-3.2-6.2c0.3-8-1.4-15-5.3-21.4c-5.7-9.5-16.5-15.4-28.1-15.5c-11.6,0.1-22.4,6-28.1,15.5
				c-3.9,6.4-5.6,13.4-5.3,21.4c0.1,2.9-0.8,4.6-3.2,6.2c-4.4,2.8-5.3,5.7-3.3,10.6l0.3,0.7c0.8,2,1.6,4,2.6,5.9
				c1.4,2.8,2.8,5.1,5.4,6.5c1.1,0.6,1.8,1.9,2,3c0.3,1.2,0.3,2.5,0.4,3.7l0,1c0.3,5.3,0.7,6.6,3.7,10.3l0.3,0.3l-2.2,16.3l-4.4,2.1
				c-4.5,2.1-9.2,4.3-13.9,6.4c-0.6,0.3-1.1,0.5-1.7,0.7c-0.8,0.3-1.7,0.7-2.4,1.1c-5.4,2.9-11.4,4-16.7,5
				c-13.7,2.5-24,10.8-30.5,24.6c-1.7,3.6-2.3,7.9-2.8,12.7c-0.5,5.1-0.6,10.4-0.6,15.4l0,1.7c0,2.2-0.6,3.9-2.1,5.8
				c-6.8,8.8-10.2,19.1-10.2,30.5c0,2.5,0.6,5.1,1.1,7.3c0.4,1.6,0.9,3.1,1.6,4.7c0.3,0.7,0.5,1.4,0.8,2.2l0.2,0.5l-0.4,0.4
				c-8.5,9.7-13.9,20.9-16.5,34.2c-0.8,4.2-1.3,8.6-1.8,12.8c-0.4,3.1-0.8,6.4-1.3,9.5c-2.1,13-6.4,25.9-12.9,38.3
				c-1.6,3-3.6,4.9-5.8,6.9c-4.4,3.9-8.9,8.4-13.8,13.7c-1.7,1.8-3.6,3.9-6.5,4.7c-0.2,0.1-0.4,0.2-0.7,0.3
				c-0.2,0.1-0.5,0.2-0.7,0.3c-2.7,1-4.5,2.2-4.5,5c0,2.7,1.4,4.7,4.5,6.2c2.1,1.1,4,1.3,6,0.8c1-0.2,2-0.4,3.2-0.6
				c0.6-0.1,1.3-0.2,2-0.4l2.1-0.4l-3.3,5.8c-1.9,3.3-3.7,6.4-5.5,9.5c-0.2,0.4-0.5,0.8-0.7,1.2c-0.7,1.1-1.3,2.2-1.7,3.4
				c-1,3-0.6,5.4,1.3,7.2c1.4,1.3,1.7,2.7,1.6,4.5c0,2.3,0.7,4.1,2.1,5.2c1.4,1.2,3.5,1.7,5.9,1.3c1.2-0.2,2.1-0.2,2.9,0.1
				c4.9,1.4,7.6,0.4,10.2-3.9l1.3-2.2l0.7,0.1c4.5,0.6,6.7-2.3,9.3-6.4c0.2-0.3,0.4-0.7,0.7-1c0.5-0.7,1-1.4,1.3-2.1
				c2.8-5.8,6.8-11,10.6-15.9l0.3-0.5c4.5-5.9,5.8-11.7,3.9-17.8c-0.6-1.9-0.4-3.8,0.6-5.9c1.3-2.6,2.5-5.3,3.8-8
				c2.1-4.4,4.2-9,6.5-13.5c8.6-16.7,15-34.5,20.7-50.2c0.5-1.3,0.8-2.6,1.1-4c0.3-1.1,0.5-2.2,0.9-3.3l0.6-1.9c1-3.2,2-6.5,3.3-9.7
				c2.2-5.3,2.7-9.9,1.5-14.4c-0.3-1.2-0.4-2.9,0.3-4c4.4-6.5,7.6-13.5,11.1-20.8l2-4.3l0.3,4.6c0,0.5,0.1,1.1,0.1,1.6l0.4,3.8
				c0.8,9,1.6,18,2.5,27.1c0.3,3.4,1.5,6.3,3.4,8.6c1.6,1.9,1.5,3.5,0.9,5.4c-2.7,8.5-3.9,16.6-3.8,24.6v0.7c0,1,0,2,0.2,2.9
				c1,3.5,0.5,6.9-1.6,10.6c-1.4,2.4-2.3,5.2-3,7.6l-0.9,2.9c-4,13.3-8.2,27.1-10.6,41c-0.8,4.7-1.4,9.6-1.9,14.3
				c-0.2,1.9-0.4,3.8-0.7,5.8c-0.6,4.8-1.2,9.6-1.7,14.4c-1.1,10.5-0.1,21.6,3.1,35c2.9,12.2,6.5,24.9,11.1,40.2
				c2.2,7.2,3.3,14.4,3.4,22.1l0,2.1c0.1,7.3,0.1,15,0.1,22.4c0,1.5-0.4,3.2-1.1,4.8c-5.7,12.6-8.9,26.4-9.7,42.3
				c-1,21.1,2,42.9,9.3,66.5c0.8,2.6,2,5.2,3.1,7.7l0.6,1.4c0.8,1.7,1.1,3.3,0.2,5.4c-0.7,1.7-1,3.6-1.2,5.7
				c-0.1,0.7-0.2,1.3-0.3,1.9c-0.3,1.9-0.6,3.8-0.8,5.7c-0.5,3.6-1.1,7.4-1.8,11c-0.4,1.8-1.4,3.4-2.4,4.9l-0.5,0.8
				c-0.5,0.7-1.1,1.3-1.7,1.9c-0.4,0.4-0.8,0.8-1.2,1.3c-3.8,5.1-8.8,9.6-15.2,13.8c-5.7,3.8-9.8,8-12.3,12.8l-0.2,0.3
				c-0.5,0.9-0.9,1.8-1.2,2.7c-1,3.1,0,5.7,2.7,6.9c4.9,2.4,10.8,4.9,17.1,5.7c7.1,0.9,13.6-0.8,19.1-5.2c4.3-3.4,9-6.8,14.7-8.6
				c3.4-1.1,5.6-3.7,6.8-7.9c2.2-8,3.4-15.3,3.5-22.4c0-2.2,0.4-4.4,0.8-6.5c0.2-1,0.4-2,0.5-3.1l0.1-0.7c0.1-0.7,0.2-1.4,0.1-2
				c-0.2-1.2-0.4-2.5-0.6-3.7c-0.6-4-1.3-8.1-2.3-12c-2.3-8.7-2.4-16.6-0.4-24c1.9-7,4.2-13.9,6.3-19.8c3.3-9.5,7-22.2,5.6-35.6
				c-0.4-4.3-1.3-8.7-2.1-13l-0.5-2.5c-1-5.3-1.7-11-2.2-18.4c-0.3-4.3,0.9-7.8,2.1-10.6c6.2-14.9,9.7-31.2,10.3-48.5
				c0.4-10.5,0-19.8-1.3-28.5c-0.3-2.2-0.7-4.6,1.4-6.6c0.3-0.3,0.4-1,0.6-1.5c4.1-17.4,7.9-34.4,9.4-52l0-0.3
				c0.6-6.1,1.1-12.5,1.4-18.8c0.1-2.3-0.1-4.5-0.4-7c-0.1-1.1-0.2-2.3-0.3-3.5L187,388.2z"/>
		</g>
		<g>
			<path class="st1" d="M653.2,546.9c-0.5-0.9-1-1.8-1.4-2.6c-1.1-2.3-2.1-4.6-3.2-6.8c-1.5-3.2-2.9-6.3-4.4-9.5
				c-4.8-10.2-7.5-20.9-8-31.8c-0.2-3.5-0.3-7.1-0.5-10.6c-0.3-6.9-0.6-13.9-1-20.8c-0.2-3.6-0.5-7.2-0.9-10.8
				c-0.3-3.9-0.7-7.8-0.9-11.7c-0.3-5-0.3-10.1-0.3-15.1l0-4.4c0-0.9,0.1-1.7,0.3-2.6l0.2-1.1c0.2-1.4,0.8-1.4,1.1-1.4
				c0.2,0,0.5,0,0.8,0.1c0.7,0.2,1.5,0.5,2.2,0.7c0.9,0.3,1.7,0.6,2.6,0.8l0.9,0.2c1.4,0.4,2.9,0.8,4.5,1c0.3,0,0.6,0,0.9,0
				c1.6,0,2.7-0.4,3.4-1.2c0.8-1,1-2.4,0.6-4.4l-0.7-3.7c-0.6-3.2-1.3-6.5-1.8-9.8c-0.9-6.5-0.5-12.2,1.1-17.5
				c0.7-2.3,2-4.8,3.7-7.2c0.9-1.3,2.4-2.6,4-3.4c1.4-0.7,2.5-1,3.5-1c1.2,0,2.8,0.5,3.3,4.4c2,14.6,2.8,28,2.4,41.1
				c-0.1,2-0.1,4-0.2,6c-0.1,5.6-0.3,11.3-0.8,17c-1.1,11.7-2.6,23.7-4.3,35.7c-0.7,5-1.6,10-2.5,14.9c-1.1,6-2.2,12.2-3,18.4
				c-0.5,4.1-0.3,8.3-0.1,12.3c0.1,1.9,0.2,3.8,0.2,5.7l0,3.6c0.1,3.5,0.1,7,0,10.5c-0.1,2.6-0.3,3.3-1.5,5.2L653.2,546.9z"/>
			<path class="st1" d="M620.8,565.1c-0.3-0.4-0.6-0.8-0.7-1.3c-0.7-2-1.5-3.9-2.2-5.9c-1.9-4.9-3.8-9.9-5.1-15
				c-4-15.4-6.8-28.1-8.8-39.9c-1.2-6.7-1.5-13.8-1.7-20.6L602,478c-0.5-11.7-1-24.1-1.1-36.4c0-5.5,0.3-11.2,0.7-16.7
				c0.2-2.6,0.3-5.2,0.5-7.8l0.2-5c0.1-2.3,0.2-4.6,0.3-6.9c0-0.8,0.2-1.5,0.3-2.4l0.1-0.5l2,1.1c0.9,0.5,1.8,1,2.7,1.5
				c2,1.2,4,2.4,6.2,3.2c7,2.6,10.7,7.3,11.4,14.6c0.5,4.9,1,9.9,1.5,14.8c1.1,10.8,2.2,21.9,3,32.9c0.3,4.4,0.5,8.8,0.8,13.2
				c0.5,10.1,1,20.6,2.7,30.7c1.4,8.5-0.9,15.9-7.7,23.8c-3.2,3.8-4.6,7.4-4.3,11.7c0.2,3.3,0.1,6.8-0.1,10.1c0,1.3-0.1,2.7-0.1,4
				C621,564.5,620.9,564.8,620.8,565.1z"/>
			<path class="st2" d="M642.5,414.6c-0.7,0-1.7-0.2-3-0.5c-9-2.5-16.9-5.8-24.2-9.9c-6.4-3.6-11.6-7.9-15.9-13.1
				c-4.6-5.5-4.7-9.1-0.6-14.8c6.9-9.4,12.8-19.5,17.5-30.2c0.8-1.8,1.4-3.7,1.9-5.5c0.3-1,0.6-1.9,0.9-2.9c0.8-2.5,1.2-2.9,4-2.9
				l0.8,0c5.3,0.5,10.7,2.7,15.5,6.2c7.6,5.5,13.3,13.2,17.4,23.7c0.8,2,0.7,2.2-1.2,3.4c-0.3,0.2-0.7,0.4-1,0.6l-0.6,0.3
				c-4.2,2.3-7,5.6-8.5,10.2c-2.5,7.5-3.3,15.2-2.5,23c0.2,2.3,0.5,4.6,0.8,6.8l0.2,1.2c0.3,2.2,0.2,3.5-0.3,4
				C643.6,414.3,643.3,414.6,642.5,414.6z"/>
			<path class="st1" d="M631.4,273.6c-3.9,0-7.8-1.4-11.2-4c-5.2-3.9-10.6-8.3-14.5-14.2c-2.2-3.4-2.3-4.7-0.3-7.8l4.5-6.9
				c5.4-8.4,11-17,16.7-25.4c4.6-6.8,7.5-13.4,8.8-20.2l0.1-0.7c0.1-0.5,0.2-1,0.3-1.5c0.5-1.6,1-1.6,1.3-1.6c0.4,0,0.9,0.2,1.6,0.5
				c0.6,0.3,1.1,0.7,1.6,1.1c8.7,6.5,13.3,13.7,15.3,23.6c5.9,22.4-2,44.6-13.1,53.2C639.1,272.2,635.3,273.6,631.4,273.6z"/>
			<path class="st1" d="M596.2,241.4c0.1-13.5,0.1-27.4,0.4-41.2c0.2-8,1.8-34.3,15.3-36.5c3.2-0.5,6.8-0.8,10.7-0.8
				c4.3,0,8.8,0.3,13.2,1c3.5,0.5,7.9,1.7,10.8,2.9c0,0,0,0,0,0c-5.8,2.6-9.5,7.2-11.4,14.1c-1.1,4.2-2.4,9.1-3.5,14.2
				c-1.4,6.7-4.2,13.2-8.5,19.2c-2.8,4-5.7,8-8.6,12c-2,2.9-7.9,10.9-7.9,10.9c-2,2.8-4.1,5.7-5.9,8.7c-1.5,2.6-2.8,5.3-4.1,8.1
				c-0.2,0.4-0.4,0.8-0.6,1.3L596.2,241.4z"/>
			<path class="st2" d="M597.4,363.8c-0.9,0-1.1-1.2-1.1-1.7c-0.1-1.6,0-3.2,0-4.8c0-0.8,0-1.6,0-2.4l0-18.4c0-18.9,0.1-37.8,0-56.7
				c0-8.6,1.2-15.1,3.5-19c0.2-0.4,0.8-1.2,1.7-1.2c0.5,0,1.1,0.3,1.7,0.8c3,2.5,11.2,12,16.4,18.9c5.7,7.4,8.8,16.7,9.5,28.6
				c0.1,1.5-0.3,2.1-1.7,2.5c-3.1,0.9-5.7,3-7.5,6.1c-1.3,2.2-2.2,5.9-3.3,10.1c-1,3.7-2,8-3.5,11.7l-0.9,2.3
				c-2.1,5.3-5,12.6-9.3,18.9c-1.7,2.5-3.3,3.4-4.6,4C598.1,363.6,597.7,363.8,597.4,363.8z"/>
			<path class="st1" d="M638.4,747.7c-1.7,0-3.2-0.2-4.7-0.5c-1.8-0.4-2.7-1.1-3.3-2.6c-1.5-3.9-2.2-7.9-2.3-13
				c1.3-5.2,0.6-10.8-0.2-16.7c-0.4-3.1-0.8-6.3-0.9-9.5c-0.1-3.3,0.3-6.9,1-10.4c0.8-3.4,3.1-5.4,6.5-5.7c0.2,0,0.5,0,0.7,0
				c3.6,0,7.3,2.3,8.8,5.5c1.7,3.6,3.5,7.2,5.2,10.8l0.6,1.2c1.1,2.2,2.8,3.3,5.2,3.3c0.3,0,0.5,0,0.8,0c2.7-0.2,5.6-0.3,9.2-0.3
				c1.1,0,2.2,0,3.3,0c4,0,7.5,2,10.4,5.7c3.5,4.5,3,9.6-1.2,13.2c-1.6,1.4-3.8,2.4-5.7,3.2c-1.7,0.7-3.6,1.2-5.4,1.7l-1,0.3
				c-4.6,1.2-8,3.7-10.3,7.3c-1.9,3.1-4.7,4.9-8.8,5.7C644,747.2,641.2,747.7,638.4,747.7z"/>
			<path class="st1" d="M753.8,440.1c-0.7,0-1.8-0.5-2.7-2c-0.7-1.3-1.5-2.7-2.3-4.2c-2.2-3.9-4.7-8.3-6.2-11.6
				c-0.5-1.1-1.3-1.8-2.2-1.8c-0.5,0-0.9,0.2-1.2,0.6c-0.3,0.4-0.5,1.2,0.2,2.7c0.4,1,1.7,3.2,2.8,5.4c0.8,1.6,1.7,3.1,2.1,4
				c-0.3,0.2-0.5,0.3-0.9,0.3c-0.5,0-1-0.2-1.2-0.4c-0.8-0.7-1.4-1.6-2-2.5c-0.9-1.5-1.7-3-2.6-4.4c-4-6.7-8.1-13.7-11-21.1
				c-1.2-3-1.7-5.6-1.6-8.2c0.1-3.5,0-7-0.1-11.2c-0.1-1.8,0.5-2.7,2.1-3.3c1-0.4,1.9-0.8,2.8-1.3c0.6-0.3,1.2-0.6,1.8-0.9
				c3.1-1.4,6.2-2.1,9.2-2.1c5.5,0,10.6,2.3,14.8,6.6c1.8,1.8,4,4.2,6,6.8c3,4,9.5,8.6,15,10.5c-1.2,2.6-4.2,3.9-6.1,4l0,0
				c-4.2,0-12.7-4.4-13.5-4.9l-0.6-0.4l-0.5,0.5c-0.9,0.9-1.5,1.8-0.5,3.7c0.7,1.4,1.4,2.7,2.1,4.1l1.7,3.4c0.8,1.5,1.7,3.2,2.6,5.1
				c1.6,3.1,3.3,6.4,4.6,9c0.8,1.5,0.8,2.8,0.5,3.4c-0.2,0.4-0.4,0.4-0.5,0.4c-0.5,0-1.4-0.6-2.3-2.3c-1.5-2.6-3.3-5.8-5.1-8.9
				c-1.2-2.1-2.4-4.2-3.4-6c-0.8-1.5-1.7-2.3-2.5-2.3c-0.4,0-0.8,0.2-1,0.6c-0.4,0.7-0.2,2,0.6,3.4c1.5,2.9,3,5.8,4.4,8.8
				c1.9,3.8,3.8,7.6,5.7,11.4c1,2.2,0.8,3.7,0.4,4.3c-0.2,0.2-0.4,0.4-0.6,0.4c-0.7,0-2-0.8-3.2-2.9c-1.4-2.8-3.3-6.1-5.1-9.5
				c-1.8-3.4-3.7-6.8-5.1-9.6c-0.7-1.3-1.5-2-2.2-2c-0.4,0-0.8,0.2-1,0.6c-0.4,0.6-0.4,1.7,0.2,3c1.2,2.7,2.5,5.3,3.7,7.9l2.8,5.8
				c0.7,1.5,1.5,3.1,2,4.6c0.4,1,0.5,1.8,0.2,2.3C754.5,440,754.1,440.1,753.8,440.1z"/>
			<path class="st1" d="M628.9,632.8c-1.2,0-2.4-0.8-3.9-2.6c-4.4-5.3-6.7-11.7-7-19.7c-0.3-7.5,0.9-15,3.6-22.2
				c3.8-10.5,5.3-20.8,4.4-31.5c-0.2-2.4-0.2-4.8-0.2-7.2v-1.2c0-0.5,0.1-1,0.2-1.5c0-0.1,0-0.2,0.1-0.3c0.1,0,0.2,0,0.3,0
				c2,0,3.5,1.1,5.1,2.5c4,3.5,5.6,8.5,6.6,13.3c2.7,12.5,4.1,25.7,4.2,40.1c0,5.2-0.2,12-2.5,18.6c-1.6,4.6-3.9,7.8-7.1,10
				C631.1,632.3,629.9,632.8,628.9,632.8z"/>
			<path class="st1" d="M649,694c-3.7-7.6-9-9.4-13.1-9.4c-2.1,0-4.3,0.5-6.6,1.4c0.3-1,0.5-1.9,0.8-2.7c2.3-6.5,2.6-13.2,1.1-20.5
				c-1.5-7-2.9-14.1-4.3-21.2l-1.2-6.2c0-0.2-0.1-0.4-0.1-0.7c0,0,0,0,0.1,0c1.7,1.1,3.3,1.6,5,1.6l0,0c2.3,0,4.5-1,6.5-3
				c1.8-1.7,3.2-3.8,4.5-5.8l0.7-0.9c0.5-0.8,0.9-1.7,1.2-2.5c0.1-0.2,0.1-0.3,0.2-0.5l11-1.4c-0.8,4-1.7,8-2.6,12
				c-2.2,9.7-4.5,19.8-5.4,29.9l1.7,0.3l1.7-6.7l8.6-33.8c0.9-3.4,2.7-6.1,5.5-8.2c-0.1,0.3-0.1,0.5-0.2,0.8c-0.4,2-0.8,4-1.5,5.9
				c-4.4,13-7.8,26.5-11,39.5l-1.7,6.7C647.8,676.5,647.5,684.9,649,694z"/>
			<path class="st1" d="M683.7,215.1c-9,0-16.2-2.6-22-8.1c-2.5-2.3-5-4.9-8.1-8.1c-3.4-3.5-7.6-7.6-12.6-10.9
				c-2.5-1.6-2.6-1.9-1.8-4.9c1.4-5.5,4.7-9.7,9.8-12.7c1.5-0.9,3-1.3,4.5-1.3c1,0,2.1,0.2,3.2,0.6c6.4,2.4,11.8,5.2,16.7,8.8
				c7.9,5.8,12.8,13.7,14.5,23.6c0.6,3.6,1,7.3,1.4,10.6c0.2,1.7,0.2,1.7-1.8,2c-1.1,0.1-2.2,0.2-3,0.3L683.7,215.1L683.7,215.1z"/>
			<path class="st1" d="M651.9,615.9c-2.4-0.2-3.8-1.4-4.2-3.8c-0.3-2-0.5-4-0.5-6c-0.2-12.7-1.9-25.5-3.5-37.8l-0.8-6.4
				c-0.7-5.5-1-11.1-1.1-15.9c-0.1-2.3,0.7-4.2,2.5-5.7c0.1,0.1,0.1,0.1,0.2,0.2c0.4,0.4,0.7,0.7,0.9,1.1
				c8.3,13.2,14,25.7,17.3,38.3c1.9,7.2,3.7,15.8,2.7,25c-0.7,6-6.5,11.1-12.6,11.1C652.4,615.9,652.2,615.9,651.9,615.9z"/>
			<path class="st1" d="M687,284.1c-3.8-0.1-6.7-1.6-9.2-4.7c-1.9-2.5-3.6-5.2-4.9-7.6l-0.7-1.2c-1.9-3.2-3.2-5.5-4.8-9
				c0.4,0.3,1,0.7,1.5,1.1c1.8,1.5,3.9,2.4,6,2.4c3,0,5.5-1.6,6.5-4.2c1.5-3.5,2.4-10.1,1.8-15.3c0.4,0.2,0.8,0.5,1.2,0.7
				c0.8,0.5,1.5,0.9,2,1.2l1.2,0.6c3,1.6,6.1,3.3,9.8,3.6c1,0.1,1.7,0.6,2.4,2c2.9,5.9,3.7,12.6,2.5,20.9c-0.4,2.8-2.1,5.1-5.2,6.7
				c-3.6,1.9-6.6,2.8-9.8,2.8L687,284.1z"/>
			<path class="st2" d="M658.5,354.8c-0.6-0.4-2-1.8-4.1-5.8c-3.9-6.5-18.1-18.2-29.7-18.2c-0.5,0-1,0-1.5,0.1
				c1.3-6.7,2.9-12,8.3-15.2c0.7-0.4,1.7-0.6,2.9-0.6c0.7,0,1.4,0.1,2,0.2c6.4,1.3,11.4,5,14.7,11.2c1.4,2.5,2.4,5.1,3,7.6
				c1.3,4.9,2.3,10,3.4,14.8l0.6,2.6C658.6,353.5,658.5,354.4,658.5,354.8z"/>
			<path class="st1" d="M675.2,260.9c-1,0-3.1-1.5-4.5-2.4c-0.4-0.3-0.8-0.6-1.2-0.8c-6.3-5-7.2-9.8-7-18.7
				c0.2-6.8-1.2-18.1-2.5-23.3c-0.3-1.3-0.1-1.8,0-1.9c0.1-0.1,0.3-0.2,0.6-0.2c0.8,0,1.9,0.6,2.5,1.2c1.4,1.8,9.8,13.3,12.3,21.3
				c1.7,5.5,3.6,13.3,2.5,19.5c-0.3,2.3-1.7,5-2.7,5.4L675.2,260.9z"/>
			<path class="st1" d="M635.2,308.7c-0.2-12.4-3.2-22.6-9.1-30.4c2.5,0.8,4.9,1.2,7.2,1.2c7.6,0,14.1-4.3,19.5-12.7
				c-1,7.9-2.7,16.6-6.2,25.1c-2,4.6-4.3,9.5-7.9,13.6c-0.8,0.9-1.8,1.8-3,2.7C635.5,308.4,635.4,308.5,635.2,308.7z"/>
			<path class="st1" d="M696.5,247.5c-0.6,0-1.3-0.1-2.1-0.3c-5.6-1.7-12.2-8.1-15.3-15c-1.2-2.6-2.5-5.1-3.8-7.6
				c-0.7-1.3-1.4-2.7-2.1-4c-0.4-0.8-0.7-1.6-1.2-2.6l-0.1-0.2c0.5,0.1,1.1,0.2,1.6,0.3c2.1,0.4,3.8,0.8,5.7,1
				c2,0.2,4.2,0.3,6.4,0.3c1.3,0,2.6,0,3.9-0.1l0.7,0c1.2,0,1.7,0.2,2,1c0.4,1,0.9,1.9,1.3,2.9c2.9,6.4,5.7,12.5,5.3,19.6
				C698.6,247.5,697.3,247.5,696.5,247.5z"/>
			<path class="st1" d="M720.2,306.1c-2.8-5.1-6.6-9-9.9-12.5c-1.5-1.6-2.9-3.1-4-4.5c-1.4-1.7-2-3-1.2-5.1c0.7-1.9,1-3.9,1.3-6
				c0.1-0.5,0.1-0.9,0.2-1.4C713.4,281.9,720.4,297.3,720.2,306.1z"/>
			<path class="st1" d="M635.8,545.6c-1.5-2-3.7-3.7-6-4.6c3.5-4.2,6.2-9.4,7.2-14.1l0.3,0.5c1.2,2.3,2.3,4.4,3.3,6.6
				c0.2,0.5,0.1,1.4-0.2,2.3c-0.5,1.2-1.1,2.1-1.8,3.2C637.6,541,636.5,542.8,635.8,545.6z"/>
			<path class="st2" d="M652,318.5c-3.2-4-6.3-6.2-10-7.2l6.6-8l0.1,0c0.2,1,0.5,2,0.8,3C650.5,310.2,651.4,314.1,652,318.5z"/>
			<path class="st1" d="M721.1,378.2c-0.5-0.9-1-1.6-1.4-2.4l-1.9-3.5c-2.3-4.3-4.6-8.7-6.8-13.1l-3.3-6.7
				c-4.2-8.5-8.6-17.2-12.6-26c-1.7-3.7-3.1-7.6-4.6-11.3c-2.4-6.2-4.8-12.7-8.3-18.6c-0.3-0.5-0.5-1.1-0.8-1.9
				c-0.6-2.2-0.7-4.3-0.4-6.7c0.3,0.3,1.2,1.4,1.5,1.7c1,1.2,2,2.5,3.1,3.8c1.6,2,3.2,4,4.9,5.9c3.8,4.4,6.6,9.5,8.9,16.7
				c0.5,1.6,1,3.2,1.5,4.9c1.4,4.5,2.8,9.2,4.7,13.7c0.8,2,1.4,2.8,2.2,2.8h0.4l0.4-0.5c0.4-0.5,0.3-1.3,0.2-1.7
				c-2-6.4-4.1-14-5.6-19.5l-0.7-2.6c-1.9-6.9-5.3-13-10.1-18c-0.6-0.6-0.9-1.3-0.9-1.9c0-0.6,0.5-1.3,1.3-2c1.6-1.2,2.8-1.8,4-1.8
				c0.8,0,1.7,0.3,2.7,0.8c2.5,1.4,12.5,10.8,16.1,15.2c3.5,4.3,5.7,9.2,6.4,14.5c0.5,3.6,0.6,7.3,0.7,10.8l0,0.5
				c0.1,2.1,0.1,4.2,0.1,6.3c0,3.1,0,6.3,0.2,9.5l0.1,1.3c0.2,3.6,0.4,7.3,2.1,10.9l1,2.2l0.5-2.4c0.3-1.5,0.3-2.9,0.3-4.2l0-5.4
				c0-5.1,0-10.2,0.1-15.4v-0.4c0-1,0-1.9,0.7-2.6l0.1,0.2c0.3,0.9,0.7,1.7,0.9,2.6c0.5,1.5,0.9,3,1.3,4.4c0.8,2.7,1.6,5.4,2.5,8
				c1.7,4.9,3.1,8.7,4.6,12.8c1,2.8,2.1,5.6,3.3,9l0.2,0.5c0.4,1,1.1,3,0.8,4.3c-0.5,0-0.9-0.1-1.4-0.1c-4.6,0-9.7,2.3-14.7,4.5
				c-1.3,0.6-2.6,1.2-3.9,1.7L721.1,378.2z"/>
			<path class="st1" d="M534.2,547.1c-1.2-1.8-1.4-2.6-1.5-5.2c-0.1-3.5-0.1-7.1,0-10.5l0-3.6c0-1.9,0.1-3.8,0.2-5.7
				c0.2-4.1,0.4-8.3-0.1-12.4c-0.8-6.2-1.9-12.4-3-18.4c-0.9-4.9-1.8-9.9-2.5-14.9c-1.7-12-3.2-24-4.3-35.7
				c-0.5-5.6-0.7-11.4-0.8-17c0-2-0.1-4-0.2-6c-0.4-13.1,0.3-26.5,2.4-41.1c0.5-4,2.2-4.4,3.3-4.4c0.9,0,2.1,0.4,3.5,1
				c1.6,0.8,3.1,2.1,4,3.4c1.7,2.5,2.9,4.9,3.7,7.2c1.7,5.2,2,11,1.1,17.5c-0.5,3.3-1.1,6.6-1.8,9.8l-0.7,3.7
				c-0.4,2-0.2,3.4,0.6,4.4c0.7,0.8,1.8,1.2,3.4,1.2c0.3,0,0.6,0,0.9,0c1.5-0.1,3-0.5,4.5-1l0.9-0.2c0.9-0.2,1.7-0.5,2.6-0.8
				c0.7-0.2,1.4-0.5,2.2-0.7c0.3-0.1,0.6-0.1,0.8-0.1c0.3,0,1,0,1.1,1.4l0.2,1.1c0.1,0.9,0.3,1.8,0.3,2.6l0,4.4c0,5,0,10.1-0.3,15.1
				c-0.2,3.9-0.6,7.8-0.9,11.7c-0.3,3.6-0.7,7.2-0.9,10.8c-0.4,6.9-0.7,13.9-1,20.8c-0.2,3.5-0.3,7.1-0.5,10.6
				c-0.5,10.9-3.2,21.6-8,31.8c-1.5,3.2-3,6.3-4.4,9.5c-1,2.3-2.1,4.6-3.2,6.8c-0.4,0.9-0.9,1.7-1.4,2.6L534.2,547.1z"/>
			<path class="st1" d="M566.6,565.1c-0.1-0.3-0.2-0.6-0.2-1c0-1.3-0.1-2.7-0.1-4c-0.1-3.3-0.2-6.8-0.1-10.1
				c0.2-4.3-1.1-7.9-4.3-11.7c-6.7-7.9-9.1-15.3-7.7-23.8c1.7-10.2,2.2-20.6,2.7-30.8c0.2-4.4,0.4-8.8,0.8-13.2
				c0.8-11,1.9-22.1,3-32.9c0.5-4.9,1-9.9,1.5-14.8c0.7-7.2,4.4-12,11.4-14.6c2.2-0.8,4.2-2,6.2-3.2c0.9-0.5,1.8-1.1,2.7-1.5l2-1.1
				l0.1,0.5c0.1,0.9,0.2,1.7,0.3,2.4c0.1,2.3,0.2,4.6,0.3,6.9l0.2,5c0.1,2.6,0.3,5.2,0.5,7.8c0.3,5.5,0.7,11.1,0.7,16.7
				c0,12.3-0.6,24.7-1.1,36.4l-0.2,4.5c-0.3,6.8-0.5,13.9-1.7,20.6c-2.1,11.8-4.9,24.5-8.8,39.9c-1.3,5.1-3.2,10.1-5.1,15
				c-0.8,2-1.5,3.9-2.2,5.9C567.2,564.3,566.9,564.7,566.6,565.1z"/>
			<path class="st2" d="M545,414.6c-0.8,0-1.2-0.2-1.3-0.4c-0.5-0.5-0.6-1.9-0.3-4l0.2-1.2c0.3-2.3,0.6-4.5,0.8-6.8
				c0.8-7.8,0-15.5-2.5-23c-1.5-4.6-4.3-8-8.5-10.2l-0.6-0.3c-0.3-0.2-0.7-0.4-1-0.6c-1.9-1.2-2-1.4-1.2-3.4
				c4.1-10.4,9.8-18.1,17.4-23.7c4.8-3.5,10.2-5.6,15.6-6.2l0.8,0c2.8,0,3.2,0.4,4,2.9c0.3,1,0.6,1.9,0.9,2.9
				c0.6,1.8,1.1,3.7,1.9,5.5c4.8,10.7,10.6,20.8,17.5,30.2c4.1,5.7,4,9.2-0.6,14.8c-4.3,5.2-9.5,9.5-15.9,13.1
				c-7.3,4.1-15.2,7.3-24.2,9.9C546.7,414.4,545.7,414.6,545,414.6z"/>
			<path class="st1" d="M554.6,273.6c-3.9,0-7.7-1.4-11-3.9c-11.1-8.6-19-30.9-13.1-53.1c2-9.9,6.7-17.2,15.2-23.5
				c0.7-0.5,1.2-0.9,1.8-1.2c0.7-0.4,1.2-0.5,1.6-0.5c0.2,0,0.8,0,1.3,1.6c0.2,0.5,0.2,1,0.3,1.5l0.1,0.7c1.3,6.8,4.2,13.4,8.8,20.2
				c5.7,8.4,11.3,17,16.7,25.4l4.5,6.9c2,3.1,1.9,4.5-0.3,7.8c-3.9,5.9-9.3,10.3-14.5,14.2C562.4,272.2,558.5,273.6,554.6,273.6
				L554.6,273.6z"/>
			<path class="st1" d="M590,253.4c-1.3-2.9-2.6-5.5-4.1-8.1c-1.8-3-3.9-5.9-5.9-8.7c0,0-5.8-8.1-7.9-10.9c-2.9-4-5.8-8-8.6-12
				c-4.2-6-7.1-12.5-8.5-19.2c-1-5.1-2.3-10-3.5-14.2c-1.8-6.9-5.6-11.5-11.4-14.1c0,0,0,0,0,0c2.9-1.2,7.3-2.4,10.8-2.9
				c4.3-0.6,8.9-1,13.2-1c3.9,0,7.5,0.3,10.7,0.8c13.5,2.2,15.1,28.5,15.3,36.5c0.3,13.7,0.4,27.7,0.4,41.2l0.1,13.9
				C590.4,254.2,590.2,253.8,590,253.4z"/>
			<path class="st2" d="M590,363.8c-0.3,0-0.7-0.1-1-0.3c-1.3-0.7-3-1.6-4.7-4.1c-4.3-6.3-7.2-13.6-9.3-18.9l-0.9-2.3
				c-1.5-3.7-2.5-7.9-3.5-11.7c-1.1-4.2-2-7.9-3.3-10.1c-1.8-3.1-4.3-5.2-7.5-6.1c-1.4-0.4-1.8-1-1.7-2.5
				c0.7-11.8,3.9-21.2,9.5-28.6c5.3-6.9,13.4-16.5,16.4-18.9c0.6-0.5,1.2-0.8,1.7-0.8c0.9,0,1.5,0.8,1.7,1.2
				c2.3,3.9,3.6,10.4,3.5,19c0,18.9,0,37.8,0,56.7l0,18.4c0,0.8,0,1.6,0,2.4c0,1.6,0.1,3.2,0,4.8C591.1,362.6,590.9,363.8,590,363.8
				L590,363.8z"/>
			<path class="st1" d="M549,747.7c-2.8,0-5.5-0.5-7.9-0.9c-4.1-0.8-6.8-2.5-8.8-5.7c-2.2-3.6-5.7-6-10.3-7.3l-1-0.3
				c-1.8-0.5-3.7-1-5.4-1.7c-1.9-0.8-4.1-1.8-5.7-3.2c-4.2-3.7-4.7-8.7-1.2-13.2c2.9-3.8,6.4-5.7,10.4-5.7c1.1,0,2.2,0,3.3,0
				c3.6,0,6.6,0.1,9.2,0.3c0.3,0,0.6,0,0.8,0c2.5,0,4.1-1,5.2-3.3l0.6-1.2c1.8-3.6,3.6-7.2,5.2-10.8c1.5-3.2,5.2-5.5,8.8-5.5
				c0.2,0,0.5,0,0.7,0c3.4,0.3,5.7,2.3,6.5,5.7c0.8,3.4,1.1,7,1,10.4c-0.1,3.2-0.5,6.4-0.9,9.5c-0.8,5.9-1.5,11.4-0.2,16.9
				c-0.1,4.8-0.8,8.8-2.3,12.8c-0.6,1.5-1.5,2.2-3.3,2.6C552.2,747.5,550.7,747.7,549,747.7L549,747.7z"/>
			<path class="st1" d="M433.6,440.1c-0.2,0-0.7-0.1-0.9-0.5c-0.3-0.5-0.3-1.3,0.1-2.3c0.6-1.6,1.3-3.2,2-4.7l2.8-5.8
				c1.2-2.6,2.5-5.2,3.7-7.9c0.6-1.3,0.6-2.4,0.2-3.1c-0.2-0.4-0.6-0.6-1-0.6c-0.8,0-1.5,0.7-2.2,2c-1.5,2.9-3.3,6.3-5.2,9.7
				c-1.8,3.3-3.6,6.7-5.1,9.5c-1.3,2.1-2.5,2.8-3.2,2.8c-0.3,0-0.5-0.1-0.6-0.4c-0.4-0.6-0.5-2.1,0.4-4.4c1.9-3.8,3.8-7.5,5.7-11.3
				c1.5-2.9,3-5.9,4.5-8.8c0.8-1.4,1-2.6,0.6-3.4c-0.2-0.4-0.6-0.6-1-0.6c-0.8,0-1.6,0.8-2.5,2.3c-1,1.8-2.2,3.8-3.4,6
				c-1.8,3.1-3.6,6.3-5.1,8.9c-1,1.7-1.9,2.3-2.4,2.3c-0.1,0-0.3,0-0.5-0.4c-0.4-0.6-0.4-2,0.4-3.4c1.3-2.6,3-5.9,4.7-9
				c1-1.8,1.9-3.5,2.6-5.1l1.7-3.4c0.7-1.4,1.4-2.8,2.1-4.1c1-1.9,0.4-2.8-0.4-3.6l-0.5-0.5l-0.7,0.3c-0.8,0.5-9.3,4.9-13.4,4.9l0,0
				c-2,0-5-1.3-6.2-4c5.4-1.9,12-6.5,15-10.5c2-2.6,4.2-5,6-6.8c4.2-4.3,9.3-6.6,14.8-6.6c3,0,6.1,0.7,9.2,2.1
				c0.6,0.3,1.2,0.5,1.8,0.9c0.9,0.5,1.8,0.9,2.8,1.3c1.6,0.6,2.1,1.5,2.1,3.3c-0.1,4.1-0.2,7.6-0.1,11.2c0.1,2.7-0.4,5.3-1.6,8.2
				c-2.9,7.4-7,14.4-11,21.1c-0.9,1.5-1.7,2.9-2.6,4.4c-0.5,0.9-1.2,1.8-2,2.5c-0.2,0.2-0.6,0.4-1.1,0.4c-0.3,0-0.6-0.1-0.9-0.3
				c0.4-0.9,1.2-2.4,2.1-4c1.1-2.2,2.4-4.4,2.8-5.4c0.6-1.4,0.5-2.2,0.2-2.7c-0.3-0.4-0.7-0.6-1.2-0.6c-0.8,0-1.7,0.7-2.2,1.8
				c-1.5,3.3-4,7.7-6.2,11.6c-0.9,1.5-1.6,3-2.4,4.2C435.4,439.6,434.4,440.1,433.6,440.1z"/>
			<path class="st1" d="M558.5,632.8c-1,0-2.2-0.5-3.8-1.7c-3.2-2.2-5.4-5.4-7.1-10c-2.3-6.6-2.6-13.4-2.5-18.6
				c0.1-14.4,1.5-27.5,4.2-40.1c1-4.9,2.6-9.8,6.6-13.3c1.6-1.4,3-2.5,5.1-2.5c0.1,0,0.2,0,0.3,0c0,0.1,0,0.2,0.1,0.3
				c0.1,0.5,0.2,1.1,0.2,1.5v1.2c0,2.4,0,4.8-0.2,7.2c-0.9,10.8,0.6,21.1,4.4,31.5c2.7,7.2,3.8,14.7,3.6,22.2
				c-0.3,7.9-2.6,14.3-7,19.7C560.9,632,559.7,632.8,558.5,632.8L558.5,632.8z"/>
			<path class="st1" d="M538.5,694c1.4-9.1,1.2-17.5-0.8-25.4l-1.7-6.7c-3.2-13-6.6-26.5-11-39.5c-0.6-1.9-1.1-3.9-1.5-5.9
				c-0.1-0.3-0.1-0.5-0.2-0.8c2.8,2.1,4.6,4.8,5.5,8.2l10.3,40.5l1.7-0.3c-0.9-10.2-3.2-20.2-5.4-29.9c-0.9-4-1.8-8-2.6-12l11,1.4
				c0.1,0.2,0.1,0.3,0.2,0.5c0.3,0.8,0.6,1.7,1.2,2.5l0.7,1c1.4,2,2.8,4.1,4.5,5.8c2,2,4.2,3,6.5,3c1.7,0,3.3-0.5,5-1.6
				c0,0,0,0,0.1,0c0,0.2,0,0.5-0.1,0.7l-1.2,6.2c-1.4,7.1-2.8,14.1-4.3,21.2c-1.5,7.3-1.2,14,1.1,20.5c0.3,0.9,0.5,1.8,0.8,2.7
				c-2.3-1-4.5-1.4-6.6-1.4C547.5,684.6,542.2,686.4,538.5,694z"/>
			<path class="st1" d="M502.2,214.4c-0.8-0.1-1.9-0.1-3-0.3c-1.9-0.3-1.9-0.3-1.8-2c0.3-3.3,0.7-7,1.4-10.6
				c1.7-9.9,6.6-17.8,14.5-23.6c4.8-3.5,10.3-6.4,16.7-8.8c1.1-0.4,2.2-0.6,3.2-0.6c1.5,0,3,0.4,4.5,1.3c5.2,3,8.5,7.3,9.8,12.7
				c0.8,3,0.7,3.2-1.8,4.9c-5,3.3-9.2,7.3-12.6,10.9c-3.1,3.2-5.7,5.8-8.1,8.1c-5.8,5.4-13,8.1-22,8.1
				C503,214.4,502.2,214.4,502.2,214.4z"/>
			<path class="st1" d="M534.8,615.9c-6.2,0-11.9-5.1-12.6-11.1c-1-9.2,0.8-17.8,2.7-25c3.3-12.5,9-25.1,17.3-38.3
				c0.2-0.4,0.5-0.7,0.9-1.1c0.1-0.1,0.1-0.1,0.2-0.2c1.8,1.5,2.6,3.4,2.5,5.7c-0.2,4.8-0.4,10.4-1.1,15.9l-0.8,6.4
				c-1.6,12.3-3.3,25.1-3.5,37.8c0,2-0.2,4-0.5,6c-0.4,2.3-1.8,3.6-4.2,3.8C535.3,615.9,535,615.9,534.8,615.9L534.8,615.9z"/>
			<path class="st1" d="M500.1,284.1c-3.1,0-6.2-0.9-9.8-2.8c-3-1.6-4.8-3.9-5.2-6.7c-1.2-8.3-0.4-14.9,2.5-20.9
				c0.7-1.4,1.3-1.9,2.4-2c3.7-0.2,6.8-1.9,9.8-3.6l1.2-0.7c0.5-0.3,1.2-0.7,2-1.2c0.4-0.2,0.8-0.5,1.2-0.7
				c-0.6,5.2,0.4,11.8,1.8,15.3c1.1,2.6,3.6,4.2,6.5,4.2c2.1,0,4.2-0.8,6-2.4c0.5-0.5,1.1-0.8,1.5-1.1c-1.6,3.5-2.9,5.8-4.8,9
				l-0.7,1.2c-1.4,2.4-3,5.1-4.9,7.6c-2.5,3.1-5.4,4.6-9.2,4.7L500.1,284.1z"/>
			<path class="st2" d="M529,354.8c-0.1-0.4-0.1-1.3,0.3-3.3l0.6-2.7c1-4.9,2.1-9.9,3.4-14.8c0.7-2.5,1.7-5.1,3-7.6
				c3.3-6.2,8.3-9.9,14.7-11.2c0.6-0.1,1.3-0.2,2-0.2c1.2,0,2.2,0.2,2.9,0.6c5.5,3.2,7.1,8.6,8.3,15.2c-0.5,0-1-0.1-1.5-0.1
				c-11.6,0-25.8,11.8-29.7,18.2C530.9,353,529.5,354.4,529,354.8z"/>
			<path class="st1" d="M512.2,260.9c-0.1,0-0.1,0-0.2,0c-1-0.4-2.4-3.1-2.7-5.4c-1-6.2,0.8-14,2.5-19.5c2.5-8,10.9-19.5,12.4-21.3
				c0.5-0.7,1.7-1.2,2.5-1.2c0.3,0,0.5,0.1,0.6,0.2c0.1,0.1,0.3,0.6,0,1.9c-1.3,5.2-2.8,16.6-2.5,23.3c0.3,8.9-0.7,13.7-7,18.8
				c-0.3,0.2-0.7,0.5-1.1,0.8C515.3,259.4,513.2,260.9,512.2,260.9L512.2,260.9z"/>
			<path class="st1" d="M551.7,308.2c-1.2-1-2.1-1.8-3-2.7c-3.7-4.1-6-8.9-7.9-13.6c-3.6-8.5-5.2-17.3-6.2-25.1
				c5.4,8.4,12,12.7,19.5,12.7c2.3,0,4.7-0.4,7.2-1.2c-5.8,7.9-8.9,18.1-9.1,30.4C552,308.5,551.9,308.4,551.7,308.2z"/>
			<path class="st1" d="M491,247.5c-0.8,0-2.1,0-2.5-4.8c-0.3-7,2.4-13.1,5.3-19.5c0.4-1,0.9-1.9,1.3-2.9c0.3-0.8,0.8-1,2-1l0.7,0
				c1.3,0.1,2.6,0.1,4,0.1c2.2,0,4.4-0.1,6.4-0.3c1.8-0.2,3.6-0.5,5.7-1c0.5-0.1,1-0.2,1.6-0.3l-0.1,0.2c-0.4,1-0.8,1.8-1.2,2.6
				c-0.7,1.4-1.4,2.7-2,4c-1.3,2.5-2.6,5-3.8,7.6c-3.1,6.9-9.6,13.3-15.3,15C492.2,247.4,491.5,247.5,491,247.5L491,247.5z"/>
			<path class="st1" d="M467.2,306.1c-0.1-8.8,6.9-24.2,13.7-29.6c0.1,0.5,0.1,1,0.2,1.4c0.3,2.1,0.6,4.1,1.3,6
				c0.7,2.1,0.1,3.4-1.2,5.1c-1.1,1.4-2.5,2.9-4,4.5C473.8,297.1,470.1,301.1,467.2,306.1z"/>
			<path class="st1" d="M551.6,545.6c-0.7-2.8-1.8-4.5-2.8-6.1c-0.7-1-1.3-2-1.8-3.2c-0.3-0.8-0.4-1.8-0.2-2.3
				c1-2.2,2.1-4.3,3.3-6.6l0.3-0.5c1.1,4.6,3.8,9.9,7.2,14.1C555.3,541.9,553.1,543.6,551.6,545.6z"/>
			<path class="st2" d="M535.5,318.5c0.5-4.4,1.5-8.3,2.5-12.1c0.2-1,0.5-2,0.8-3l0.1,0l6.6,8C541.8,312.2,538.6,314.5,535.5,318.5z
				"/>
			<path class="st1" d="M465.9,378.9c-1.3-0.5-2.6-1.1-3.9-1.7c-5-2.2-10.1-4.5-14.7-4.5c-0.5,0-1,0-1.4,0.1
				c-0.3-1.3,0.4-3.3,0.8-4.3l0.2-0.5c1.2-3.4,2.3-6.2,3.3-9c1.5-4,2.9-7.8,4.6-12.8c0.9-2.6,1.7-5.3,2.5-8c0.4-1.5,0.9-3,1.3-4.4
				c0.3-0.9,0.6-1.7,0.9-2.6l0.1-0.2c0.7,0.7,0.7,1.6,0.7,2.6v0.4c0,5.1,0.1,10.2,0.1,15.4l0,5.3c0,1.5,0,2.9,0.3,4.3l0.5,2.4l1-2.2
				c1.7-3.5,1.9-7.2,2.1-10.9l0.1-1.3c0.2-3.1,0.2-6.4,0.2-9.5c0-2.1,0-4.2,0.1-6.3l0-0.5c0.1-3.6,0.2-7.3,0.7-10.8
				c0.7-5.3,2.9-10.1,6.4-14.5c3.6-4.4,13.6-13.8,16.1-15.2c1-0.6,1.9-0.8,2.7-0.8c1.2,0,2.4,0.5,4,1.8c0.8,0.7,1.3,1.3,1.3,2
				c0,0.6-0.3,1.2-0.9,1.9c-4.9,5-8.2,11.1-10.1,18l-0.7,2.6c-1.5,5.6-3.5,13.2-5.6,19.5c-0.1,0.4-0.1,1.2,0.2,1.7l0.2,0.3l0.6,0.1
				c0.8,0,1.4-0.8,2.2-2.8c1.9-4.5,3.3-9.2,4.7-13.7c0.5-1.6,1-3.2,1.5-4.9c2.3-7.1,5-12.3,8.9-16.7c1.6-1.9,3.3-3.9,4.9-5.9
				c1-1.3,2.1-2.6,3.1-3.8c0.2-0.3,1.2-1.4,1.5-1.7c0.3,2.4,0.1,4.5-0.4,6.7c-0.2,0.8-0.5,1.4-0.8,1.9c-3.5,5.9-5.9,12.4-8.3,18.6
				c-1.4,3.7-2.9,7.6-4.6,11.3c-4,8.8-8.3,17.5-12.6,26l-3.4,6.7c-2.2,4.4-4.5,8.7-6.8,13.1l-1.9,3.5c-0.4,0.8-0.9,1.6-1.4,2.4
				L465.9,378.9z"/>
			<path class="st1" d="M616.1,129c-0.4-2.1-0.8-4.1-1.3-6.1c-0.5-2.2-1-4.5-1.7-6.8c-3.1-9.4-8.9-13.4-19.4-13.4s-16.3,4-19.4,13.4
				c-0.7,2.2-1.2,4.5-1.7,6.8c-0.5,2-0.8,4-1.3,6.1l-0.4,1.9c-1.1-0.6-1.7-1.4-1.8-2.6c-0.2-1-0.3-2.1-0.4-3.1
				c-0.1-0.9-0.2-1.7-0.3-2.6l-1.5-10.1l-0.6-0.1c-4.3-0.9-4.3-0.9-6-4.4l-0.9-1.8c-0.8-1.7-1.6-3.4-2.4-5.1
				c-1.4-3.1-0.8-4.8,2.3-6.2c0.9-0.4,1.8-0.8,2.6-1.2l1.3-0.6l0-0.5c0.1-1.8,0.2-3.5,0.3-5.2c0.2-3.6,0.4-7,1-10.4
				c2.4-14.3,14.3-24.4,29-24.4s26.7,10,29,24.4c0.5,3.4,0.8,6.8,1,10.4c0.1,1.7,0.2,3.4,0.3,5.2l0,0.5l1.3,0.6
				c0.8,0.3,1.7,0.7,2.6,1.2c3.1,1.5,3.8,3.2,2.3,6.2c-0.8,1.7-1.6,3.4-2.4,5.1l-0.9,1.8c-1.7,3.5-1.7,3.5-6,4.4l-0.6,0.1l-1.5,10.1
				c-0.1,0.9-0.2,1.7-0.3,2.6c-0.1,1-0.3,2.1-0.4,3.1c-0.2,1.2-0.7,2-1.8,2.6L616.1,129z"/>
			<path class="st1" d="M593.7,179.3c-0.6-2.4-1.4-4.9-2.3-7.2c-2.8-6.8-7.8-11-14.7-12.4c-2.8-0.6-5.7-0.6-8.1-0.6l-4.8,0
				c-1,0-1.9,0-2.9-0.1c-0.3,0-0.6,0-1-0.1c2.5-1.9,5-3.3,6.9-4.4c4.7-2.7,7.2-6.9,7.5-12.6l0.3-5.3c0.2-2.6,0.3-5.1,0.5-7.7
				c0.3-5,2.8-12.1,3.9-13.8c0.1-0.2,0.3-0.4,0.4-0.6l-1.2,16.7c-0.1,1.5,0.2,2,0.4,2.2l0.2,0.3l0.5,0.1c0.8,0,1.2-0.8,1.5-2.2
				c0.2-1.1,0.5-4.4,1-8.3c0.4-3.4,0.8-7.3,1.2-10.2c0.3-2.4,1.3-3.8,3.6-4.8c2.9-1.2,6.2-1.3,7.1-1.3s4.2,0.1,7.1,1.3
				c2.2,0.9,3.3,2.3,3.6,4.8c0.4,2.9,0.8,6.8,1.2,10.2c0.4,3.8,0.8,7.1,1,8.2c0.2,1.5,0.7,2.2,1.5,2.2h0.4l0.4-0.3
				c0.2-0.2,0.5-0.7,0.4-2.2l-1.3-16.8c0.1,0.2,0.2,0.3,0.3,0.6c1.2,1.8,3.7,8.9,4,13.9c0.1,2.6,0.3,5.2,0.5,7.8l0.3,5.2
				c0.3,5.7,2.9,9.9,7.5,12.6c1.9,1.1,4.4,2.6,6.9,4.4c-0.3,0-0.6,0-1,0.1c-1,0-1.9,0.1-2.9,0.1l-4.8,0c-2.4,0-5.2,0.1-8.1,0.6
				c-6.9,1.4-11.9,5.6-14.7,12.4C595.1,174.3,594.3,176.9,593.7,179.3z"/>
			<path class="st3" d="M548.1,753.9c-4.7,0-9.3-1-13.7-2.8c-2.2-1-4.4-2.7-5.7-4.6c-2.6-3.9-6.1-6.2-11.5-7.6
				c-3.6-0.9-6.8-2.3-9.4-3.9c-4.2-2.8-6.9-6.8-7.5-11.4c-0.6-4.7,1-9.4,4.5-13.3c4.2-4.7,9.5-7.1,15.6-7.1c0,0,0,0,0.1,0
				c2.8,0,5.5,0,8.2,0h2.4c0.2-1.4,0.4-2.8,0.6-4.2c0.6-4,1.1-8.2,1.5-12.3c0.3-3.5,0.3-6.4-0.2-8.9c-3.2-17.1-7.5-34-12.9-50.3
				c-1.6-4.9-3.3-10.7-3.3-16.8c0-0.7-0.1-1.5-0.3-2.2l0-0.2c-1.2-6.4-1.2-12.8-0.1-19c0.7-3.8,1.8-7.6,2.9-11.2
				c0.4-1.5,0.9-2.9,1.3-4.4c2-7.2,3.9-13.5,7.6-19.5c0.7-1.2,0.8-2.2,0.3-3.9c-0.9-2.8-1.7-5.8-1.8-8.8c-0.1-4.2,0-8.4,0.2-12.6
				c0.1-2.3,0.1-4.7,0.2-7c0-1,0-1.9,0.1-2.9c0.1-2.7,0.2-5.4-0.2-8l-1.4-7.9c-3.3-18.7-6.7-38.1-8.2-57.4
				c-2.2-27.5-2-48.4,0.9-67.9c0.7-4.4,1.3-8.9,5.8-11.2l-0.1-2.3c-0.1-2.4-0.2-4.7-0.4-6.9c0-0.6-0.1-1.1-0.2-1.7
				c-0.2-1.1-0.4-2.3-0.2-3.5c0.3-1.5,0.6-3.1,0.9-4.6c1.4-7.4,2.9-15.1,6-22.3c0.3-0.7,0.4-1.4,0.3-1.6c-1.8-2.9-1.1-5.9-0.5-8.5
				l0.3-1.4c0.7-2.8,1.4-5.8,1.9-8.7c0.5-2.9,1.4-6.1,4.6-8c-5.3-11.2-7.2-23.3-9-35c-0.9,1.4-1.7,2.8-2.5,4.1c-0.6,1-1.2,2-1.7,3
				c-1.6,2.6-3.2,5.2-4.8,7.8c-1.2,2-2.4,3.9-3.6,5.9c-0.3,0.4-0.8,1.3-0.7,1.7c0.5,4.8-0.9,9.1-2.4,12.8l-1.6,4
				c-3.7,9.3-7.6,18.9-11.5,28.3c-5.4,12.9-12.1,25.3-18.5,37.4c-2.4,4.5-4.9,9.1-7.2,13.7l-0.1,0.2c-0.4,0.7-0.8,1.6-1.6,2
				c-2.2,1.2-2.3,3-2.2,5.6c0.1,2.9,0.1,5.9-0.1,8.9c-0.1,1.9-0.2,4.2-1,6.3c-4.1,12-10.7,22.5-17,32.3c-1.4,2.1-3.3,3.3-5.5,3.3
				c-1.7,0.1-2.6,0.9-3.9,2.4c-2.8,3.6-6.6,4.7-11,3.4c-0.8-0.3-2-0.1-3.1,0.1c-2.6,0.4-4.9,0-6.6-1.2c-1.6-1.1-2.6-3-2.9-5.2
				c-0.1-0.4-0.1-0.9-0.2-1.3c-0.3-2.1-0.5-4-2.1-5.4c-0.6-0.5-0.7-1.4-0.8-2.1c0-0.2,0-0.4-0.1-0.6c-0.6-3.4,0.9-6.2,2.3-8.9
				c1.4-2.7,2.8-5.3,4.2-8.2l1.1-2.3c-0.2,0-0.4,0.1-0.6,0.1c-1.5,0.2-2.8,0.4-4.1,0.7c-2.9,0.6-5.6,0.1-8.1-1.5
				c-2.2-1.5-5.3-3.5-5-7.8c0.3-4.3,3.8-5.6,6.1-6.5c4.4-1.6,7.9-4.3,10.7-8.1c4-5.4,9.1-11.3,17-14.1c0.3-0.1,0.8-0.7,1-1.3
				c1.9-5.1,3.7-10.2,5.5-15.3c2.1-5.8,4.2-11.7,6.3-17.5l0.7-1.8c1.2-3.4,2.5-6.8,4.3-10c2.5-4.4,3.8-9,4-14.1l0-0.6
				c0-1.4,0.1-2.7,0.3-4.1l0.4-2.4c0.6-3.4,1.2-7,2-10.4c1.2-4.7,3.7-8.8,6.1-12.8c0.8-1.4,1.7-2.8,2.5-4.2c1.5-2.6,3.1-5.4,5.3-7.8
				c1.5-1.6,2.1-3.3,2.1-5.5c-0.1-3.9,0.7-7.9,2.4-12.3l0.4-0.9c0.9-2.4,1.7-4.4,0.5-6.7c-0.4-0.7-0.3-1.5-0.2-2.2
				c0-0.2,0.1-0.4,0.1-0.6c0.5-9.3,3.5-18.4,9.2-27.8c0.4-0.6,0.6-1.6,0.7-2.5c0.1-1.2,0.3-2.4,0.4-3.6c0.1-1.5,0.3-3,0.5-4.5
				c1.7-11.5,5.5-19.8,12.1-26.1c7.6-7.4,16.9-12.5,28.3-15.7c1.4-0.4,2.8-0.8,4.2-1.1c3.8-1,7.8-2,11.3-3.6
				c3.9-1.8,7.7-4.2,11.4-6.5c1.5-0.9,2.9-1.9,4.4-2.7c2-1.2,3.1-2.9,3.4-5.2c0.2-1.6,0.3-3.3,0.4-5c0-0.6,0.1-1.1,0.1-1.6
				c-5-2.8-5.8-7.6-6-11.1c-0.1-1.1-0.2-2.2-0.4-3.2c-0.1-0.9-0.3-1.9-0.3-2.8c-0.1-1.3-0.6-2.1-1.9-2.8c-1.6-0.9-3.1-2.4-4-4.1
				c-1.1-1.9-2-4-2.9-6c-0.7-1.5-1.3-3-2.1-4.4c-1.7-3.4-1.3-6.7,1.2-9.6c1.1-1.2,2.4-2.3,3.6-3.3c0.4-0.3,0.9-0.7,1.3-1.1
				c0.2-1.3,0.3-2.7,0.4-4.1c0.3-3.4,0.7-6.8,1.4-10.2c1.8-8.5,8.7-28.1,34.9-28.1c26.2,0,33.1,19.7,34.9,28.1
				c0.7,3.4,1.1,6.8,1.4,10.2c0.1,1.4,0.3,2.8,0.5,4.1c0.4,0.4,0.9,0.7,1.3,1.1c1.2,1,2.5,2,3.6,3.3c2.5,2.9,3,6.2,1.2,9.6
				c-0.7,1.4-1.4,2.9-2.1,4.4c-0.9,2-1.8,4-2.9,6c-0.9,1.6-2.4,3.2-4,4.1c-1.3,0.7-1.8,1.4-1.9,2.8c-0.1,0.9-0.2,1.9-0.3,2.8
				c-0.2,1.1-0.3,2.1-0.4,3.2c-0.2,3.4-1,8.2-6,11.1c0,0.6,0.1,1.1,0.1,1.7c0.1,1.7,0.2,3.3,0.4,4.9c0.3,2.2,1.4,3.9,3.4,5.2
				c1.5,0.9,2.9,1.8,4.4,2.7c3.7,2.3,7.4,4.8,11.4,6.5c3.6,1.6,7.5,2.6,11.3,3.6c1.4,0.4,2.8,0.7,4.2,1.1
				c11.4,3.2,20.6,8.3,28.3,15.7c6.6,6.4,10.5,14.7,12.1,26.1c0.2,1.5,0.4,3,0.5,4.5c0.1,1.2,0.2,2.4,0.4,3.6
				c0.1,0.9,0.3,1.8,0.7,2.5c5.7,9.4,8.7,18.4,9.2,27.8c0,0.2,0,0.4,0.1,0.6c0.1,0.7,0.2,1.5-0.2,2.1c-1.2,2.3-0.4,4.3,0.5,6.7
				l0.4,0.9c1.7,4.4,2.4,8.4,2.4,12.3c0,2.2,0.6,3.8,2.1,5.5c2.2,2.3,3.8,5.1,5.3,7.8c0.8,1.4,1.6,2.8,2.5,4.1
				c2.4,4,4.9,8.1,6.1,12.8c0.9,3.4,1.5,7,2,10.4l0.4,2.4c0.2,1.4,0.3,2.8,0.3,4.1l0,0.6c0.2,5.1,1.5,9.7,4,14.1
				c1.8,3.1,3.1,6.6,4.3,10l0.7,1.8c2.1,5.8,4.2,11.7,6.3,17.5c1.8,5.1,3.7,10.2,5.5,15.3c0.2,0.6,0.7,1.2,1,1.3
				c7.9,2.8,13,8.7,17,14.1c2.8,3.8,6.3,6.4,10.7,8.1l0,0c2.3,0.9,5.9,2.2,6.1,6.5c0.3,4.3-2.8,6.3-5,7.8c-2.5,1.6-5.2,2.1-8.1,1.5
				c-1.3-0.3-2.6-0.5-4.1-0.7c-0.2,0-0.4-0.1-0.6-0.1l1.2,2.3c1.4,2.9,2.8,5.5,4.2,8.1c1.5,2.8,3,5.5,2.3,9c0,0.2,0,0.4-0.1,0.6
				c-0.1,0.8-0.2,1.6-0.8,2.1c-1.6,1.4-1.8,3.3-2.1,5.4c0,0.4-0.1,0.9-0.2,1.3c-0.3,2.3-1.3,4.1-2.9,5.2c-1.7,1.2-4,1.7-6.6,1.2
				c-1.2-0.2-2.3-0.4-3.2-0.1c-4.4,1.3-8.2,0.2-11-3.4c-1.2-1.6-2.2-2.4-3.9-2.4c-2.2-0.1-4.2-1.3-5.5-3.3
				c-6.4-9.8-12.9-20.4-17-32.3c-0.7-2.1-0.8-4.4-1-6.3c-0.2-3-0.2-6-0.1-8.9c0.1-2.5,0-4.4-2.2-5.6c-0.8-0.4-1.3-1.3-1.6-2
				l-0.1-0.2c-2.4-4.6-4.8-9.1-7.2-13.7c-6.4-12.1-13.1-24.5-18.5-37.4c-4-9.4-7.8-19-11.5-28.3l-1.6-4c-1.5-3.6-2.9-8-2.4-12.8
				c0-0.5-0.5-1.3-0.7-1.7c-1.2-2-2.4-3.9-3.6-5.9c-1.6-2.6-3.2-5.2-4.8-7.8c-0.6-1-1.2-2-1.8-3c-0.8-1.4-1.6-2.7-2.4-4.1
				c-1.8,11.7-3.8,23.7-9,35c3.2,1.9,4,5.1,4.6,8c0.5,2.9,1.2,5.9,1.9,8.8l0.3,1.3c0.7,2.8,1.3,5.6-0.5,8.5c0,0.1,0,0.8,0.3,1.5
				c3.1,7.2,4.6,14.9,6,22.3c0.3,1.5,0.6,3.1,0.9,4.6c0.2,1.2,0,2.3-0.2,3.5c-0.1,0.6-0.2,1.1-0.2,1.7c-0.2,2.3-0.3,4.5-0.4,6.9
				l-0.1,2.3c4.5,2.3,5.1,6.8,5.7,11c2.9,19.6,3.1,40.6,0.9,68.1c-1.6,19.3-5,38.6-8.2,57.3l-1.4,7.9c-0.4,2.6-0.3,5.3-0.2,8
				c0,1,0.1,1.9,0.1,2.9c0,2.3,0.1,4.6,0.2,6.9c0.1,4.1,0.2,8.4,0.2,12.6c-0.1,3-0.9,6-1.8,8.8c-0.5,1.7-0.4,2.7,0.3,3.9
				c3.7,5.9,5.6,12.3,7.6,19.5c0.4,1.4,0.8,2.9,1.3,4.3c1.1,3.7,2.2,7.5,2.9,11.3c1.1,6.3,1,12.7-0.1,19l0,0.3
				c-0.1,0.8-0.3,1.5-0.3,2.2c0,6.1-1.7,11.9-3.3,16.8c-5.3,16.3-9.7,33.2-12.9,50.3c-0.5,2.5-0.5,5.4-0.2,8.9
				c0.4,4.1,1,8.2,1.5,12.2c0.2,1.4,0.4,2.9,0.6,4.3h2.4c2.7,0,5.4,0,8.2,0c6.1,0.1,11.4,2.4,15.6,7.1c3.5,3.8,5.1,8.5,4.5,13.3
				c-0.6,4.6-3.2,8.7-7.5,11.4c-2.6,1.7-5.8,3-9.4,3.9c-5.4,1.3-9,3.7-11.5,7.6c-1.2,1.9-3.4,3.7-5.7,4.6c-7,3-14.5,3.6-22,1.9
				c-3-0.7-5-2.4-6.2-5.3c-2.7-6.4-3.6-13-2.8-19.6c0.5-3.9,0-7.7-0.5-11.7l-0.4-3c-0.3-2.6-0.7-5.3-0.8-7.9
				c-0.3-7.4,0.8-15.1,3.4-23.3c2-6.3,2.3-12.2,1.1-18c-1-4.9-2-9.9-3-14.8c-1-4.9-2-9.9-3-14.8c-0.3-1.4-0.7-2.5-1.2-3.2
				c-5.6-8.8-7.3-19.2-5.2-31.7c0.7-4.2,1.9-8.3,3.1-12.3c0.5-1.7,1-3.4,1.5-5.2c0.2-0.8,0.5-1.5,0.8-2.3l0.4-1
				c1.2-3.5,1.8-6.4-1.5-9.2c-2.2-1.9-3.5-5-4.5-8c-2.8-8-5.2-15.2-7.1-22.7l-0.9-3.5c-2.3-9.2-4.6-17.9-6.2-28.7
				c-1-7.3-1.8-15.6-2.1-21.5l-0.2-4.7c-0.7-14.9-1.5-33.3,0-57.3c0.2-2.6,0.3-5.2,0.4-7.8c0.2-3.3,0.3-6.5,0.5-9.8
				c0.1-1.5,0.3-3,0.6-4.8c0.1-0.8,0.2-1.6,0.4-2.5c-0.3-0.3-0.7-0.6-1.1-0.9c-0.8-0.7-1.7-1.5-2.7-2.4c-1,0.9-1.9,1.7-2.7,2.4
				c-0.4,0.4-0.8,0.7-1.1,0.9c0.1,0.9,0.2,1.7,0.4,2.5c0.3,1.7,0.5,3.2,0.6,4.8c0.2,3.3,0.4,6.5,0.5,9.8c0.1,2.6,0.3,5.2,0.4,7.8
				c1.5,24,0.6,42.5-0.1,57.4l-0.2,4.6c-0.3,6-1,14.2-2,21.5c-1.7,10.8-3.9,19.5-6.3,28.7l-0.9,3.5c-1.9,7.5-4.3,14.7-7.1,22.7
				c-1,3-2.3,6.1-4.5,8c-3.3,2.9-2.7,5.8-1.5,9.2l0.4,1c0.3,0.8,0.5,1.5,0.8,2.3c0.5,1.7,1,3.4,1.5,5.2c1.2,4,2.4,8.1,3.1,12.3
				c2.1,12.5,0.4,22.9-5.2,31.7c-0.5,0.8-0.9,1.8-1.2,3.2c-1,4.9-2,9.7-3,14.6c-1,5-2,10-3.1,15c-1.2,5.9-0.9,11.7,1.1,18
				c2.6,8.3,3.7,15.9,3.4,23.3c-0.1,2.7-0.5,5.3-0.8,7.9l-0.4,3c-0.5,4-0.9,7.8-0.5,11.7c0.8,6.7-0.1,13.3-2.7,19.6
				c-1.2,2.9-3.2,4.6-6.2,5.3C553.6,753.6,550.8,753.9,548.1,753.9z M520.3,705.2c-5.5,0-10.2,2.2-14.1,6.4c-3.1,3.4-4.5,7.6-4,11.7
				c0.5,4,2.9,7.6,6.6,10c2.4,1.6,5.4,2.8,8.8,3.7c5.9,1.5,9.8,4.1,12.7,8.4c1,1.6,2.9,3.1,4.8,3.9c6.7,2.8,13.7,3.4,20.8,1.8
				c2.4-0.5,3.8-1.8,4.8-4.2c2.5-6,3.4-12.3,2.6-18.6c-0.5-4.2,0-8.2,0.4-12.2l0.4-3.1c0.3-2.5,0.7-5.2,0.8-7.8
				c0.3-7.2-0.8-14.6-3.3-22.7c-2.1-6.6-2.5-12.8-1.2-19c1-5,2.1-10,3.1-15c1-4.9,2-9.7,3-14.6c0.3-1.6,0.8-2.9,1.4-3.9
				c5.3-8.4,7-18.3,5-30.4c-0.7-4.1-1.9-8.2-3-12.1c-0.5-1.7-1-3.5-1.5-5.2c-0.2-0.7-0.5-1.4-0.7-2.2l-0.4-1.1
				c-1.3-3.7-2.1-7.7,2.1-11.4c1.9-1.6,3-4.5,4-7.2c2.7-8,5.2-15.2,7-22.6l0.9-3.5c2.3-9.2,4.5-17.8,6.2-28.5c1-7.2,1.8-15.4,2-21.3
				l0.2-4.6c0.7-14.8,1.5-33.3,0.1-57.2c-0.2-2.6-0.3-5.2-0.4-7.8c-0.2-3.3-0.3-6.5-0.5-9.8c-0.1-1.4-0.3-2.8-0.6-4.6
				c-0.1-0.9-0.3-1.9-0.4-3l-0.1-0.5l0.4-0.4c0.4-0.3,0.9-0.8,1.5-1.3c0.9-0.8,2.1-1.8,3.3-2.9l0.7-0.6l0.7,0.6
				c1.2,1.1,2.4,2.1,3.3,2.9c0.6,0.5,1.1,1,1.5,1.3l0.4,0.4l-0.1,0.5c-0.2,1.1-0.3,2.1-0.4,3c-0.3,1.8-0.5,3.2-0.6,4.6
				c-0.2,3.3-0.4,6.5-0.5,9.8c-0.1,2.6-0.3,5.2-0.4,7.8c-1.5,23.9-0.6,42.3,0.1,57.1l0.2,4.7c0.3,5.9,1,14.1,2,21.3
				c1.7,10.7,3.9,19.3,6.2,28.5l0.9,3.5c1.9,7.4,4.3,14.6,7,22.6c0.9,2.7,2.1,5.6,4,7.2c4.2,3.7,3.3,7.6,2.1,11.4l-0.4,1.1
				c-0.2,0.7-0.5,1.4-0.7,2.2c-0.5,1.7-1,3.5-1.5,5.2c-1.2,3.9-2.4,8-3,12.1c-2,12-0.4,22,5,30.4c0.6,1,1.1,2.3,1.4,3.9
				c1,4.9,2,9.9,3,14.8c1,4.9,2,9.9,3,14.8c1.3,6.2,0.9,12.4-1.2,19c-2.5,8-3.6,15.5-3.3,22.7c0.1,2.6,0.5,5.2,0.8,7.8l0.4,3.1
				c0.5,3.9,1,8,0.4,12.2c-0.8,6.3,0.1,12.6,2.6,18.6c1,2.4,2.4,3.6,4.8,4.2c7.1,1.7,14.1,1.1,20.8-1.8c1.9-0.8,3.8-2.3,4.8-3.9
				c2.8-4.3,6.8-6.9,12.7-8.4c3.4-0.8,6.4-2.1,8.8-3.7c3.7-2.4,6.1-6,6.6-10c0.5-4.1-0.9-8.3-4-11.7c-3.9-4.3-8.6-6.4-14.1-6.4
				c-1.6,0.1-3.2,0-4.7,0c-1.2,0-2.4,0-3.5,0h-4.1l-0.1-0.8c-0.2-1.7-0.5-3.4-0.7-5.1c-0.6-4-1.1-8.2-1.5-12.3
				c-0.3-3.7-0.3-6.8,0.2-9.4c3.2-17.2,7.6-34.2,12.9-50.6c1.6-4.8,3.2-10.3,3.2-16.2c0-0.9,0.2-1.7,0.3-2.6l0-0.3
				c1.1-6.2,1.2-12.3,0.1-18.3c-0.6-3.7-1.8-7.5-2.8-11.1c-0.4-1.5-0.9-2.9-1.3-4.4c-2-7-3.8-13.3-7.4-18.9c-1.3-2.1-1-3.9-0.5-5.5
				c0.8-2.7,1.6-5.6,1.7-8.3c0.1-4.2,0-8.4-0.2-12.5c-0.1-2.3-0.1-4.6-0.2-7c0-0.9,0-1.9-0.1-2.8c-0.1-2.8-0.2-5.6,0.3-8.4l1.4-7.9
				c3.3-18.7,6.6-38,8.2-57.1c2.2-27.3,2-48.1-0.9-67.5c-0.7-4.5-1.2-8.2-5.2-10l-0.6-0.3l0.2-3.7c0.1-2.4,0.2-4.7,0.4-7
				c0-0.6,0.2-1.3,0.3-1.9c0.2-1,0.3-1.9,0.2-2.7c-0.3-1.5-0.6-3.1-0.9-4.6c-1.4-7.3-2.8-14.9-5.9-21.9c-0.3-0.7-0.9-2.3-0.2-3.4
				c1.4-2.2,0.9-4.5,0.3-7l-0.3-1.2c-0.7-2.9-1.4-5.9-2-8.9c-0.6-3.4-1.6-5.7-4.3-7.1l-0.9-0.4l0.4-0.9c5.7-11.6,7.6-24.2,9.5-36.5
				l0.6-3.8l1.4,2.1c1.5,2.1,2.7,4.3,3.9,6.4c0.6,1,1.1,2,1.7,3c1.6,2.6,3.2,5.2,4.8,7.8c1.2,2,2.5,3.9,3.7,5.9c0.6,0.9,1.1,1.9,1,3
				c-0.4,4.4,0.9,8.4,2.2,11.8l1.6,4c3.7,9.3,7.5,18.9,11.5,28.3c5.4,12.8,12,25.2,18.4,37.2c2.4,4.5,4.8,9.1,7.2,13.7l0.1,0.2
				c0.2,0.4,0.5,1,0.8,1.2c3.5,1.8,3.3,5,3.3,7.4c-0.1,2.8-0.1,5.8,0.1,8.7c0.1,1.8,0.2,3.9,0.8,5.8c4,11.7,10.5,22.2,16.8,31.9
				c1,1.5,2.4,2.4,4,2.4c2.7,0.1,4.1,1.6,5.3,3.2c2.3,3,5.2,3.9,8.8,2.7c1.3-0.4,2.6-0.2,4,0c2.1,0.4,3.9,0,5.1-0.9
				c1.2-0.9,1.9-2.2,2.2-3.9c0.1-0.4,0.1-0.8,0.2-1.2c0.3-2.3,0.6-4.7,2.7-6.6c0-0.1,0.1-0.6,0.1-0.9c0-0.3,0-0.5,0.1-0.8
				c0.5-2.8-0.8-5.1-2.1-7.6c-1.5-2.7-2.8-5.4-4.2-8.3l-2.9-5.7l1.9,0.3c0.9,0.1,1.7,0.3,2.5,0.4c1.6,0.2,2.9,0.4,4.2,0.7
				c2.4,0.5,4.5,0.1,6.5-1.2c2.5-1.7,4.3-3.1,4.1-6.1c-0.2-2.8-2.2-3.8-4.9-4.8c-4.8-1.8-8.5-4.6-11.6-8.7
				c-3.8-5.1-8.7-10.8-16.1-13.4c-1-0.4-1.9-1.5-2.2-2.5c-1.9-5.1-3.7-10.2-5.5-15.3c-2.1-5.8-4.2-11.7-6.3-17.5l-0.7-1.8
				c-1.2-3.3-2.4-6.7-4.1-9.7c-2.7-4.6-4.1-9.6-4.3-15l0-0.6c0-1.3-0.1-2.6-0.3-3.8l-0.4-2.4c-0.6-3.4-1.2-6.9-2-10.3
				c-1.1-4.4-3.5-8.4-5.9-12.2c-0.8-1.4-1.7-2.8-2.5-4.2c-1.4-2.5-3-5.2-5-7.4c-1.9-2-2.7-4.1-2.6-6.8c0.1-3.7-0.7-7.5-2.2-11.6
				l-0.3-0.9c-1-2.4-2.1-5.2-0.5-8.3c0.1-0.1,0-0.7,0-1c0-0.3-0.1-0.5-0.1-0.8c-0.5-9-3.4-17.8-8.9-26.9c-0.6-1-0.8-2.1-0.9-3.2
				c-0.2-1.2-0.3-2.4-0.4-3.6c-0.1-1.5-0.3-2.9-0.5-4.4c-1.6-11-5.3-19-11.6-25c-7.4-7.1-16.4-12.1-27.4-15.2
				c-1.4-0.4-2.8-0.8-4.2-1.1c-3.9-1-8-2-11.7-3.7c-4.1-1.9-7.9-4.3-11.6-6.7c-1.4-0.9-2.9-1.8-4.3-2.7c-2.5-1.5-4-3.8-4.3-6.6
				c-0.2-1.7-0.3-3.4-0.4-5.1c0-0.8-0.1-1.5-0.2-2.3l0-0.6l0.6-0.3c3.6-1.8,5.2-4.7,5.5-9.7c0.1-1.1,0.2-2.3,0.4-3.4
				c0.1-0.9,0.2-1.8,0.3-2.7c0.2-2,1-3.3,2.9-4.3c1.3-0.7,2.5-2,3.3-3.3c1-1.9,2-3.9,2.8-5.8c0.7-1.5,1.4-3,2.1-4.5
				c1.4-2.7,1-5.1-1-7.4c-1-1.1-2.1-2-3.3-3c-0.6-0.4-1.1-0.9-1.7-1.4l-0.3-0.2l0-0.4c-0.2-1.5-0.3-3-0.5-4.6
				c-0.3-3.3-0.7-6.7-1.4-10c-1.7-8-8.2-26.6-33-26.6s-31.3,18.6-33,26.6c-0.7,3.3-1,6.7-1.4,10c-0.2,1.5-0.3,3-0.5,4.5l0,0.4
				l-0.3,0.2c-0.5,0.5-1.1,0.9-1.7,1.4c-1.2,1-2.4,1.9-3.3,3c-2,2.3-2.3,4.8-1,7.4c0.8,1.5,1.4,3,2.1,4.5c0.9,1.9,1.8,3.9,2.8,5.8
				c0.7,1.3,2,2.6,3.3,3.3c1.8,1,2.7,2.3,2.9,4.3c0.1,0.9,0.2,1.8,0.3,2.7c0.2,1.1,0.3,2.3,0.4,3.4c0.3,5,1.9,7.9,5.5,9.7l0.6,0.3
				l0,0.6c-0.1,0.8-0.1,1.5-0.2,2.3c-0.1,1.7-0.2,3.4-0.4,5.1c-0.3,2.8-1.8,5.1-4.3,6.6c-1.5,0.9-2.9,1.8-4.3,2.7
				c-3.7,2.4-7.5,4.8-11.6,6.7c-3.7,1.7-7.8,2.7-11.7,3.7c-1.4,0.4-2.8,0.7-4.2,1.1c-11.1,3.1-20,8.1-27.4,15.2
				c-6.3,6-9.9,14-11.6,25c-0.2,1.4-0.3,2.9-0.5,4.4c-0.1,1.2-0.2,2.4-0.4,3.6c-0.1,1.1-0.4,2.3-1,3.2c-5.5,9.1-8.5,17.9-8.9,26.9
				c0,0.2,0,0.5-0.1,0.8c0,0.3-0.1,0.9,0,1c1.6,3.1,0.5,5.9-0.5,8.3l-0.4,0.9c-1.6,4.1-2.3,7.9-2.2,11.6c0,2.7-0.8,4.8-2.6,6.8
				c-2,2.2-3.6,4.8-5,7.4c-0.8,1.4-1.6,2.8-2.5,4.2c-2.3,3.8-4.8,7.8-5.9,12.2c-0.9,3.4-1.4,6.9-2,10.3l-0.4,2.4
				c-0.2,1.2-0.2,2.5-0.3,3.8l0,0.6c-0.2,5.5-1.6,10.4-4.3,15c-1.7,3-2.9,6.4-4.1,9.6l-0.7,1.8c-2.1,5.8-4.2,11.7-6.3,17.5
				c-1.8,5.1-3.7,10.2-5.5,15.3c-0.3,0.9-1.2,2.1-2.2,2.5c-7.4,2.7-12.3,8.3-16.1,13.4c-3,4.1-6.8,7-11.6,8.7c-2.6,1-4.7,2-4.9,4.8
				c-0.2,2.9,1.6,4.4,4.1,6.1c2,1.3,4.1,1.7,6.5,1.2c1.3-0.3,2.7-0.5,4.2-0.7c0.8-0.1,1.6-0.2,2.5-0.4l1.9-0.3l-2.9,5.7
				c-1.5,2.9-2.8,5.5-4.2,8.2c-1.4,2.6-2.6,4.9-2.1,7.7c0,0.2,0.1,0.5,0.1,0.8c0,0.3,0.1,0.8,0.2,0.9c2.1,1.9,2.4,4.3,2.7,6.6
				c0,0.4,0.1,0.8,0.2,1.2c0.3,1.8,1,3.1,2.1,3.9c1.3,0.9,3,1.2,5.1,0.9c1.4-0.2,2.8-0.4,4,0c3.6,1.1,6.5,0.2,8.8-2.7
				c1.2-1.5,2.6-3.1,5.3-3.2c1.6,0,3-0.9,4-2.4c6.3-9.7,12.8-20.1,16.8-31.9c0.6-1.8,0.8-4,0.9-5.8c0.2-3,0.2-5.9,0.1-8.7
				c-0.1-2.3-0.2-5.6,3.2-7.4c0.3-0.1,0.6-0.8,0.8-1.2l0.1-0.2c2.4-4.6,4.8-9.1,7.2-13.7c6.4-12,13-24.5,18.4-37.2
				c4-9.4,7.8-19,11.5-28.3l1.6-4c1.4-3.4,2.7-7.5,2.2-11.8c-0.1-1,0.5-2.1,1-3c1.2-2,2.4-3.9,3.7-5.9c1.6-2.6,3.2-5.1,4.8-7.8
				c0.6-1,1.2-2,1.7-3c1.2-2.1,2.5-4.3,3.9-6.4l1.4-2.1l0.6,3.8c1.9,12.2,3.8,24.9,9.5,36.5l0.4,0.9l-0.9,0.4
				c-2.8,1.3-3.7,3.7-4.3,7.1c-0.5,3-1.2,5.9-1.9,8.8l-0.3,1.4c-0.6,2.6-1.1,4.8,0.3,7c0.7,1.1,0,2.9-0.2,3.4
				c-3,7-4.5,14.5-5.9,21.9c-0.3,1.5-0.6,3.1-0.9,4.6c-0.2,0.8,0,1.7,0.2,2.7c0.1,0.6,0.2,1.3,0.3,1.9c0.2,2.3,0.3,4.5,0.4,7
				l0.2,3.7l-0.6,0.3c-4,1.8-4.6,5.5-5.2,9.8c-2.8,19.5-3.1,40.3-0.9,67.6c1.6,19.2,4.9,38.5,8.2,57.2l1.4,7.9
				c0.5,2.8,0.4,5.6,0.3,8.4c0,0.9-0.1,1.9-0.1,2.8c0,2.3-0.1,4.7-0.2,7c-0.1,4.1-0.2,8.3-0.2,12.5c0.1,2.8,0.9,5.6,1.7,8.3
				c0.5,1.6,0.8,3.4-0.5,5.5c-3.5,5.7-5.4,11.9-7.4,18.9c-0.4,1.5-0.8,2.9-1.3,4.4c-1.1,3.6-2.2,7.3-2.8,11c-1,6-1,12.2,0.1,18.3
				c0.2,1.1,0.4,1.9,0.4,2.8c0,5.8,1.6,11.4,3.2,16.1c5.4,16.4,9.7,33.4,12.9,50.6c0.5,2.7,0.6,5.7,0.2,9.4c-0.4,4.2-1,8.3-1.5,12.4
				c-0.2,1.7-0.5,3.3-0.7,5l-0.1,0.8h-4.1C525.8,705.2,523.1,705.2,520.3,705.2C520.3,705.2,520.3,705.2,520.3,705.2z"/>
		</g>
	</g>
</g>
</svg>
