<?xml version="1.0" encoding="utf-8"?>
<!-- Generator: $$$/GeneralStr/196=Adobe Illustrator 27.6.0, SVG Export Plug-In . SVG Version: 6.00 Build 0)  -->
<svg version="1.1" id="圖層_1" xmlns="http://www.w3.org/2000/svg" xmlns:xlink="http://www.w3.org/1999/xlink" x="0px" y="0px"
	 viewBox="0 0 60 60" style="enable-background:new 0 0 60 60;" xml:space="preserve">
<style type="text/css">
	.st0{fill:#FFFFFF;}
</style>
<g>
	<g>
		<path class="st0" d="M43.8,16.1c-0.2-1.1-1.1-1.9-2.3-1.9h-4.5l-0.2-1.3c-0.3-1.7-1.7-2.9-3.4-2.9h-7c-1.7,0-3.1,1.2-3.4,2.9
			l-0.2,1.3h-4.5c-1.1,0-2.1,0.8-2.3,1.9l-0.4,2.7c0,0.1,0,0.1,0.1,0.1h28.3c0.1,0,0.1-0.1,0.1-0.1L43.8,16.1z M25.4,13.3
			c0.1-0.6,0.6-1,1.1-1h7c0.6,0,1,0.4,1.1,1l0.2,0.9h-9.5L25.4,13.3z"/>
		<path class="st0" d="M16.8,21.4L19.9,47c0.2,1.7,1.7,3,3.4,3h13.4c1.7,0,3.2-1.3,3.4-3l3.1-25.6H16.8z M25.1,46.7c0,0-0.1,0-0.1,0
			c-0.6,0-1.2-0.5-1.2-1.1l-1.5-17.9c-0.1-0.7,0.4-1.3,1.1-1.3c0.7-0.1,1.3,0.4,1.3,1.1l1.5,17.9C26.2,46,25.7,46.6,25.1,46.7z
			 M31.2,45.4c0,0.7-0.6,1.2-1.2,1.2s-1.2-0.6-1.2-1.2V27.5c0-0.7,0.6-1.2,1.2-1.2s1.2,0.6,1.2,1.2V45.4z M37.8,27.6l-1.5,17.9
			c-0.1,0.6-0.6,1.1-1.2,1.1c0,0-0.1,0-0.1,0c-0.7-0.1-1.2-0.7-1.1-1.3l1.5-17.9c0.1-0.7,0.7-1.2,1.3-1.1
			C37.4,26.3,37.9,26.9,37.8,27.6z"/>
	</g>
	<path class="st0" d="M30,0.5c16.3,0,29.5,13.2,29.5,29.5S46.3,59.5,30,59.5S0.5,46.3,0.5,30S13.7,0.5,30,0.5 M30,0
		C13.4,0,0,13.4,0,30s13.4,30,30,30s30-13.4,30-30S46.6,0,30,0L30,0z"/>
</g>
</svg>
